comporg_lab1-leejunhee3123-main/sim.vcd
$date
	Tue Apr 11 21:07:05 2023
$end
$version
	Icarus Verilog
$end
$timescale
	10ps
$end
$scope module riscv_tb $end
$var reg 1 ! clk $end
$var reg 1 " rstn $end
$var integer 32 # i [31:0] $end
$scope module my_cpu $end
$var wire 32 $ NEXT_PC [31:0] $end
$var wire 32 % alu_in1 [31:0] $end
$var wire 32 & alu_in2 [31:0] $end
$var wire 1 ! clk $end
$var wire 32 ' instruction [31:0] $end
$var wire 1 " rstn $end
$var wire 32 ( write_data [31:0] $end
$var wire 1 ) taken $end
$var wire 32 * sextimm [31:0] $end
$var wire 32 + rs2_out [31:0] $end
$var wire 5 , rs2 [4:0] $end
$var wire 32 - rs1_out [31:0] $end
$var wire 5 . rs1 [4:0] $end
$var wire 1 / reg_write $end
$var wire 32 0 read_data [31:0] $end
$var wire 5 1 rd [4:0] $end
$var wire 7 2 opcode [6:0] $end
$var wire 1 3 mem_write $end
$var wire 1 4 mem_to_reg $end
$var wire 1 5 mem_read $end
$var wire 2 6 maskmode [1:0] $end
$var wire 2 7 jump [1:0] $end
$var wire 7 8 funct7 [6:0] $end
$var wire 3 9 funct3 [2:0] $end
$var wire 1 : branch $end
$var wire 1 ; alu_src $end
$var wire 32 < alu_out [31:0] $end
$var wire 2 = alu_op [1:0] $end
$var wire 4 > alu_func [3:0] $end
$var wire 1 ? alu_check $end
$var wire 32 @ PC_PLUS_4 [31:0] $end
$var reg 32 A PC [31:0] $end
$scope module m_ALU $end
$var wire 32 B in_a [31:0] $end
$var wire 32 C in_b [31:0] $end
$var wire 4 D alu_func [3:0] $end
$var reg 1 ? check $end
$var reg 32 E result [31:0] $end
$upscope $end
$scope module m_ALU_control $end
$var wire 3 F funct3 [2:0] $end
$var wire 7 G funct7 [6:0] $end
$var wire 4 H funct [3:0] $end
$var wire 2 I alu_op [1:0] $end
$var reg 4 J alu_func [3:0] $end
$upscope $end
$scope module m_branch_control $end
$var wire 1 ? check $end
$var wire 1 : branch $end
$var reg 1 ) taken $end
$upscope $end
$scope module m_control $end
$var wire 7 K opcode [6:0] $end
$var wire 1 / reg_write $end
$var wire 1 3 mem_write $end
$var wire 1 4 mem_to_reg $end
$var wire 1 5 mem_read $end
$var wire 2 L jump [1:0] $end
$var wire 1 : branch $end
$var wire 1 ; alu_src $end
$var wire 2 M alu_op [1:0] $end
$var reg 10 N controls [9:0] $end
$upscope $end
$scope module m_data_memory $end
$var wire 32 O address [31:0] $end
$var wire 1 ! clk $end
$var wire 2 P maskmode [1:0] $end
$var wire 1 5 mem_read $end
$var wire 1 3 mem_write $end
$var wire 1 Q sext $end
$var wire 32 R write_data [31:0] $end
$var wire 8 S address_internal [7:0] $end
$var reg 32 T read_data [31:0] $end
$upscope $end
$scope module m_imm_generator $end
$var wire 32 U instruction [31:0] $end
$var wire 7 V opcode [6:0] $end
$var reg 32 W sextimm [31:0] $end
$upscope $end
$scope module m_mux_2x1 $end
$var wire 32 X in2 [31:0] $end
$var wire 1 ; select $end
$var wire 32 Y in1 [31:0] $end
$var reg 32 Z out [31:0] $end
$upscope $end
$scope module m_mux_2x1_2 $end
$var wire 32 [ in1 [31:0] $end
$var wire 32 \ in2 [31:0] $end
$var wire 1 4 select $end
$var reg 32 ] out [31:0] $end
$upscope $end
$scope module m_next_pc_adder $end
$var wire 32 ^ in_a [31:0] $end
$var wire 32 _ in_b [31:0] $end
$var reg 32 ` result [31:0] $end
$upscope $end
$scope module m_register_file $end
$var wire 1 ! clk $end
$var wire 5 a rd [4:0] $end
$var wire 1 / reg_write $end
$var wire 5 b rs1 [4:0] $end
$var wire 32 c rs1_out [31:0] $end
$var wire 5 d rs2 [4:0] $end
$var wire 32 e rs2_out [31:0] $end
$var wire 32 f write_data [31:0] $end
$upscope $end
$upscope $end
$upscope $end
$enddefinitions $end
#0
$dumpvars
bz f
bx e
bx d
bx c
bx b
bx a
bx `
b100 _
bx ^
bx ]
bx \
bx [
bx Z
bx Y
bx X
bx W
bx V
bx U
bx T
bx S
bx R
0Q
bx P
bx O
bx N
bx M
bx L
bx K
bx J
bx I
bx H
bx G
bx F
bx E
bx D
bx C
bx B
bx A
bx @
x?
bx >
bx =
bx <
x;
x:
bx 9
bx 8
bx 7
bx 6
x5
x4
x3
bx 2
bx 1
bx 0
x/
bx .
bx -
bx ,
bx +
bx *
x)
bz (
bx '
bx &
bx %
bx $
b1000000 #
0"
0!
$end
#2000
b0 0
b0 T
b0 \
b0 7
b0 L
0:
05
04
b10 =
b10 I
b10 M
03
0;
1/
0?
bx S
bx &
bx C
bx ]
b10001 N
b0 6
b0 P
b0 >
b0 D
b0 J
bx <
bx E
bx O
bx [
b10 Z
b110011 2
b110011 K
b0 8
b0 G
b0 H
b0 9
b0 F
b1 %
b1 B
b1 -
b1 c
b1 .
b1 b
b10 +
b10 R
b10 Y
b10 e
b10 ,
b10 d
b10000 1
b10000 a
b0 *
b0 W
b0 X
b110011 V
b1000001000100000110011 '
b1000001000100000110011 U
b100 $
b100 @
b100 `
b0 A
b0 ^
1!
#4000
0!
#6000
x?
b1 >
b1 D
b1 J
b1000 H
b1000 Z
b100000 8
b100000 G
b100 %
b100 B
b100 -
b100 c
b100 .
b100 b
b1000 +
b1000 R
b1000 Y
b1000 e
b1000 ,
b1000 d
b10001 1
b10001 a
b1000000100000100000100010110011 '
b1000000100000100000100010110011 U
b1000 $
b1000 @
b1000 `
b100 A
b100 ^
1!
1"
#8000
0!
#10000
b0x S
b0xxx &
b0xxx C
b0xxx ]
0?
b0xxx <
b0xxx E
b0xxx O
b0xxx [
b10 >
b10 D
b10 J
b101 Z
b0 8
b0 G
b100 H
b100 9
b100 F
b11 %
b11 B
b11 -
b11 c
b11 .
b11 b
b101 +
b101 R
b101 Y
b101 e
b101 ,
b101 d
b10010 1
b10010 a
b10100011100100100110011 '
b10100011100100100110011 U
b1100 $
b1100 @
b1100 `
b1000 A
b1000 ^
1!
#12000
0!
#14000
b0xx1 &
b0xx1 C
b0x11 ]
b0x11 <
b0x11 E
b0x11 O
b0x11 [
b10 6
b10 P
b11 >
b11 D
b11 J
b110 H
b110 9
b110 F
b10011 1
b10011 a
b10100011110100110110011 '
b10100011110100110110011 U
b10000 $
b10000 @
b10000 `
b1100 A
b1100 ^
1!
#16000
0!
#18000
b0x S
b0x01 ]
b11 6
b11 P
b100 >
b100 D
b100 J
b0x01 <
b0x01 E
b0x01 O
b0x01 [
b0xx1 &
b0xx1 C
b11 Z
b111 H
b111 9
b111 F
b101 %
b101 B
b101 -
b101 c
b101 .
b101 b
b11 +
b11 R
b11 Y
b11 e
b11 ,
b11 d
b10100 1
b10100 a
b1100101111101000110011 '
b1100101111101000110011 U
b10100 $
b10100 @
b10100 `
b10000 A
b10000 ^
1!
#20000
0!
#22000
x?
bx S
bx ]
b0 6
b0 P
b1 >
b1 D
b1 J
bx <
bx E
bx O
bx [
bx &
bx C
b110 Z
b100000 8
b100000 G
b1000 H
b0 9
b0 F
b1 %
b1 B
b1 -
b1 c
b1 .
b1 b
b110 +
b110 R
b110 Y
b110 e
b110 ,
b110 d
b10101 1
b10101 a
b1000000011000001000101010110011 '
b1000000011000001000101010110011 U
b11000 $
b11000 @
b11000 `
b10100 A
b10100 ^
1!
#24000
0!
#26000
0?
b11 =
b11 I
b11 M
1;
b0 >
b0 D
b0 J
b11011 N
b0 H
b0 Z
b10011 2
b10011 K
b0 8
b0 G
b0 %
b0 B
b0 -
b0 c
b0 .
b0 b
b0 +
b0 R
b0 Y
b0 e
b0 ,
b0 d
b0 1
b0 a
b10011 V
b10011 '
b10011 U
b11100 $
b11100 @
b11100 `
b11000 A
b11000 ^
1!
#28000
b0 %
b0 B
b0 -
b0 c
b0 +
b0 R
b0 Y
b0 e
0!
#30000
b100000 $
b100000 @
b100000 `
b11100 A
b11100 ^
1!
#32000
b0 %
b0 B
b0 -
b0 c
b0 +
b0 R
b0 Y
b0 e
0!
#34000
b100100 $
b100100 @
b100100 `
b100000 A
b100000 ^
1!
#36000
b0 %
b0 B
b0 -
b0 c
b0 +
b0 R
b0 Y
b0 e
0!
#38000
b101000 $
b101000 @
b101000 `
b100100 A
b100100 ^
1!
#40000
b0 %
b0 B
b0 -
b0 c
b0 +
b0 R
b0 Y
b0 e
0!
#42000
b101100 $
b101100 @
b101100 `
b101000 A
b101000 ^
1!
#44000
b0 %
b0 B
b0 -
b0 c
b0 +
b0 R
b0 Y
b0 e
0!
#46000
b110000 $
b110000 @
b110000 `
b101100 A
b101100 ^
1!
#48000
b0 %
b0 B
b0 -
b0 c
b0 +
b0 R
b0 Y
b0 e
0!
#50000
b110100 $
b110100 @
b110100 `
b110000 A
b110000 ^
1!
#52000
b0 %
b0 B
b0 -
b0 c
b0 +
b0 R
b0 Y
b0 e
0!
#54000
b111000 $
b111000 @
b111000 `
b110100 A
b110100 ^
1!
#56000
b0 %
b0 B
b0 -
b0 c
b0 +
b0 R
b0 Y
b0 e
0!
#58000
b111100 $
b111100 @
b111100 `
b111000 A
b111000 ^
1!
#60000
b0 %
b0 B
b0 -
b0 c
b0 +
b0 R
b0 Y
b0 e
0!
#62000
b1000000 $
b1000000 @
b1000000 `
b111100 A
b111100 ^
1!
#64000
b0 %
b0 B
b0 -
b0 c
b0 +
b0 R
b0 Y
b0 e
0!
#66000
bx Z
b0 =
b0 I
b0 M
0;
0/
b0 N
bx 6
bx P
bx 2
bx K
bx 8
bx G
bx H
bx 9
bx F
bx %
bx B
bx -
bx c
bx .
bx b
bx +
bx R
bx Y
bx e
bx ,
bx d
bx 1
bx a
bx V
bx '
bx U
b1000100 $
b1000100 @
b1000100 `
b1000000 A
b1000000 ^
1!
#68000
0!
#70000
b1001000 $
b1001000 @
b1001000 `
b1000100 A
b1000100 ^
1!
#72000
0!
#74000
b1001100 $
b1001100 @
b1001100 `
b1001000 A
b1001000 ^
1!
#76000
0!
#78000
b1010000 $
b1010000 @
b1010000 `
b1001100 A
b1001100 ^
1!
#80000
0!
#82000
b1010100 $
b1010100 @
b1010100 `
b1010000 A
b1010000 ^
1!
#84000
0!
#86000
b1011000 $
b1011000 @
b1011000 `
b1010100 A
b1010100 ^
1!
#88000
0!
#90000
b1011100 $
b1011100 @
b1011100 `
b1011000 A
b1011000 ^
1!
#92000
0!
#94000
b1100000 $
b1100000 @
b1100000 `
b1011100 A
b1011100 ^
1!
#96000
0!
#98000
b1100100 $
b1100100 @
b1100100 `
b1100000 A
b1100000 ^
1!
#100000
0!
#102000
b1101000 $
b1101000 @
b1101000 `
b1100100 A
b1100100 ^
1!
#104000
0!
#106000
b1101100 $
b1101100 @
b1101100 `
b1101000 A
b1101000 ^
1!
#108000
0!
#110000
b1110000 $
b1110000 @
b1110000 `
b1101100 A
b1101100 ^
1!
#112000
0!
#114000
b1110100 $
b1110100 @
b1110100 `
b1110000 A
b1110000 ^
1!
#116000
0!
#118000
b1111000 $
b1111000 @
b1111000 `
b1110100 A
b1110100 ^
1!
#120000
0!
#122000
b1111100 $
b1111100 @
b1111100 `
b1111000 A
b1111000 ^
1!
#124000
0!
#126000
b10000000 $
b10000000 @
b10000000 `
b1111100 A
b1111100 ^
1!
#128000
0!
#130000
b10000100 $
b10000100 @
b10000100 `
b10000000 A
b10000000 ^
1!
#132000
0!
#134000
b10001000 $
b10001000 @
b10001000 `
b10000100 A
b10000100 ^
1!
#136000
0!
#138000
b10001100 $
b10001100 @
b10001100 `
b10001000 A
b10001000 ^
1!
#140000
0!
#142000
b10010000 $
b10010000 @
b10010000 `
b10001100 A
b10001100 ^
1!
#144000
0!
#146000
b10010100 $
b10010100 @
b10010100 `
b10010000 A
b10010000 ^
1!
#148000
0!
#150000
b10011000 $
b10011000 @
b10011000 `
b10010100 A
b10010100 ^
1!
#152000
0!
#154000
b10011100 $
b10011100 @
b10011100 `
b10011000 A
b10011000 ^
1!
#156000
0!
#158000
b10100000 $
b10100000 @
b10100000 `
b10011100 A
b10011100 ^
1!
#160000
0!
#162000
b10100100 $
b10100100 @
b10100100 `
b10100000 A
b10100000 ^
1!
#164000
0!
#166000
b10101000 $
b10101000 @
b10101000 `
b10100100 A
b10100100 ^
1!
#168000
0!
#170000
b10101100 $
b10101100 @
b10101100 `
b10101000 A
b10101000 ^
1!
#172000
0!
#174000
b10110000 $
b10110000 @
b10110000 `
b10101100 A
b10101100 ^
1!
#176000
0!
#178000
b10110100 $
b10110100 @
b10110100 `
b10110000 A
b10110000 ^
1!
#180000
0!
#182000
b10111000 $
b10111000 @
b10111000 `
b10110100 A
b10110100 ^
1!
#184000
0!
#186000
b10111100 $
b10111100 @
b10111100 `
b10111000 A
b10111000 ^
1!
#188000
0!
#190000
b11000000 $
b11000000 @
b11000000 `
b10111100 A
b10111100 ^
1!
#192000
0!
#194000
b11000100 $
b11000100 @
b11000100 `
b11000000 A
b11000000 ^
1!
#196000
0!
#198000
b11001000 $
b11001000 @
b11001000 `
b11000100 A
b11000100 ^
1!
#200000
0!
#202000
b11001100 $
b11001100 @
b11001100 `
b11001000 A
b11001000 ^
1!
#204000
0!
#206000
b11010000 $
b11010000 @
b11010000 `
b11001100 A
b11001100 ^
1!
#208000
0!
#210000
b11010100 $
b11010100 @
b11010100 `
b11010000 A
b11010000 ^
1!
#212000
0!
#214000
b11011000 $
b11011000 @
b11011000 `
b11010100 A
b11010100 ^
1!
#216000
0!
#218000
b11011100 $
b11011100 @
b11011100 `
b11011000 A
b11011000 ^
1!
#220000
0!
#222000
b11100000 $
b11100000 @
b11100000 `
b11011100 A
b11011100 ^
1!
#224000
0!
#226000
b11100100 $
b11100100 @
b11100100 `
b11100000 A
b11100000 ^
1!
#228000
0!
#230000
b11101000 $
b11101000 @
b11101000 `
b11100100 A
b11100100 ^
1!
#232000
0!
#234000
b11101100 $
b11101100 @
b11101100 `
b11101000 A
b11101000 ^
1!
#236000
0!
#238000
b11110000 $
b11110000 @
b11110000 `
b11101100 A
b11101100 ^
1!
#240000
0!
#242000
b11110100 $
b11110100 @
b11110100 `
b11110000 A
b11110000 ^
1!
#244000
0!
#246000
b11111000 $
b11111000 @
b11111000 `
b11110100 A
b11110100 ^
1!
#248000
0!
#250000
b11111100 $
b11111100 @
b11111100 `
b11111000 A
b11111000 ^
1!
#252000
0!
#254000
b100000000 $
b100000000 @
b100000000 `
b11111100 A
b11111100 ^
1!
#256000
0!
#258000
b10 =
b10 I
b10 M
1/
b10001 N
b0 6
b0 P
b10 Z
b110011 2
b110011 K
b0 8
b0 G
b0 H
b0 9
b0 F
b1 %
b1 B
b1 -
b1 c
b1 .
b1 b
b10 +
b10 R
b10 Y
b10 e
b10 ,
b10 d
b10000 1
b10000 a
b110011 V
b1000001000100000110011 '
b1000001000100000110011 U
b100000100 $
b100000100 @
b100000100 `
b100000000 A
b100000000 ^
1!
#260000
0!
#262000
x?
b1 >
b1 D
b1 J
b1000 H
b1000 Z
b100000 8
b100000 G
b100 %
b100 B
b100 -
b100 c
b100 .
b100 b
b1000 +
b1000 R
b1000 Y
b1000 e
b1000 ,
b1000 d
b10001 1
b10001 a
b1000000100000100000100010110011 '
b1000000100000100000100010110011 U
b100001000 $
b100001000 @
b100001000 `
b100000100 A
b100000100 ^
1!
#264000
0!
#266000
b0x S
b0xxx &
b0xxx C
b0xxx ]
0?
b0xxx <
b0xxx E
b0xxx O
b0xxx [
b10 >
b10 D
b10 J
b101 Z
b0 8
b0 G
b100 H
b100 9
b100 F
b11 %
b11 B
b11 -
b11 c
b11 .
b11 b
b101 +
b101 R
b101 Y
b101 e
b101 ,
b101 d
b10010 1
b10010 a
b10100011100100100110011 '
b10100011100100100110011 U
b100001100 $
b100001100 @
b100001100 `
b100001000 A
b100001000 ^
1!
#268000
0!
#270000
b0xx1 &
b0xx1 C
b0x11 ]
b0x11 <
b0x11 E
b0x11 O
b0x11 [
b10 6
b10 P
b11 >
b11 D
b11 J
b110 H
b110 9
b110 F
b10011 1
b10011 a
b10100011110100110110011 '
b10100011110100110110011 U
b100010000 $
b100010000 @
b100010000 `
b100001100 A
b100001100 ^
1!
#272000
0!
#274000
b0x S
b0x01 ]
b11 6
b11 P
b100 >
b100 D
b100 J
b0x01 <
b0x01 E
b0x01 O
b0x01 [
b0xx1 &
b0xx1 C
b11 Z
b111 H
b111 9
b111 F
b101 %
b101 B
b101 -
b101 c
b101 .
b101 b
b11 +
b11 R
b11 Y
b11 e
b11 ,
b11 d
b10100 1
b10100 a
b1100101111101000110011 '
b1100101111101000110011 U
b100010100 $
b100010100 @
b100010100 `
b100010000 A
b100010000 ^
1!
#276000
0!
#278000
x?
bx S
bx ]
b0 6
b0 P
b1 >
b1 D
b1 J
bx <
bx E
bx O
bx [
bx &
bx C
b110 Z
b100000 8
b100000 G
b1000 H
b0 9
b0 F
b1 %
b1 B
b1 -
b1 c
b1 .
b1 b
b110 +
b110 R
b110 Y
b110 e
b110 ,
b110 d
b10101 1
b10101 a
b1000000011000001000101010110011 '
b1000000011000001000101010110011 U
b100011000 $
b100011000 @
b100011000 `
b100010100 A
b100010100 ^
1!
#280000
0!
#282000
0?
b11 =
b11 I
b11 M
1;
b0 >
b0 D
b0 J
b11011 N
b0 H
b0 Z
b10011 2
b10011 K
b0 8
b0 G
b0 %
b0 B
b0 -
b0 c
b0 .
b0 b
b0 +
b0 R
b0 Y
b0 e
b0 ,
b0 d
b0 1
b0 a
b10011 V
b10011 '
b10011 U
b100011100 $
b100011100 @
b100011100 `
b100011000 A
b100011000 ^
1!
#284000
b0 %
b0 B
b0 -
b0 c
b0 +
b0 R
b0 Y
b0 e
0!
#286000
b100100000 $
b100100000 @
b100100000 `
b100011100 A
b100011100 ^
1!
#288000
b0 %
b0 B
b0 -
b0 c
b0 +
b0 R
b0 Y
b0 e
0!
#290000
b100100100 $
b100100100 @
b100100100 `
b100100000 A
b100100000 ^
1!
#292000
b0 %
b0 B
b0 -
b0 c
b0 +
b0 R
b0 Y
b0 e
0!
#294000
b100101000 $
b100101000 @
b100101000 `
b100100100 A
b100100100 ^
1!
#296000
b0 %
b0 B
b0 -
b0 c
b0 +
b0 R
b0 Y
b0 e
0!
#298000
b100101100 $
b100101100 @
b100101100 `
b100101000 A
b100101000 ^
1!
#300000
b0 %
b0 B
b0 -
b0 c
b0 +
b0 R
b0 Y
b0 e
0!
#302000
b100110000 $
b100110000 @
b100110000 `
b100101100 A
b100101100 ^
1!
#304000
b0 %
b0 B
b0 -
b0 c
b0 +
b0 R
b0 Y
b0 e
0!
#306000
b100110100 $
b100110100 @
b100110100 `
b100110000 A
b100110000 ^
1!
#308000
b0 %
b0 B
b0 -
b0 c
b0 +
b0 R
b0 Y
b0 e
0!
#310000
b100111000 $
b100111000 @
b100111000 `
b100110100 A
b100110100 ^
1!
#312000
b0 %
b0 B
b0 -
b0 c
b0 +
b0 R
b0 Y
b0 e
0!
#314000
b100111100 $
b100111100 @
b100111100 `
b100111000 A
b100111000 ^
1!
#316000
b0 %
b0 B
b0 -
b0 c
b0 +
b0 R
b0 Y
b0 e
0!
#318000
b101000000 $
b101000000 @
b101000000 `
b100111100 A
b100111100 ^
1!
#320000
b0 %
b0 B
b0 -
b0 c
b0 +
b0 R
b0 Y
b0 e
0!
#322000
bx Z
b0 =
b0 I
b0 M
0;
0/
b0 N
bx 6
bx P
bx 2
bx K
bx 8
bx G
bx H
bx 9
bx F
bx %
bx B
bx -
bx c
bx .
bx b
bx +
bx R
bx Y
bx e
bx ,
bx d
bx 1
bx a
bx V
bx '
bx U
b101000100 $
b101000100 @
b101000100 `
b101000000 A
b101000000 ^
1!
#324000
0!
#326000
b101001000 $
b101001000 @
b101001000 `
b101000100 A
b101000100 ^
1!
#328000
0!
#330000
b101001100 $
b101001100 @
b101001100 `
b101001000 A
b101001000 ^
1!
#332000
0!
#334000
b101010000 $
b101010000 @
b101010000 `
b101001100 A
b101001100 ^
1!
#336000
0!
#338000
b101010100 $
b101010100 @
b101010100 `
b101010000 A
b101010000 ^
1!
#340000
0!
#342000
b101011000 $
b101011000 @
b101011000 `
b101010100 A
b101010100 ^
1!
#344000
0!
#346000
b101011100 $
b101011100 @
b101011100 `
b101011000 A
b101011000 ^
1!
#348000
0!
#350000
b101100000 $
b101100000 @
b101100000 `
b101011100 A
b101011100 ^
1!
#352000
0!
#354000
b101100100 $
b101100100 @
b101100100 `
b101100000 A
b101100000 ^
1!
#356000
0!
#358000
b101101000 $
b101101000 @
b101101000 `
b101100100 A
b101100100 ^
1!
#360000
0!
#362000
b101101100 $
b101101100 @
b101101100 `
b101101000 A
b101101000 ^
1!
#364000
0!
#366000
b101110000 $
b101110000 @
b101110000 `
b101101100 A
b101101100 ^
1!
#368000
0!
#370000
b101110100 $
b101110100 @
b101110100 `
b101110000 A
b101110000 ^
1!
#372000
0!
#374000
b101111000 $
b101111000 @
b101111000 `
b101110100 A
b101110100 ^
1!
#376000
0!
#378000
b101111100 $
b101111100 @
b101111100 `
b101111000 A
b101111000 ^
1!
#380000
0!
#382000
b10 =
b10 I
b10 M
1/
b10001 N
b0 6
b0 P
b10 Z
b110011 2
b110011 K
b0 8
b0 G
b0 H
b0 9
b0 F
b1 %
b1 B
b1 -
b1 c
b1 .
b1 b
b10 +
b10 R
b10 Y
b10 e
b10 ,
b10 d
b10000 1
b10000 a
b110011 V
b1000001000100000110011 '
b1000001000100000110011 U
b100 $
b100 @
b100 `
b0 A
b0 ^
1!
b10000000 #
0"
