comporg_lab1-leejunhee3123-main/sim.vcd
$date
	Thu Apr 13 11:08:46 2023
$end
$version
	Icarus Verilog
$end
$timescale
	10ps
$end
$scope module riscv_tb $end
$var reg 1 ! clk $end
$var reg 1 " rstn $end
$var integer 32 # i [31:0] $end
$scope module my_cpu $end
$var wire 32 $ alu_in1 [31:0] $end
$var wire 1 ! clk $end
$var wire 32 % instruction [31:0] $end
$var wire 1 " rstn $end
$var wire 32 & write_data_ [31:0] $end
$var wire 32 ' write_data [31:0] $end
$var wire 1 ( taken $end
$var wire 32 ) sextimm [31:0] $end
$var wire 32 * rs2_out [31:0] $end
$var wire 5 + rs2 [4:0] $end
$var wire 32 , rs1_out [31:0] $end
$var wire 5 - rs1 [4:0] $end
$var wire 1 . reg_write $end
$var wire 32 / read_data [31:0] $end
$var wire 5 0 rd [4:0] $end
$var wire 7 1 opcode [6:0] $end
$var wire 1 2 mem_write $end
$var wire 1 3 mem_to_reg $end
$var wire 1 4 mem_read $end
$var wire 2 5 maskmode [1:0] $end
$var wire 2 6 jump [1:0] $end
$var wire 32 7 jalr_out [31:0] $end
$var wire 7 8 funct7 [6:0] $end
$var wire 3 9 funct3 [2:0] $end
$var wire 32 : branch_out [31:0] $end
$var wire 1 ; branch $end
$var wire 1 < alu_src $end
$var wire 32 = alu_out [31:0] $end
$var wire 2 > alu_op [1:0] $end
$var wire 32 ? alu_in2 [31:0] $end
$var wire 4 @ alu_func [3:0] $end
$var wire 1 A alu_check $end
$var wire 32 B PC_PLUS_4 [31:0] $end
$var wire 32 C PC_BRANCH [31:0] $end
$var wire 32 D NEXT_PC [31:0] $end
$var reg 32 E PC [31:0] $end
$scope module m_ALU $end
$var wire 32 F in_a [31:0] $end
$var wire 32 G in_b [31:0] $end
$var wire 4 H alu_func [3:0] $end
$var reg 1 A check $end
$var reg 32 I result [31:0] $end
$upscope $end
$scope module m_ALU_control $end
$var wire 3 J funct3 [2:0] $end
$var wire 7 K funct7 [6:0] $end
$var wire 4 L funct [3:0] $end
$var wire 2 M alu_op [1:0] $end
$var reg 4 N alu_func [3:0] $end
$upscope $end
$scope module m_adder_for_jalr $end
$var wire 32 O in_b [31:0] $end
$var wire 32 P in_a [31:0] $end
$var reg 32 Q result [31:0] $end
$upscope $end
$scope module m_branch_control $end
$var wire 1 A check $end
$var wire 1 ; branch $end
$var reg 1 ( taken $end
$upscope $end
$scope module m_control $end
$var wire 7 R opcode [6:0] $end
$var wire 1 . reg_write $end
$var wire 1 2 mem_write $end
$var wire 1 3 mem_to_reg $end
$var wire 1 4 mem_read $end
$var wire 2 S jump [1:0] $end
$var wire 1 ; branch $end
$var wire 1 < alu_src $end
$var wire 2 T alu_op [1:0] $end
$var reg 10 U controls [9:0] $end
$upscope $end
$scope module m_data_memory $end
$var wire 32 V address [31:0] $end
$var wire 1 ! clk $end
$var wire 2 W maskmode [1:0] $end
$var wire 1 4 mem_read $end
$var wire 1 2 mem_write $end
$var wire 1 X sext $end
$var wire 32 Y write_data [31:0] $end
$var wire 4 Z funct3 [3:0] $end
$var wire 8 [ address_internal [7:0] $end
$var reg 32 \ read_data [31:0] $end
$upscope $end
$scope module m_imm_generator $end
$var wire 32 ] instruction [31:0] $end
$var wire 7 ^ opcode [6:0] $end
$var wire 3 _ funct3 [2:0] $end
$var reg 32 ` sextimm [31:0] $end
$upscope $end
$scope module m_mux_2x1 $end
$var wire 32 a in2 [31:0] $end
$var wire 1 < select $end
$var wire 32 b in1 [31:0] $end
$var reg 32 c out [31:0] $end
$upscope $end
$scope module m_mux_2x1_2 $end
$var wire 32 d in1 [31:0] $end
$var wire 32 e in2 [31:0] $end
$var wire 1 3 select $end
$var reg 32 f out [31:0] $end
$upscope $end
$scope module m_mux_2x1_3 $end
$var wire 32 g in1 [31:0] $end
$var wire 1 h select $end
$var wire 32 i in2 [31:0] $end
$var reg 32 j out [31:0] $end
$upscope $end
$scope module m_mux_2x1_branch $end
$var wire 1 ( select $end
$var wire 32 k in2 [31:0] $end
$var wire 32 l in1 [31:0] $end
$var reg 32 m out [31:0] $end
$upscope $end
$scope module m_mux_4x1 $end
$var wire 32 n in1 [31:0] $end
$var wire 32 o in2 [31:0] $end
$var wire 32 p in4 [31:0] $end
$var wire 2 q select [1:0] $end
$var wire 32 r in3 [31:0] $end
$var reg 32 s out [31:0] $end
$upscope $end
$scope module m_next_pc_adder $end
$var wire 32 t in_a [31:0] $end
$var wire 32 u in_b [31:0] $end
$var reg 32 v result [31:0] $end
$upscope $end
$scope module m_pc_branch_adder $end
$var wire 32 w in_a [31:0] $end
$var wire 32 x in_b [31:0] $end
$var reg 32 y result [31:0] $end
$upscope $end
$scope module m_register_file $end
$var wire 1 ! clk $end
$var wire 5 z rd [4:0] $end
$var wire 1 . reg_write $end
$var wire 5 { rs1 [4:0] $end
$var wire 32 | rs1_out [31:0] $end
$var wire 5 } rs2 [4:0] $end
$var wire 32 ~ rs2_out [31:0] $end
$var wire 32 !" write_data [31:0] $end
$upscope $end
$upscope $end
$upscope $end
$enddefinitions $end
#0
$dumpvars
b0 !"
bx ~
bx }
bx |
bx {
bx z
bx y
bx x
bx w
bx v
b100 u
bx t
bx s
bx r
bx q
bx p
bx o
bx n
bx m
bx l
bx k
b0 j
bx i
xh
b0 g
b0 f
b0 e
bx d
bx c
bx b
bx a
bx `
bx _
bx ^
bx ]
b0 \
bx [
b0xxx Z
bx Y
xX
bx W
bx V
bx U
bx T
bx S
bx R
bx Q
bx P
bx O
bx N
bx M
bx L
bx K
bx J
bx I
bx H
bx G
bx F
bx E
bx D
bx C
bx B
xA
bx @
bx ?
bx >
bx =
x<
x;
bx :
bx 9
bx 8
bx 7
bx 6
bx 5
x4
x3
x2
bx 1
bx 0
b0 /
x.
bx -
bx ,
bx +
bx *
bx )
x(
b0 '
b0 &
bx %
bx $
b1000000 #
0"
0!
$end
#2000
b11100000 '
b11100000 j
b11100000 !"
b11100000 &
b11100000 f
b11100000 g
0h
0(
b0 6
b0 S
b0 q
0;
04
03
b11 >
b11 M
b11 T
02
1<
1.
0A
b111000 [
b11011 U
b0 5
b0 W
b0 Z
0X
b0 @
b0 H
b0 N
b11100000 =
b11100000 I
b11100000 V
b11100000 d
b11100000 7
b11100000 Q
b11100000 p
b11111111111111111111111111100000 ?
b11111111111111111111111111100000 G
b11111111111111111111111111100000 c
b11111111111111111111111111100000 C
b11111111111111111111111111100000 k
b11111111111111111111111111100000 r
b11111111111111111111111111100000 y
b100 D
b100 s
b10011 1
b10011 R
b1111111 8
b1111111 K
b1000 L
b0 9
b0 J
b100000000 $
b100000000 F
b100000000 ,
b100000000 O
b100000000 |
b10 -
b10 {
b0 *
b0 Y
b0 b
b0 ~
b0 +
b0 }
b10 0
b10 z
b11111111111111111111111111100000 )
b11111111111111111111111111100000 P
b11111111111111111111111111100000 `
b11111111111111111111111111100000 a
b11111111111111111111111111100000 x
b10011 ^
b0 _
b100 :
b100 m
b100 n
b100 o
b11111110000000010000000100010011 %
b11111110000000010000000100010011 ]
b100 B
b100 i
b100 l
b100 v
b0 E
b0 t
b0 w
1!
#4000
b11000000 '
b11000000 j
b11000000 !"
b110000 [
b11000000 &
b11000000 f
b11000000 g
b11000000 =
b11000000 I
b11000000 V
b11000000 d
b11000000 7
b11000000 Q
b11000000 p
b11100000 $
b11100000 F
b11100000 ,
b11100000 O
b11100000 |
0!
#6000
b0 '
b0 j
b0 !"
b111111 [
b0 &
b0 f
b0 g
13
b0 >
b0 M
b0 T
12
0.
b11111100 =
b11111100 I
b11111100 V
b11111100 d
b100110 U
b10 Z
b10 5
b10 W
b0 @
b0 H
b0 N
b11111100 7
b11111100 Q
b11111100 p
b11100 ?
b11100 G
b11100 c
b1000 D
b1000 s
b100011 1
b100011 R
b0 8
b0 K
b10 L
b10 9
b10 J
b1000 +
b1000 }
b11100 0
b11100 z
b11100 )
b11100 P
b11100 `
b11100 a
b11100 x
b100011 ^
b10 _
b1000 :
b1000 m
b1000 n
b1000 o
b100000010010111000100011 %
b100000010010111000100011 ]
b1000 B
b1000 i
b1000 l
b1000 v
b100000 C
b100000 k
b100000 r
b100000 y
b100 E
b100 t
b100 w
1!
1"
#8000
0!
#10000
b111110 [
b11111000 =
b11111000 I
b11111000 V
b11111000 d
b11111000 7
b11111000 Q
b11111000 p
b11000 ?
b11000 G
b11000 c
b1100 D
b1100 s
b11011000 *
b11011000 Y
b11011000 b
b11011000 ~
b1 +
b1 }
b11000 0
b11000 z
b11000 )
b11000 P
b11000 `
b11000 a
b11000 x
b1100 :
b1100 m
b1100 n
b1100 o
b100010010110000100011 %
b100010010110000100011 ]
b1100 B
b1100 i
b1100 l
b1100 v
b100000 C
b100000 k
b100000 r
b100000 y
b1000 E
b1000 t
b1000 w
1!
#12000
0!
#14000
b11110000 '
b11110000 j
b11110000 !"
b111100 [
b11110000 &
b11110000 f
b11110000 g
03
b11 >
b11 M
b11 T
02
1.
b11110000 =
b11110000 I
b11110000 V
b11110000 d
b11011 U
b0 Z
b0 5
b0 W
b11110000 7
b11110000 Q
b11110000 p
b10000 ?
b10000 G
b10000 c
b10000 D
b10000 s
b10011 1
b10011 R
b0 L
b0 9
b0 J
b0 *
b0 Y
b0 b
b0 ~
b10000 +
b10000 }
b1000 0
b1000 z
b10000 )
b10000 P
b10000 `
b10000 a
b10000 x
b10011 ^
b0 _
b10000 :
b10000 m
b10000 n
b10000 o
b1000000010000010000010011 %
b1000000010000010000010011 ]
b10000 B
b10000 i
b10000 l
b10000 v
b11100 C
b11100 k
b11100 r
b11100 y
b1100 E
b1100 t
b1100 w
1!
#16000
0!
#18000
b0 '
b0 j
b0 !"
13
b0 >
b0 M
b0 T
12
0.
b111011 [
b0 &
b0 f
b0 g
b100110 U
b10 Z
b10 5
b10 W
b0 @
b0 H
b0 N
b11101100 =
b11101100 I
b11101100 V
b11101100 d
b11101100 7
b11101100 Q
b11101100 p
b11111111111111111111111111111100 ?
b11111111111111111111111111111100 G
b11111111111111111111111111111100 c
b10100 D
b10100 s
b100011 1
b100011 R
b1111111 8
b1111111 K
b1010 L
b10 9
b10 J
b11110000 $
b11110000 F
b11110000 ,
b11110000 O
b11110000 |
b1000 -
b1000 {
b10 *
b10 Y
b10 b
b10 ~
b1010 +
b1010 }
b11100 0
b11100 z
b11111111111111111111111111111100 )
b11111111111111111111111111111100 P
b11111111111111111111111111111100 `
b11111111111111111111111111111100 a
b11111111111111111111111111111100 x
b100011 ^
b10 _
b10100 :
b10100 m
b10100 n
b10100 o
b11111110101001000010111000100011 %
b11111110101001000010111000100011 ]
b10100 B
b10100 i
b10100 l
b10100 v
b1100 C
b1100 k
b1100 r
b1100 y
b10000 E
b10000 t
b10000 w
1!
#20000
0!
#22000
b11110000 '
b11110000 j
b11110000 !"
b111100 [
b11110000 &
b11110000 f
b11110000 g
03
b11 >
b11 M
b11 T
02
1.
b11110000 =
b11110000 I
b11110000 V
b11110000 d
b11011 U
b0 Z
b0 5
b0 W
b11110000 7
b11110000 Q
b11110000 p
b0 ?
b0 G
b0 c
b11000 D
b11000 s
b10011 1
b10011 R
b0 8
b0 K
b0 L
b0 9
b0 J
b0 *
b0 Y
b0 b
b0 ~
b0 +
b0 }
b1010 0
b1010 z
b0 )
b0 P
b0 `
b0 a
b0 x
b10011 ^
b0 _
b11000 :
b11000 m
b11000 n
b11000 o
b1000000010100010011 %
b1000000010100010011 ]
b11000 B
b11000 i
b11000 l
b11000 v
b10100 C
b10100 k
b10100 r
b10100 y
b10100 E
b10100 t
b10100 w
1!
#24000
0!
#26000
b11101100 '
b11101100 j
b11101100 !"
b111011 [
b11101100 &
b11101100 f
b11101100 g
b11101100 =
b11101100 I
b11101100 V
b11101100 d
b1000 L
b11101100 7
b11101100 Q
b11101100 p
b11111111111111111111111111111100 ?
b11111111111111111111111111111100 G
b11111111111111111111111111111100 c
b11100 D
b11100 s
b1111111 8
b1111111 K
b1010 -
b1010 {
b11100 +
b11100 }
b11111111111111111111111111111100 )
b11111111111111111111111111111100 P
b11111111111111111111111111111100 `
b11111111111111111111111111111100 a
b11111111111111111111111111111100 x
b11100 :
b11100 m
b11100 n
b11100 o
b11111111110001010000010100010011 %
b11111111110001010000010100010011 ]
b11100 B
b11100 i
b11100 l
b11100 v
b10100 C
b10100 k
b10100 r
b10100 y
b11000 E
b11000 t
b11000 w
1!
#28000
b11101000 '
b11101000 j
b11101000 !"
b111010 [
b11101000 &
b11101000 f
b11101000 g
b11101000 =
b11101000 I
b11101000 V
b11101000 d
b11101000 7
b11101000 Q
b11101000 p
b11101100 $
b11101100 F
b11101100 ,
b11101100 O
b11101100 |
0!
#30000
b10 /
b10 \
b10 e
b10 '
b10 j
b10 !"
b111011 [
b10 &
b10 f
b10 g
14
13
b0 >
b0 M
b0 T
b11101100 =
b11101100 I
b11101100 V
b11101100 d
b1100011 U
b10 Z
b10 5
b10 W
b0 @
b0 H
b0 N
b11101100 7
b11101100 Q
b11101100 p
b0 ?
b0 G
b0 c
b100000 D
b100000 s
b11 1
b11 R
b0 8
b0 K
b10 L
b10 9
b10 J
b0 +
b0 }
b0 )
b0 P
b0 `
b0 a
b0 x
b11 ^
b10 _
b100000 :
b100000 m
b100000 n
b100000 o
b1010010010100000011 %
b1010010010100000011 ]
b100000 B
b100000 i
b100000 l
b100000 v
b11100 C
b11100 k
b11100 r
b11100 y
b11100 E
b11100 t
b11100 w
1!
#32000
b0 '
b0 j
b0 !"
b0 &
b0 f
b0 g
b0 /
b0 \
b0 e
b0 [
b10 =
b10 I
b10 V
b10 d
b10 7
b10 Q
b10 p
b10 $
b10 F
b10 ,
b10 O
b10 |
0!
#34000
04
03
b11 >
b11 M
b11 T
b11011 U
b0 Z
b0 5
b0 W
b0 =
b0 I
b0 V
b0 d
b0 7
b0 Q
b0 p
b100100 D
b100100 s
b10011 1
b10011 R
b0 L
b0 9
b0 J
b0 $
b0 F
b0 ,
b0 O
b0 |
b0 -
b0 {
b1011 0
b1011 z
b10011 ^
b0 _
b100100 :
b100100 m
b100100 n
b100100 o
b10110010011 %
b10110010011 ]
b100100 B
b100100 i
b100100 l
b100100 v
b100000 C
b100000 k
b100000 r
b100000 y
b100000 E
b100000 t
b100000 w
1!
#36000
0!
#38000
b1 @
b1 H
b1 N
b10 '
b10 j
b10 !"
1;
b1 >
b1 M
b1 T
0<
0.
b0 [
b10 &
b10 f
b10 g
b10001000 U
b10 =
b10 I
b10 V
b10 d
b1110 7
b1110 Q
b1110 p
b0 ?
b0 G
b0 c
b101000 D
b101000 s
b1100011 1
b1100011 R
b10 $
b10 F
b10 ,
b10 O
b10 |
b1010 -
b1010 {
b1011 +
b1011 }
b1100 0
b1100 z
b1100 )
b1100 P
b1100 `
b1100 a
b1100 x
b1100011 ^
b101000 :
b101000 m
b101000 n
b101000 o
b101101010000011001100011 %
b101101010000011001100011 ]
b101000 B
b101000 i
b101000 l
b101000 v
b110000 C
b110000 k
b110000 r
b110000 y
b100100 E
b100100 t
b100100 w
1!
#40000
0!
#42000
b0 @
b0 H
b0 N
b0 '
b0 j
b0 !"
0;
b11 >
b11 M
b11 T
1<
1.
0A
b0 &
b0 f
b0 g
b11011 U
b0 =
b0 I
b0 V
b0 d
b0 7
b0 Q
b0 p
b101100 D
b101100 s
b10011 1
b10011 R
b0 $
b0 F
b0 ,
b0 O
b0 |
b0 -
b0 {
b0 +
b0 }
b1010 0
b1010 z
b0 )
b0 P
b0 `
b0 a
b0 x
b10011 ^
b101100 :
b101100 m
b101100 n
b101100 o
b10100010011 %
b10100010011 ]
b101100 B
b101100 i
b101100 l
b101100 v
b101000 C
b101000 k
b101000 r
b101000 y
b101000 E
b101000 t
b101000 w
1!
#44000
0!
#46000
b110000 '
b110000 j
b110000 !"
1h
b111100 [
b11110000 &
b11110000 f
b11110000 g
b10 6
b10 S
b10 q
b0 >
b0 M
b0 T
0<
b11110000 =
b11110000 I
b11110000 V
b11110000 d
b1000000001 U
b1000 7
b1000 Q
b1000 p
b11110000 ?
b11110000 G
b11110000 c
b110100 D
b110100 s
b1101111 1
b1101111 R
b11110000 *
b11110000 Y
b11110000 b
b11110000 ~
b1000 +
b1000 }
b0 0
b0 z
b1000 )
b1000 P
b1000 `
b1000 a
b1000 x
b1101111 ^
b110000 :
b110000 m
b110000 n
b110000 o
b100000000000000001101111 %
b100000000000000001101111 ]
b110000 B
b110000 i
b110000 l
b110000 v
b110100 C
b110100 k
b110100 r
b110100 y
b101100 E
b101100 t
b101100 w
1!
#48000
b0 $
b0 F
b0 ,
b0 O
b0 |
0!
#50000
0h
b0 [
b0 &
b0 f
b0 g
b0 6
b0 S
b0 q
b11 >
b11 M
b11 T
1<
b0 =
b0 I
b0 V
b0 d
b11011 U
b0 7
b0 Q
b0 p
b0 ?
b0 G
b0 c
b10011 1
b10011 R
b0 *
b0 Y
b0 b
b0 ~
b0 +
b0 }
b0 )
b0 P
b0 `
b0 a
b0 x
b10011 ^
b0 '
b0 j
b0 !"
b111000 :
b111000 m
b111000 n
b111000 o
b111000 D
b111000 s
b10011 %
b10011 ]
b111000 B
b111000 i
b111000 l
b111000 v
b110100 C
b110100 k
b110100 r
b110100 y
b110100 E
b110100 t
b110100 w
1!
#52000
0!
#54000
1(
1A
b0 '
b0 j
b0 !"
b1 @
b1 H
b1 N
b0 [
b0 &
b0 f
b0 g
1;
b1 >
b1 M
b1 T
0<
0.
b0 =
b0 I
b0 V
b0 d
b10001000 U
b10000 7
b10000 Q
b10000 p
b0 ?
b0 G
b0 c
b1001000 D
b1001000 s
b1100011 1
b1100011 R
b1010 -
b1010 {
b10000 0
b10000 z
b10000 )
b10000 P
b10000 `
b10000 a
b10000 x
b1100011 ^
b1001000 :
b1001000 m
b1001000 n
b1001000 o
b1010000100001100011 %
b1010000100001100011 ]
b111100 B
b111100 i
b111100 l
b111100 v
b1001000 C
b1001000 k
b1001000 r
b1001000 y
b111000 E
b111000 t
b111000 w
1!
#56000
0!
#58000
b0 @
b0 H
b0 N
0(
b11110000 '
b11110000 j
b11110000 !"
0;
b11 >
b11 M
b11 T
1<
1.
0A
b111100 [
b11110000 &
b11110000 f
b11110000 g
b11011 U
b11110000 =
b11110000 I
b11110000 V
b11110000 d
b11110000 7
b11110000 Q
b11110000 p
b1001100 D
b1001100 s
b10011 1
b10011 R
b11110000 $
b11110000 F
b11110000 ,
b11110000 O
b11110000 |
b1000 -
b1000 {
b1010 0
b1010 z
b0 )
b0 P
b0 `
b0 a
b0 x
b10011 ^
b1001100 :
b1001100 m
b1001100 n
b1001100 o
b1000000010100010011 %
b1000000010100010011 ]
b1001100 B
b1001100 i
b1001100 l
b1001100 v
b1001000 C
b1001000 k
b1001000 r
b1001000 y
b1001000 E
b1001000 t
b1001000 w
1!
#60000
0!
#62000
b11101100 '
b11101100 j
b11101100 !"
b111011 [
b11101100 &
b11101100 f
b11101100 g
b11101100 =
b11101100 I
b11101100 V
b11101100 d
b1000 L
b11101100 7
b11101100 Q
b11101100 p
b11111111111111111111111111111100 ?
b11111111111111111111111111111100 G
b11111111111111111111111111111100 c
b1010000 D
b1010000 s
b1111111 8
b1111111 K
b1010 -
b1010 {
b11100 +
b11100 }
b11111111111111111111111111111100 )
b11111111111111111111111111111100 P
b11111111111111111111111111111100 `
b11111111111111111111111111111100 a
b11111111111111111111111111111100 x
b1010000 :
b1010000 m
b1010000 n
b1010000 o
b11111111110001010000010100010011 %
b11111111110001010000010100010011 ]
b1010000 B
b1010000 i
b1010000 l
b1010000 v
b1001000 C
b1001000 k
b1001000 r
b1001000 y
b1001100 E
b1001100 t
b1001100 w
1!
#64000
b11101000 '
b11101000 j
b11101000 !"
b111010 [
b11101000 &
b11101000 f
b11101000 g
b11101000 =
b11101000 I
b11101000 V
b11101000 d
b11101000 7
b11101000 Q
b11101000 p
b11101100 $
b11101100 F
b11101100 ,
b11101100 O
b11101100 |
0!
#66000
b10 /
b10 \
b10 e
b10 '
b10 j
b10 !"
b111011 [
b10 &
b10 f
b10 g
14
13
b0 >
b0 M
b0 T
b11101100 =
b11101100 I
b11101100 V
b11101100 d
b1100011 U
b10 Z
b10 5
b10 W
b0 @
b0 H
b0 N
b11101100 7
b11101100 Q
b11101100 p
b0 ?
b0 G
b0 c
b1010100 D
b1010100 s
b11 1
b11 R
b0 8
b0 K
b10 L
b10 9
b10 J
b0 +
b0 }
b0 )
b0 P
b0 `
b0 a
b0 x
b11 ^
b10 _
b1010100 :
b1010100 m
b1010100 n
b1010100 o
b1010010010100000011 %
b1010010010100000011 ]
b1010100 B
b1010100 i
b1010100 l
b1010100 v
b1010000 C
b1010000 k
b1010000 r
b1010000 y
b1010000 E
b1010000 t
b1010000 w
1!
#68000
b0 '
b0 j
b0 !"
b0 &
b0 f
b0 g
b0 /
b0 \
b0 e
b0 [
b10 =
b10 I
b10 V
b10 d
b10 7
b10 Q
b10 p
b10 $
b10 F
b10 ,
b10 O
b10 |
0!
#70000
b1 '
b1 j
b1 !"
b1 &
b1 f
b1 g
04
03
b11 >
b11 M
b11 T
b11011 U
b0 Z
b0 5
b0 W
b1 =
b1 I
b1 V
b1 d
b1 7
b1 Q
b1 p
b1 ?
b1 G
b1 c
b1011000 D
b1011000 s
b10011 1
b10011 R
b0 L
b0 9
b0 J
b0 $
b0 F
b0 ,
b0 O
b0 |
b0 -
b0 {
b11011000 *
b11011000 Y
b11011000 b
b11011000 ~
b1 +
b1 }
b1011 0
b1011 z
b1 )
b1 P
b1 `
b1 a
b1 x
b10011 ^
b0 _
b1011000 :
b1011000 m
b1011000 n
b1011000 o
b100000000010110010011 %
b100000000010110010011 ]
b1011000 B
b1011000 i
b1011000 l
b1011000 v
b1010101 C
b1010101 k
b1010101 r
b1010101 y
b1010100 E
b1010100 t
b1010100 w
1!
#72000
0!
#74000
b1 @
b1 H
b1 N
b1 '
b1 j
b1 !"
1;
b1 >
b1 M
b1 T
0<
0.
b0 [
b1 &
b1 f
b1 g
b10001000 U
b1 =
b1 I
b1 V
b1 d
b1110 7
b1110 Q
b1110 p
b1 ?
b1 G
b1 c
b1011100 D
b1011100 s
b1100011 1
b1100011 R
b10 $
b10 F
b10 ,
b10 O
b10 |
b1010 -
b1010 {
b1 *
b1 Y
b1 b
b1 ~
b1011 +
b1011 }
b1100 0
b1100 z
b1100 )
b1100 P
b1100 `
b1100 a
b1100 x
b1100011 ^
b1011100 :
b1011100 m
b1011100 n
b1011100 o
b101101010000011001100011 %
b101101010000011001100011 ]
b1011100 B
b1011100 i
b1011100 l
b1011100 v
b1100100 C
b1100100 k
b1100100 r
b1100100 y
b1011000 E
b1011000 t
b1011000 w
1!
#76000
0!
#78000
b0 @
b0 H
b0 N
b0 '
b0 j
b0 !"
0;
b11 >
b11 M
b11 T
1<
1.
0A
b0 &
b0 f
b0 g
b11011 U
b0 =
b0 I
b0 V
b0 d
b0 7
b0 Q
b0 p
b0 ?
b0 G
b0 c
b1100000 D
b1100000 s
b10011 1
b10011 R
b0 $
b0 F
b0 ,
b0 O
b0 |
b0 -
b0 {
b0 *
b0 Y
b0 b
b0 ~
b0 +
b0 }
b1010 0
b1010 z
b0 )
b0 P
b0 `
b0 a
b0 x
b10011 ^
b1100000 :
b1100000 m
b1100000 n
b1100000 o
b10100010011 %
b10100010011 ]
b1100000 B
b1100000 i
b1100000 l
b1100000 v
b1011100 C
b1011100 k
b1011100 r
b1011100 y
b1011100 E
b1011100 t
b1011100 w
1!
#80000
0!
#82000
b1100100 '
b1100100 j
b1100100 !"
1h
b111100 [
b11110000 &
b11110000 f
b11110000 g
b10 6
b10 S
b10 q
b0 >
b0 M
b0 T
0<
b11110000 =
b11110000 I
b11110000 V
b11110000 d
b1000000001 U
b1000 7
b1000 Q
b1000 p
b11110000 ?
b11110000 G
b11110000 c
b1101000 D
b1101000 s
b1101111 1
b1101111 R
b11110000 *
b11110000 Y
b11110000 b
b11110000 ~
b1000 +
b1000 }
b0 0
b0 z
b1000 )
b1000 P
b1000 `
b1000 a
b1000 x
b1101111 ^
b1100100 :
b1100100 m
b1100100 n
b1100100 o
b100000000000000001101111 %
b100000000000000001101111 ]
b1100100 B
b1100100 i
b1100100 l
b1100100 v
b1101000 C
b1101000 k
b1101000 r
b1101000 y
b1100000 E
b1100000 t
b1100000 w
1!
#84000
b0 $
b0 F
b0 ,
b0 O
b0 |
0!
#86000
0h
b0 [
b0 &
b0 f
b0 g
b0 6
b0 S
b0 q
b11 >
b11 M
b11 T
1<
b0 =
b0 I
b0 V
b0 d
b11011 U
b0 7
b0 Q
b0 p
b0 ?
b0 G
b0 c
b10011 1
b10011 R
b0 *
b0 Y
b0 b
b0 ~
b0 +
b0 }
b0 )
b0 P
b0 `
b0 a
b0 x
b10011 ^
b0 '
b0 j
b0 !"
b1101100 :
b1101100 m
b1101100 n
b1101100 o
b1101100 D
b1101100 s
b10011 %
b10011 ]
b1101100 B
b1101100 i
b1101100 l
b1101100 v
b1101000 C
b1101000 k
b1101000 r
b1101000 y
b1101000 E
b1101000 t
b1101000 w
1!
#88000
0!
#90000
1(
1A
b0 '
b0 j
b0 !"
b1 @
b1 H
b1 N
b0 [
b0 &
b0 f
b0 g
1;
b1 >
b1 M
b1 T
0<
0.
b0 =
b0 I
b0 V
b0 d
b10001000 U
b10000 7
b10000 Q
b10000 p
b0 ?
b0 G
b0 c
b1111100 D
b1111100 s
b1100011 1
b1100011 R
b1010 -
b1010 {
b10000 0
b10000 z
b10000 )
b10000 P
b10000 `
b10000 a
b10000 x
b1100011 ^
b1111100 :
b1111100 m
b1111100 n
b1111100 o
b1010000100001100011 %
b1010000100001100011 ]
b1110000 B
b1110000 i
b1110000 l
b1110000 v
b1111100 C
b1111100 k
b1111100 r
b1111100 y
b1101100 E
b1101100 t
b1101100 w
1!
#92000
0!
#94000
b0 @
b0 H
b0 N
0(
b11110000 '
b11110000 j
b11110000 !"
0;
b11 >
b11 M
b11 T
1<
1.
0A
b111100 [
b11110000 &
b11110000 f
b11110000 g
b11011 U
b11110000 =
b11110000 I
b11110000 V
b11110000 d
b11110000 7
b11110000 Q
b11110000 p
b10000000 D
b10000000 s
b10011 1
b10011 R
b11110000 $
b11110000 F
b11110000 ,
b11110000 O
b11110000 |
b1000 -
b1000 {
b1010 0
b1010 z
b0 )
b0 P
b0 `
b0 a
b0 x
b10011 ^
b10000000 :
b10000000 m
b10000000 n
b10000000 o
b1000000010100010011 %
b1000000010100010011 ]
b10000000 B
b10000000 i
b10000000 l
b10000000 v
b1111100 C
b1111100 k
b1111100 r
b1111100 y
b1111100 E
b1111100 t
b1111100 w
1!
#96000
0!
#98000
b11101100 '
b11101100 j
b11101100 !"
b111011 [
b11101100 &
b11101100 f
b11101100 g
b11101100 =
b11101100 I
b11101100 V
b11101100 d
b1000 L
b11101100 7
b11101100 Q
b11101100 p
b11111111111111111111111111111100 ?
b11111111111111111111111111111100 G
b11111111111111111111111111111100 c
b10000100 D
b10000100 s
b1111111 8
b1111111 K
b1010 -
b1010 {
b11100 +
b11100 }
b11111111111111111111111111111100 )
b11111111111111111111111111111100 P
b11111111111111111111111111111100 `
b11111111111111111111111111111100 a
b11111111111111111111111111111100 x
b10000100 :
b10000100 m
b10000100 n
b10000100 o
b11111111110001010000010100010011 %
b11111111110001010000010100010011 ]
b10000100 B
b10000100 i
b10000100 l
b10000100 v
b1111100 C
b1111100 k
b1111100 r
b1111100 y
b10000000 E
b10000000 t
b10000000 w
1!
#100000
b11101000 '
b11101000 j
b11101000 !"
b111010 [
b11101000 &
b11101000 f
b11101000 g
b11101000 =
b11101000 I
b11101000 V
b11101000 d
b11101000 7
b11101000 Q
b11101000 p
b11101100 $
b11101100 F
b11101100 ,
b11101100 O
b11101100 |
0!
#102000
b10 /
b10 \
b10 e
b10 '
b10 j
b10 !"
b111011 [
b10 &
b10 f
b10 g
14
13
b0 >
b0 M
b0 T
b11101100 =
b11101100 I
b11101100 V
b11101100 d
b1100011 U
b10 Z
b10 5
b10 W
b0 @
b0 H
b0 N
b11101100 7
b11101100 Q
b11101100 p
b0 ?
b0 G
b0 c
b10001000 D
b10001000 s
b11 1
b11 R
b0 8
b0 K
b10 L
b10 9
b10 J
b0 +
b0 }
b0 )
b0 P
b0 `
b0 a
b0 x
b11 ^
b10 _
b10001000 :
b10001000 m
b10001000 n
b10001000 o
b1010010010100000011 %
b1010010010100000011 ]
b10001000 B
b10001000 i
b10001000 l
b10001000 v
b10000100 C
b10000100 k
b10000100 r
b10000100 y
b10000100 E
b10000100 t
b10000100 w
1!
#104000
b0 '
b0 j
b0 !"
b0 &
b0 f
b0 g
b0 /
b0 \
b0 e
b0 [
b10 =
b10 I
b10 V
b10 d
b10 7
b10 Q
b10 p
b10 $
b10 F
b10 ,
b10 O
b10 |
0!
#106000
b1 '
b1 j
b1 !"
b1 &
b1 f
b1 g
04
03
b11 >
b11 M
b11 T
b11011 U
b0 Z
b0 5
b0 W
b1 =
b1 I
b1 V
b1 d
b1 7
b1 Q
b1 p
b1 ?
b1 G
b1 c
b10001100 D
b10001100 s
b10011 1
b10011 R
b0 L
b0 9
b0 J
b0 $
b0 F
b0 ,
b0 O
b0 |
b0 -
b0 {
b11011000 *
b11011000 Y
b11011000 b
b11011000 ~
b1 +
b1 }
b1011 0
b1011 z
b1 )
b1 P
b1 `
b1 a
b1 x
b10011 ^
b0 _
b10001100 :
b10001100 m
b10001100 n
b10001100 o
b100000000010110010011 %
b100000000010110010011 ]
b10001100 B
b10001100 i
b10001100 l
b10001100 v
b10001001 C
b10001001 k
b10001001 r
b10001001 y
b10001000 E
b10001000 t
b10001000 w
1!
#108000
0!
