comporg_lab1-leejunhee3123-main/sim.vcd
$date
	Tue Apr 11 21:36:35 2023
$end
$version
	Icarus Verilog
$end
$timescale
	10ps
$end
$scope module riscv_tb $end
$var reg 1 ! clk $end
$var reg 1 " rstn $end
$var integer 32 # i [31:0] $end
$scope module my_cpu $end
$var wire 32 $ NEXT_PC [31:0] $end
$var wire 32 % alu_in1 [31:0] $end
$var wire 1 ! clk $end
$var wire 32 & instruction [31:0] $end
$var wire 1 " rstn $end
$var wire 32 ' write_data [31:0] $end
$var wire 1 ( taken $end
$var wire 32 ) sextimm [31:0] $end
$var wire 32 * rs2_out [31:0] $end
$var wire 5 + rs2 [4:0] $end
$var wire 32 , rs1_out [31:0] $end
$var wire 5 - rs1 [4:0] $end
$var wire 1 . reg_write $end
$var wire 32 / read_data [31:0] $end
$var wire 5 0 rd [4:0] $end
$var wire 7 1 opcode [6:0] $end
$var wire 1 2 mem_write $end
$var wire 1 3 mem_to_reg $end
$var wire 1 4 mem_read $end
$var wire 2 5 maskmode [1:0] $end
$var wire 2 6 jump [1:0] $end
$var wire 7 7 funct7 [6:0] $end
$var wire 3 8 funct3 [2:0] $end
$var wire 1 9 branch $end
$var wire 1 : alu_src $end
$var wire 32 ; alu_out [31:0] $end
$var wire 2 < alu_op [1:0] $end
$var wire 32 = alu_in2 [31:0] $end
$var wire 4 > alu_func [3:0] $end
$var wire 1 ? alu_check $end
$var wire 32 @ PC_PLUS_4 [31:0] $end
$var reg 32 A PC [31:0] $end
$scope module m_ALU $end
$var wire 32 B in_a [31:0] $end
$var wire 32 C in_b [31:0] $end
$var wire 4 D alu_func [3:0] $end
$var reg 1 ? check $end
$var reg 32 E result [31:0] $end
$upscope $end
$scope module m_ALU_control $end
$var wire 3 F funct3 [2:0] $end
$var wire 7 G funct7 [6:0] $end
$var wire 4 H funct [3:0] $end
$var wire 2 I alu_op [1:0] $end
$var reg 4 J alu_func [3:0] $end
$upscope $end
$scope module m_branch_control $end
$var wire 1 ? check $end
$var wire 1 9 branch $end
$var reg 1 ( taken $end
$upscope $end
$scope module m_control $end
$var wire 7 K opcode [6:0] $end
$var wire 1 . reg_write $end
$var wire 1 2 mem_write $end
$var wire 1 3 mem_to_reg $end
$var wire 1 4 mem_read $end
$var wire 2 L jump [1:0] $end
$var wire 1 9 branch $end
$var wire 1 : alu_src $end
$var wire 2 M alu_op [1:0] $end
$var reg 10 N controls [9:0] $end
$upscope $end
$scope module m_data_memory $end
$var wire 32 O address [31:0] $end
$var wire 1 ! clk $end
$var wire 2 P maskmode [1:0] $end
$var wire 1 4 mem_read $end
$var wire 1 2 mem_write $end
$var wire 1 Q sext $end
$var wire 32 R write_data [31:0] $end
$var wire 8 S address_internal [7:0] $end
$var reg 32 T read_data [31:0] $end
$upscope $end
$scope module m_imm_generator $end
$var wire 32 U instruction [31:0] $end
$var wire 7 V opcode [6:0] $end
$var reg 32 W sextimm [31:0] $end
$upscope $end
$scope module m_mux_2x1 $end
$var wire 32 X in2 [31:0] $end
$var wire 1 : select $end
$var wire 32 Y in1 [31:0] $end
$var reg 32 Z out [31:0] $end
$upscope $end
$scope module m_mux_2x1_2 $end
$var wire 32 [ in1 [31:0] $end
$var wire 32 \ in2 [31:0] $end
$var wire 1 3 select $end
$var reg 32 ] out [31:0] $end
$upscope $end
$scope module m_next_pc_adder $end
$var wire 32 ^ in_a [31:0] $end
$var wire 32 _ in_b [31:0] $end
$var reg 32 ` result [31:0] $end
$upscope $end
$scope module m_register_file $end
$var wire 1 ! clk $end
$var wire 5 a rd [4:0] $end
$var wire 1 . reg_write $end
$var wire 5 b rs1 [4:0] $end
$var wire 32 c rs1_out [31:0] $end
$var wire 5 d rs2 [4:0] $end
$var wire 32 e rs2_out [31:0] $end
$var wire 32 f write_data [31:0] $end
$upscope $end
$upscope $end
$upscope $end
$enddefinitions $end
#0
$dumpvars
bx f
bx e
bx d
bx c
bx b
bx a
bx `
b100 _
bx ^
bx ]
bx \
bx [
bx Z
bx Y
bx X
bx W
bx V
bx U
bx T
bx S
bx R
0Q
bx P
bx O
bx N
bx M
bx L
bx K
bx J
bx I
bx H
bx G
bx F
bx E
bx D
bx C
bx B
bx A
bx @
x?
bx >
bx =
bx <
bx ;
x:
x9
bx 8
bx 7
bx 6
bx 5
x4
x3
x2
bx 1
bx 0
bx /
x.
bx -
bx ,
bx +
bx *
bx )
x(
bx '
bx &
bx %
bx $
b1000000 #
0"
0!
$end
#2000
b0 /
b0 T
b0 \
b0 6
b0 L
09
04
03
b11 <
b11 I
b11 M
02
1:
1.
0?
b111000 S
b11100000 '
b11100000 ]
b11100000 f
b11011 N
b0 5
b0 P
b0 >
b0 D
b0 J
b11100000 ;
b11100000 E
b11100000 O
b11100000 [
b11111111111111111111111111100000 =
b11111111111111111111111111100000 C
b11111111111111111111111111100000 Z
b10011 1
b10011 K
b1111111 7
b1111111 G
b1000 H
b0 8
b0 F
b100000000 %
b100000000 B
b100000000 ,
b100000000 c
b10 -
b10 b
b0 *
b0 R
b0 Y
b0 e
b0 +
b0 d
b10 0
b10 a
b11111111111111111111111111100000 )
b11111111111111111111111111100000 W
b11111111111111111111111111100000 X
b10011 V
b11111110000000010000000100010011 &
b11111110000000010000000100010011 U
b100 $
b100 @
b100 `
b0 A
b0 ^
1!
#4000
b110000 S
b11000000 '
b11000000 ]
b11000000 f
b11000000 ;
b11000000 E
b11000000 O
b11000000 [
b11100000 %
b11100000 B
b11100000 ,
b11100000 c
0!
#6000
b111000 S
b0 '
b0 ]
b0 f
13
b0 <
b0 I
b0 M
12
0.
b11100000 ;
b11100000 E
b11100000 O
b11100000 [
b100110 N
b10 5
b10 P
b0 >
b0 D
b0 J
b0 =
b0 C
b0 Z
b100011 1
b100011 K
b0 7
b0 G
b10 H
b10 8
b10 F
b1000 +
b1000 d
b11100 0
b11100 a
b0 )
b0 W
b0 X
b100011 V
b100000010010111000100011 &
b100000010010111000100011 U
b1000 $
b1000 @
b1000 `
b100 A
b100 ^
1!
1"
#8000
0!
#10000
b11011000 *
b11011000 R
b11011000 Y
b11011000 e
b1 +
b1 d
b11000 0
b11000 a
b100010010110000100011 &
b100010010110000100011 U
b1100 $
b1100 @
b1100 `
b1000 A
b1000 ^
1!
#12000
0!
#14000
b111100 S
b11110000 '
b11110000 ]
b11110000 f
03
b11 <
b11 I
b11 M
02
1.
b11110000 ;
b11110000 E
b11110000 O
b11110000 [
b11011 N
b0 5
b0 P
b10000 =
b10000 C
b10000 Z
b10011 1
b10011 K
b0 H
b0 8
b0 F
b0 *
b0 R
b0 Y
b0 e
b10000 +
b10000 d
b1000 0
b1000 a
b10000 )
b10000 W
b10000 X
b10011 V
b1000000010000010000010011 &
b1000000010000010000010011 U
b10000 $
b10000 @
b10000 `
b1100 A
b1100 ^
1!
#16000
0!
#18000
b111100 S
b0 '
b0 ]
b0 f
13
b0 <
b0 I
b0 M
12
0.
b11110000 ;
b11110000 E
b11110000 O
b11110000 [
b100110 N
b10 5
b10 P
b0 >
b0 D
b0 J
b0 =
b0 C
b0 Z
b100011 1
b100011 K
b1111111 7
b1111111 G
b1010 H
b10 8
b10 F
b11110000 %
b11110000 B
b11110000 ,
b11110000 c
b1000 -
b1000 b
b10 *
b10 R
b10 Y
b10 e
b1010 +
b1010 d
b11100 0
b11100 a
b0 )
b0 W
b0 X
b100011 V
b11111110101001000010111000100011 &
b11111110101001000010111000100011 U
b10100 $
b10100 @
b10100 `
b10000 A
b10000 ^
1!
#20000
0!
#22000
b11110000 '
b11110000 ]
b11110000 f
03
b11 <
b11 I
b11 M
02
1.
b11011 N
b0 5
b0 P
b10011 1
b10011 K
b0 7
b0 G
b0 H
b0 8
b0 F
b0 *
b0 R
b0 Y
b0 e
b0 +
b0 d
b1010 0
b1010 a
b10011 V
b1000000010100010011 &
b1000000010100010011 U
b11000 $
b11000 @
b11000 `
b10100 A
b10100 ^
1!
#24000
0!
#26000
b111011 S
b11101100 '
b11101100 ]
b11101100 f
b11101100 ;
b11101100 E
b11101100 O
b11101100 [
b1000 H
b11111111111111111111111111111100 =
b11111111111111111111111111111100 C
b11111111111111111111111111111100 Z
b1111111 7
b1111111 G
b1010 -
b1010 b
b11100 +
b11100 d
b11111111111111111111111111111100 )
b11111111111111111111111111111100 W
b11111111111111111111111111111100 X
b11111111110001010000010100010011 &
b11111111110001010000010100010011 U
b11100 $
b11100 @
b11100 `
b11000 A
b11000 ^
1!
#28000
b111010 S
b11101000 '
b11101000 ]
b11101000 f
b11101000 ;
b11101000 E
b11101000 O
b11101000 [
b11101100 %
b11101100 B
b11101100 ,
b11101100 c
0!
#30000
b111011 S
b0 '
b0 ]
b0 f
14
13
b0 <
b0 I
b0 M
b11101100 ;
b11101100 E
b11101100 O
b11101100 [
b1100011 N
b10 5
b10 P
b0 >
b0 D
b0 J
b0 =
b0 C
b0 Z
b11 1
b11 K
b0 7
b0 G
b10 H
b10 8
b10 F
b0 +
b0 d
b0 )
b0 W
b0 X
b11 V
b1010010010100000011 &
b1010010010100000011 U
b100000 $
b100000 @
b100000 `
b11100 A
b11100 ^
1!
#32000
b0 S
b0 ;
b0 E
b0 O
b0 [
b0 %
b0 B
b0 ,
b0 c
0!
#34000
04
03
b11 <
b11 I
b11 M
b11011 N
b0 5
b0 P
b10011 1
b10011 K
b0 H
b0 8
b0 F
b0 -
b0 b
b1011 0
b1011 a
b10011 V
b10110010011 &
b10110010011 U
b100100 $
b100100 @
b100100 `
b100000 A
b100000 ^
1!
#36000
0!
#38000
b0 <
b0 I
b0 M
0:
0.
b0 N
b1100011 1
b1100011 K
b1010 -
b1010 b
b1011 +
b1011 d
b1100 0
b1100 a
b1100011 V
b101101010000011001100011 &
b101101010000011001100011 U
b101000 $
b101000 @
b101000 `
b100100 A
b100100 ^
1!
#40000
0!
#42000
b11 <
b11 I
b11 M
1:
1.
b11011 N
b10011 1
b10011 K
b0 -
b0 b
b0 +
b0 d
b1010 0
b1010 a
b10011 V
b10100010011 &
b10100010011 U
b101100 $
b101100 @
b101100 `
b101000 A
b101000 ^
1!
#44000
0!
#46000
b111100 S
b11110000 '
b11110000 ]
b11110000 f
b11110000 ;
b11110000 E
b11110000 O
b11110000 [
b11110000 =
b11110000 C
b11110000 Z
b0 <
b0 I
b0 M
0:
0.
b0 N
b1101111 1
b1101111 K
b11110000 *
b11110000 R
b11110000 Y
b11110000 e
b1000 +
b1000 d
b0 0
b0 a
b1101111 V
b100000000000000001101111 &
b100000000000000001101111 U
b110000 $
b110000 @
b110000 `
b101100 A
b101100 ^
1!
#48000
0!
#50000
b0 S
b1 '
b1 ]
b1 f
b11 <
b11 I
b11 M
1:
1.
b1 ;
b1 E
b1 O
b1 [
b11011 N
b1 =
b1 C
b1 Z
b10011 1
b10011 K
b11011000 *
b11011000 R
b11011000 Y
b11011000 e
b1 +
b1 d
b1010 0
b1010 a
b1 )
b1 W
b1 X
b10011 V
b100000000010100010011 &
b100000000010100010011 U
b110100 $
b110100 @
b110100 `
b110000 A
b110000 ^
1!
#52000
0!
#54000
b0 '
b0 ]
b0 f
b0 ;
b0 E
b0 O
b0 [
b0 =
b0 C
b0 Z
b0 *
b0 R
b0 Y
b0 e
b0 +
b0 d
b0 0
b0 a
b0 )
b0 W
b0 X
b10011 &
b10011 U
b111000 $
b111000 @
b111000 `
b110100 A
b110100 ^
1!
#56000
0!
#58000
b0 <
b0 I
b0 M
0:
0.
b1 '
b1 ]
b1 f
b0 N
b1 ;
b1 E
b1 O
b1 [
b1100011 1
b1100011 K
b1 %
b1 B
b1 ,
b1 c
b1010 -
b1010 b
b10000 0
b10000 a
b1100011 V
b1010000100001100011 &
b1010000100001100011 U
b111100 $
b111100 @
b111100 `
b111000 A
b111000 ^
1!
#60000
0!
#62000
b11 <
b11 I
b11 M
1:
1.
b0 '
b0 ]
b0 f
b11011 N
b0 ;
b0 E
b0 O
b0 [
b10011 1
b10011 K
b0 %
b0 B
b0 ,
b0 c
b0 -
b0 b
b1010 0
b1010 a
b10011 V
b10100010011 &
b10100010011 U
b1000000 $
b1000000 @
b1000000 `
b111100 A
b111100 ^
1!
#64000
0!
#66000
b111100 S
b11110000 '
b11110000 ]
b11110000 f
b11110000 ;
b11110000 E
b11110000 O
b11110000 [
b11110000 =
b11110000 C
b11110000 Z
b0 <
b0 I
b0 M
0:
0.
b0 N
b1101111 1
b1101111 K
b100 7
b100 G
b11110000 *
b11110000 R
b11110000 Y
b11110000 e
b1000 +
b1000 d
b0 0
b0 a
b1101111 V
b1000100000000000000001101111 &
b1000100000000000000001101111 U
b1000100 $
b1000100 @
b1000100 `
b1000000 A
b1000000 ^
1!
#68000
0!
#70000
b0 S
b0 '
b0 ]
b0 f
b0 ;
b0 E
b0 O
b0 [
b0 =
b0 C
b0 Z
b0 *
b0 R
b0 Y
b0 e
b100 +
b100 d
b1000010000000000000001101111 &
b1000010000000000000001101111 U
b1001000 $
b1001000 @
b1001000 `
b1000100 A
b1000100 ^
1!
#72000
0!
#74000
b11 <
b11 I
b11 M
1:
1.
b111100 S
b11110000 '
b11110000 ]
b11110000 f
b11011 N
b11110000 ;
b11110000 E
b11110000 O
b11110000 [
b10011 1
b10011 K
b0 7
b0 G
b11110000 %
b11110000 B
b11110000 ,
b11110000 c
b1000 -
b1000 b
b0 +
b0 d
b1010 0
b1010 a
b10011 V
b1000000010100010011 &
b1000000010100010011 U
b1001100 $
b1001100 @
b1001100 `
b1001000 A
b1001000 ^
1!
#76000
0!
#78000
b111011 S
b11101100 '
b11101100 ]
b11101100 f
b11101100 ;
b11101100 E
b11101100 O
b11101100 [
b1000 H
b11111111111111111111111111111100 =
b11111111111111111111111111111100 C
b11111111111111111111111111111100 Z
b1111111 7
b1111111 G
b1010 -
b1010 b
b11100 +
b11100 d
b11111111111111111111111111111100 )
b11111111111111111111111111111100 W
b11111111111111111111111111111100 X
b11111111110001010000010100010011 &
b11111111110001010000010100010011 U
b1010000 $
b1010000 @
b1010000 `
b1001100 A
b1001100 ^
1!
#80000
b111010 S
b11101000 '
b11101000 ]
b11101000 f
b11101000 ;
b11101000 E
b11101000 O
b11101000 [
b11101100 %
b11101100 B
b11101100 ,
b11101100 c
0!
#82000
b111011 S
b0 '
b0 ]
b0 f
14
13
b0 <
b0 I
b0 M
b11101100 ;
b11101100 E
b11101100 O
b11101100 [
b1100011 N
b10 5
b10 P
b0 >
b0 D
b0 J
b0 =
b0 C
b0 Z
b11 1
b11 K
b0 7
b0 G
b10 H
b10 8
b10 F
b0 +
b0 d
b0 )
b0 W
b0 X
b11 V
b1010010010100000011 &
b1010010010100000011 U
b1010100 $
b1010100 @
b1010100 `
b1010000 A
b1010000 ^
1!
#84000
b0 S
b0 ;
b0 E
b0 O
b0 [
b0 %
b0 B
b0 ,
b0 c
0!
#86000
b1 '
b1 ]
b1 f
04
03
b11 <
b11 I
b11 M
b1 ;
b1 E
b1 O
b1 [
b11011 N
b0 5
b0 P
b1 =
b1 C
b1 Z
b10011 1
b10011 K
b0 H
b0 8
b0 F
b0 -
b0 b
b11011000 *
b11011000 R
b11011000 Y
b11011000 e
b1 +
b1 d
b1011 0
b1011 a
b1 )
b1 W
b1 X
b10011 V
b100000000010110010011 &
b100000000010110010011 U
b1011000 $
b1011000 @
b1011000 `
b1010100 A
b1010100 ^
1!
#88000
0!
#90000
b1 '
b1 ]
b1 f
b0 <
b0 I
b0 M
0:
0.
b1 ;
b1 E
b1 O
b1 [
b0 N
b1 =
b1 C
b1 Z
b1100011 1
b1100011 K
b1010 -
b1010 b
b1 *
b1 R
b1 Y
b1 e
b1011 +
b1011 d
b1100 0
b1100 a
b0 )
b0 W
b0 X
b1100011 V
b101101010000011001100011 &
b101101010000011001100011 U
b1011100 $
b1011100 @
b1011100 `
b1011000 A
b1011000 ^
1!
#92000
0!
#94000
b0 '
b0 ]
b0 f
b11 <
b11 I
b11 M
1:
1.
b0 ;
b0 E
b0 O
b0 [
b11011 N
b0 =
b0 C
b0 Z
b10011 1
b10011 K
b0 -
b0 b
b0 *
b0 R
b0 Y
b0 e
b0 +
b0 d
b1010 0
b1010 a
b10011 V
b10100010011 &
b10100010011 U
b1100000 $
b1100000 @
b1100000 `
b1011100 A
b1011100 ^
1!
#96000
0!
#98000
b111100 S
b11110000 '
b11110000 ]
b11110000 f
b11110000 ;
b11110000 E
b11110000 O
b11110000 [
b11110000 =
b11110000 C
b11110000 Z
b0 <
b0 I
b0 M
0:
0.
b0 N
b1101111 1
b1101111 K
b11110000 *
b11110000 R
b11110000 Y
b11110000 e
b1000 +
b1000 d
b0 0
b0 a
b1101111 V
b100000000000000001101111 &
b100000000000000001101111 U
b1100100 $
b1100100 @
b1100100 `
b1100000 A
b1100000 ^
1!
#100000
0!
#102000
b0 S
b1 '
b1 ]
b1 f
b11 <
b11 I
b11 M
1:
1.
b1 ;
b1 E
b1 O
b1 [
b11011 N
b1 =
b1 C
b1 Z
b10011 1
b10011 K
b11011000 *
b11011000 R
b11011000 Y
b11011000 e
b1 +
b1 d
b1010 0
b1010 a
b1 )
b1 W
b1 X
b10011 V
b100000000010100010011 &
b100000000010100010011 U
b1101000 $
b1101000 @
b1101000 `
b1100100 A
b1100100 ^
1!
#104000
0!
#106000
b0 '
b0 ]
b0 f
b0 ;
b0 E
b0 O
b0 [
b0 =
b0 C
b0 Z
b0 *
b0 R
b0 Y
b0 e
b0 +
b0 d
b0 0
b0 a
b0 )
b0 W
b0 X
b10011 &
b10011 U
b1101100 $
b1101100 @
b1101100 `
b1101000 A
b1101000 ^
1!
#108000
0!
#110000
b0 <
b0 I
b0 M
0:
0.
b1 '
b1 ]
b1 f
b0 N
b1 ;
b1 E
b1 O
b1 [
b1100011 1
b1100011 K
b1 %
b1 B
b1 ,
b1 c
b1010 -
b1010 b
b10000 0
b10000 a
b1100011 V
b1010000100001100011 &
b1010000100001100011 U
b1110000 $
b1110000 @
b1110000 `
b1101100 A
b1101100 ^
1!
#112000
0!
#114000
b11 <
b11 I
b11 M
1:
1.
b0 S
b1 '
b1 ]
b1 f
b11011 N
b1 ;
b1 E
b1 O
b1 [
b1 =
b1 C
b1 Z
b10011 1
b10011 K
b0 %
b0 B
b0 ,
b0 c
b0 -
b0 b
b11011000 *
b11011000 R
b11011000 Y
b11011000 e
b1 +
b1 d
b1010 0
b1010 a
b1 )
b1 W
b1 X
b10011 V
b100000000010100010011 &
b100000000010100010011 U
b1110100 $
b1110100 @
b1110100 `
b1110000 A
b1110000 ^
1!
#116000
0!
#118000
b0 '
b0 ]
b0 f
b0 <
b0 I
b0 M
0:
0.
b0 ;
b0 E
b0 O
b0 [
b0 N
b0 =
b0 C
b0 Z
b1101111 1
b1101111 K
b10 7
b10 G
b0 *
b0 R
b0 Y
b0 e
b10100 +
b10100 d
b0 0
b0 a
b0 )
b0 W
b0 X
b1101111 V
b101010000000000000001101111 &
b101010000000000000001101111 U
b1111000 $
b1111000 @
b1111000 `
b1110100 A
b1110100 ^
1!
#120000
0!
#122000
b10000 +
b10000 d
b101000000000000000001101111 &
b101000000000000000001101111 U
b1111100 $
b1111100 @
b1111100 `
b1111000 A
b1111000 ^
1!
#124000
0!
#126000
b11 <
b11 I
b11 M
1:
1.
b111100 S
b11110000 '
b11110000 ]
b11110000 f
b11011 N
b11110000 ;
b11110000 E
b11110000 O
b11110000 [
b10011 1
b10011 K
b0 7
b0 G
b11110000 %
b11110000 B
b11110000 ,
b11110000 c
b1000 -
b1000 b
b0 +
b0 d
b1010 0
b1010 a
b10011 V
b1000000010100010011 &
b1000000010100010011 U
b10000000 $
b10000000 @
b10000000 `
b1111100 A
b1111100 ^
1!
#128000
0!
#130000
b111011 S
b11101100 '
b11101100 ]
b11101100 f
b11101100 ;
b11101100 E
b11101100 O
b11101100 [
b1000 H
b11111111111111111111111111111100 =
b11111111111111111111111111111100 C
b11111111111111111111111111111100 Z
b1111111 7
b1111111 G
b1010 -
b1010 b
b11100 +
b11100 d
b11111111111111111111111111111100 )
b11111111111111111111111111111100 W
b11111111111111111111111111111100 X
b11111111110001010000010100010011 &
b11111111110001010000010100010011 U
b10000100 $
b10000100 @
b10000100 `
b10000000 A
b10000000 ^
1!
#132000
b111010 S
b11101000 '
b11101000 ]
b11101000 f
b11101000 ;
b11101000 E
b11101000 O
b11101000 [
b11101100 %
b11101100 B
b11101100 ,
b11101100 c
0!
#134000
b111011 S
b0 '
b0 ]
b0 f
14
13
b0 <
b0 I
b0 M
b11101100 ;
b11101100 E
b11101100 O
b11101100 [
b1100011 N
b10 5
b10 P
b0 >
b0 D
b0 J
b0 =
b0 C
b0 Z
b11 1
b11 K
b0 7
b0 G
b10 H
b10 8
b10 F
b0 +
b0 d
b0 )
b0 W
b0 X
b11 V
b1010010010100000011 &
b1010010010100000011 U
b10001000 $
b10001000 @
b10001000 `
b10000100 A
b10000100 ^
1!
#136000
b0 S
b0 ;
b0 E
b0 O
b0 [
b0 %
b0 B
b0 ,
b0 c
0!
#138000
b1 '
b1 ]
b1 f
04
03
b11 <
b11 I
b11 M
b1 ;
b1 E
b1 O
b1 [
b11011 N
b0 5
b0 P
b1 =
b1 C
b1 Z
b10011 1
b10011 K
b0 H
b0 8
b0 F
b0 -
b0 b
b11011000 *
b11011000 R
b11011000 Y
b11011000 e
b1 +
b1 d
b1011 0
b1011 a
b1 )
b1 W
b1 X
b10011 V
b100000000010110010011 &
b100000000010110010011 U
b10001100 $
b10001100 @
b10001100 `
b10001000 A
b10001000 ^
1!
#140000
0!
#142000
b11111111 S
b1 >
b1 D
b1 J
b11111111111111111111111111111111 '
b11111111111111111111111111111111 ]
b11111111111111111111111111111111 f
b10 <
b10 I
b10 M
0:
b11111111111111111111111111111111 ;
b11111111111111111111111111111111 E
b11111111111111111111111111111111 O
b11111111111111111111111111111111 [
b10001 N
b1000 H
b1 =
b1 C
b1 Z
b110011 1
b110011 K
b100000 7
b100000 G
b1010 -
b1010 b
b1 *
b1 R
b1 Y
b1 e
b1011 +
b1011 d
b1010 0
b1010 a
b0 )
b0 W
b0 X
b110011 V
b1000000101101010000010100110011 &
b1000000101101010000010100110011 U
b10010000 $
b10010000 @
b10010000 `
b10001100 A
b10001100 ^
1!
#144000
b11111111111111111111111111111110 '
b11111111111111111111111111111110 ]
b11111111111111111111111111111110 f
b11111111111111111111111111111110 ;
b11111111111111111111111111111110 E
b11111111111111111111111111111110 O
b11111111111111111111111111111110 [
b11111111111111111111111111111111 %
b11111111111111111111111111111111 B
b11111111111111111111111111111111 ,
b11111111111111111111111111111111 c
0!
#146000
b0 <
b0 I
b0 M
0.
b0 S
b0 '
b0 ]
b0 f
b0 N
b11 5
b11 P
b0 >
b0 D
b0 J
b0 ;
b0 E
b0 O
b0 [
b0 =
b0 C
b0 Z
b1101111 1
b1101111 K
b1111011 7
b1111011 G
b1111 H
b111 8
b111 F
b0 %
b0 B
b0 ,
b0 c
b11111 -
b11111 b
b0 *
b0 R
b0 Y
b0 e
b10001 +
b10001 d
b1 0
b1 a
b1101111 V
b11110111000111111111000011101111 &
b11110111000111111111000011101111 U
b10010100 $
b10010100 @
b10010100 `
b10010000 A
b10010000 ^
1!
#148000
0!
#150000
b11111111111111111111111111110000 =
b11111111111111111111111111110000 C
b11111111111111111111111111110000 Z
b11 <
b11 I
b11 M
1:
1.
b110100 S
b11010000 '
b11010000 ]
b11010000 f
b11011 N
b0 5
b0 P
b11010000 ;
b11010000 E
b11010000 O
b11010000 [
b10011 1
b10011 K
b1111111 7
b1111111 G
b1000 H
b0 8
b0 F
b11100000 %
b11100000 B
b11100000 ,
b11100000 c
b10 -
b10 b
b10000 +
b10000 d
b10 0
b10 a
b11111111111111111111111111110000 )
b11111111111111111111111111110000 W
b11111111111111111111111111110000 X
b10011 V
b11111111000000010000000100010011 &
b11111111000000010000000100010011 U
b10011000 $
b10011000 @
b10011000 `
b10010100 A
b10010100 ^
1!
#152000
b110000 S
b11000000 '
b11000000 ]
b11000000 f
b11000000 ;
b11000000 E
b11000000 O
b11000000 [
b11010000 %
b11010000 B
b11010000 ,
b11010000 c
0!
#154000
b110100 S
b0 '
b0 ]
b0 f
13
b0 <
b0 I
b0 M
12
0.
b11010000 ;
b11010000 E
b11010000 O
b11010000 [
b100110 N
b10 5
b10 P
b0 >
b0 D
b0 J
b0 =
b0 C
b0 Z
b100011 1
b100011 K
b0 7
b0 G
b10 H
b10 8
b10 F
b11111111111111111111111111111111 *
b11111111111111111111111111111111 R
b11111111111111111111111111111111 Y
b11111111111111111111111111111111 e
b1010 +
b1010 d
b0 0
b0 a
b0 )
b0 W
b0 X
b100011 V
b101000010010000000100011 &
b101000010010000000100011 U
b10011100 $
b10011100 @
b10011100 `
b10011000 A
b10011000 ^
1!
#156000
0!
#158000
b11110000 '
b11110000 ]
b11110000 f
03
b11 <
b11 I
b11 M
02
1.
b111100 S
b11011 N
b0 5
b0 P
b11110000 ;
b11110000 E
b11110000 O
b11110000 [
b10011 1
b10011 K
b0 H
b0 8
b0 F
b11110000 %
b11110000 B
b11110000 ,
b11110000 c
b1000 -
b1000 b
b0 *
b0 R
b0 Y
b0 e
b0 +
b0 d
b1010 0
b1010 a
b10011 V
b1000000010100010011 &
b1000000010100010011 U
b10100000 $
b10100000 @
b10100000 `
b10011100 A
b10011100 ^
1!
#160000
0!
#162000
b111011 S
b11101100 '
b11101100 ]
b11101100 f
b11101100 ;
b11101100 E
b11101100 O
b11101100 [
b1000 H
b11111111111111111111111111111100 =
b11111111111111111111111111111100 C
b11111111111111111111111111111100 Z
b1111111 7
b1111111 G
b1010 -
b1010 b
b11100 +
b11100 d
b11111111111111111111111111111100 )
b11111111111111111111111111111100 W
b11111111111111111111111111111100 X
b11111111110001010000010100010011 &
b11111111110001010000010100010011 U
b10100100 $
b10100100 @
b10100100 `
b10100000 A
b10100000 ^
1!
#164000
b111010 S
b11101000 '
b11101000 ]
b11101000 f
b11101000 ;
b11101000 E
b11101000 O
b11101000 [
b11101100 %
b11101100 B
b11101100 ,
b11101100 c
0!
#166000
b111011 S
b0 '
b0 ]
b0 f
14
13
b0 <
b0 I
b0 M
b11101100 ;
b11101100 E
b11101100 O
b11101100 [
b1100011 N
b10 5
b10 P
b0 >
b0 D
b0 J
b0 =
b0 C
b0 Z
b11 1
b11 K
b0 7
b0 G
b10 H
b10 8
b10 F
b0 +
b0 d
b0 )
b0 W
b0 X
b11 V
b1010010010100000011 &
b1010010010100000011 U
b10101000 $
b10101000 @
b10101000 `
b10100100 A
b10100100 ^
1!
#168000
b0 S
b0 ;
b0 E
b0 O
b0 [
b0 %
b0 B
b0 ,
b0 c
0!
#170000
b10 '
b10 ]
b10 f
04
03
b11 <
b11 I
b11 M
b10 ;
b10 E
b10 O
b10 [
b11011 N
b0 5
b0 P
b10 =
b10 C
b10 Z
b10011 1
b10011 K
b0 H
b0 8
b0 F
b0 -
b0 b
b11010000 *
b11010000 R
b11010000 Y
b11010000 e
b10 +
b10 d
b1011 0
b1011 a
b10 )
b10 W
b10 X
b10011 V
b1000000000010110010011 &
b1000000000010110010011 U
b10101100 $
b10101100 @
b10101100 `
b10101000 A
b10101000 ^
1!
#172000
0!
#174000
b11111111 S
b1 >
b1 D
b1 J
b11111111111111111111111111111110 '
b11111111111111111111111111111110 ]
b11111111111111111111111111111110 f
b10 <
b10 I
b10 M
0:
b11111111111111111111111111111110 ;
b11111111111111111111111111111110 E
b11111111111111111111111111111110 O
b11111111111111111111111111111110 [
b10001 N
b1000 H
b10 =
b10 C
b10 Z
b110011 1
b110011 K
b100000 7
b100000 G
b1010 -
b1010 b
b10 *
b10 R
b10 Y
b10 e
b1011 +
b1011 d
b1010 0
b1010 a
b0 )
b0 W
b0 X
b110011 V
b1000000101101010000010100110011 &
b1000000101101010000010100110011 U
b10110000 $
b10110000 @
b10110000 `
b10101100 A
b10101100 ^
1!
#176000
b11111111111111111111111111111100 '
b11111111111111111111111111111100 ]
b11111111111111111111111111111100 f
b11111111111111111111111111111100 ;
b11111111111111111111111111111100 E
b11111111111111111111111111111100 O
b11111111111111111111111111111100 [
b11111111111111111111111111111110 %
b11111111111111111111111111111110 B
b11111111111111111111111111111110 ,
b11111111111111111111111111111110 c
0!
#178000
b0 <
b0 I
b0 M
0.
b0 S
b0 '
b0 ]
b0 f
b0 N
b11 5
b11 P
b0 >
b0 D
b0 J
b0 ;
b0 E
b0 O
b0 [
b0 =
b0 C
b0 Z
b1101111 1
b1101111 K
b1111010 7
b1111010 G
b1111 H
b111 8
b111 F
b0 %
b0 B
b0 ,
b0 c
b11111 -
b11111 b
b0 *
b0 R
b0 Y
b0 e
b10001 +
b10001 d
b1 0
b1 a
b1101111 V
b11110101000111111111000011101111 &
b11110101000111111111000011101111 U
b10110100 $
b10110100 @
b10110100 `
b10110000 A
b10110000 ^
1!
#180000
0!
#182000
b11 <
b11 I
b11 M
1:
1.
b11111111 S
b11111111111111111111111111111110 '
b11111111111111111111111111111110 ]
b11111111111111111111111111111110 f
b11011 N
b0 5
b0 P
b11111111111111111111111111111110 ;
b11111111111111111111111111111110 E
b11111111111111111111111111111110 O
b11111111111111111111111111111110 [
b10011 1
b10011 K
b0 7
b0 G
b0 H
b0 8
b0 F
b11111111111111111111111111111110 %
b11111111111111111111111111111110 B
b11111111111111111111111111111110 ,
b11111111111111111111111111111110 c
b1010 -
b1010 b
b0 +
b0 d
b1011 0
b1011 a
b10011 V
b1010000010110010011 &
b1010000010110010011 U
b10111000 $
b10111000 @
b10111000 `
b10110100 A
b10110100 ^
1!
#184000
0!
