comporg_lab1-leejunhee3123-main/sim.vcd
$date
	Wed Apr 12 02:00:51 2023
$end
$version
	Icarus Verilog
$end
$timescale
	10ps
$end
$scope module riscv_tb $end
$var reg 1 ! clk $end
$var reg 1 " rstn $end
$var integer 32 # i [31:0] $end
$scope module my_cpu $end
$var wire 32 $ alu_in1 [31:0] $end
$var wire 1 ! clk $end
$var wire 32 % instruction [31:0] $end
$var wire 1 " rstn $end
$var wire 32 & write_data [31:0] $end
$var wire 1 ' taken $end
$var wire 32 ( sextimm [31:0] $end
$var wire 32 ) rs2_out [31:0] $end
$var wire 5 * rs2 [4:0] $end
$var wire 32 + rs1_out [31:0] $end
$var wire 5 , rs1 [4:0] $end
$var wire 1 - reg_write $end
$var wire 32 . read_data [31:0] $end
$var wire 5 / rd [4:0] $end
$var wire 7 0 opcode [6:0] $end
$var wire 1 1 mem_write $end
$var wire 1 2 mem_to_reg $end
$var wire 1 3 mem_read $end
$var wire 2 4 maskmode [1:0] $end
$var wire 2 5 jump [1:0] $end
$var wire 7 6 funct7 [6:0] $end
$var wire 3 7 funct3 [2:0] $end
$var wire 1 8 branch $end
$var wire 1 9 alu_src $end
$var wire 32 : alu_out [31:0] $end
$var wire 2 ; alu_op [1:0] $end
$var wire 32 < alu_in2 [31:0] $end
$var wire 4 = alu_func [3:0] $end
$var wire 1 > alu_check $end
$var wire 32 ? PC_PLUS_4 [31:0] $end
$var wire 32 @ PC_BRANCH [31:0] $end
$var wire 32 A NEXT_PC [31:0] $end
$var reg 32 B PC [31:0] $end
$scope module m_ALU $end
$var wire 32 C in_a [31:0] $end
$var wire 32 D in_b [31:0] $end
$var wire 4 E alu_func [3:0] $end
$var reg 1 > check $end
$var reg 32 F result [31:0] $end
$upscope $end
$scope module m_ALU_control $end
$var wire 3 G funct3 [2:0] $end
$var wire 7 H funct7 [6:0] $end
$var wire 4 I funct [3:0] $end
$var wire 2 J alu_op [1:0] $end
$var reg 4 K alu_func [3:0] $end
$upscope $end
$scope module m_branch_control $end
$var wire 1 > check $end
$var wire 1 8 branch $end
$var reg 1 ' taken $end
$upscope $end
$scope module m_control $end
$var wire 7 L opcode [6:0] $end
$var wire 1 - reg_write $end
$var wire 1 1 mem_write $end
$var wire 1 2 mem_to_reg $end
$var wire 1 3 mem_read $end
$var wire 2 M jump [1:0] $end
$var wire 1 8 branch $end
$var wire 1 9 alu_src $end
$var wire 2 N alu_op [1:0] $end
$var reg 10 O controls [9:0] $end
$upscope $end
$scope module m_data_memory $end
$var wire 32 P address [31:0] $end
$var wire 1 ! clk $end
$var wire 2 Q maskmode [1:0] $end
$var wire 1 3 mem_read $end
$var wire 1 1 mem_write $end
$var wire 1 R sext $end
$var wire 32 S write_data [31:0] $end
$var wire 4 T funct3 [3:0] $end
$var wire 8 U address_internal [7:0] $end
$var reg 32 V read_data [31:0] $end
$upscope $end
$scope module m_imm_generator $end
$var wire 32 W instruction [31:0] $end
$var wire 7 X opcode [6:0] $end
$var wire 3 Y funct3 [2:0] $end
$var reg 32 Z sextimm [31:0] $end
$upscope $end
$scope module m_mux_2x1 $end
$var wire 32 [ in2 [31:0] $end
$var wire 1 9 select $end
$var wire 32 \ in1 [31:0] $end
$var reg 32 ] out [31:0] $end
$upscope $end
$scope module m_mux_2x1_2 $end
$var wire 32 ^ in1 [31:0] $end
$var wire 32 _ in2 [31:0] $end
$var wire 1 2 select $end
$var reg 32 ` out [31:0] $end
$upscope $end
$scope module m_mux_2x1_branch $end
$var wire 1 ' select $end
$var wire 32 a in2 [31:0] $end
$var wire 32 b in1 [31:0] $end
$var reg 32 c out [31:0] $end
$upscope $end
$scope module m_next_pc_adder $end
$var wire 32 d in_a [31:0] $end
$var wire 32 e in_b [31:0] $end
$var reg 32 f result [31:0] $end
$upscope $end
$scope module m_pc_branch_adder $end
$var wire 32 g in_a [31:0] $end
$var wire 32 h in_b [31:0] $end
$var reg 32 i result [31:0] $end
$upscope $end
$scope module m_register_file $end
$var wire 1 ! clk $end
$var wire 5 j rd [4:0] $end
$var wire 1 - reg_write $end
$var wire 5 k rs1 [4:0] $end
$var wire 32 l rs1_out [31:0] $end
$var wire 5 m rs2 [4:0] $end
$var wire 32 n rs2_out [31:0] $end
$var wire 32 o write_data [31:0] $end
$upscope $end
$upscope $end
$upscope $end
$enddefinitions $end
#0
$dumpvars
b0 o
bx n
bx m
bx l
bx k
bx j
bx i
bx h
bx g
bx f
b100 e
bx d
bx c
bx b
bx a
b0 `
b0 _
bx ^
bx ]
bx \
bx [
bx Z
bx Y
bx X
bx W
b0 V
bx U
b0xxx T
bx S
xR
bx Q
bx P
bx O
bx N
bx M
bx L
bx K
bx J
bx I
bx H
bx G
bx F
bx E
bx D
bx C
bx B
bx A
bx @
bx ?
x>
bx =
bx <
bx ;
bx :
x9
x8
bx 7
bx 6
bx 5
bx 4
x3
x2
x1
bx 0
bx /
b0 .
x-
bx ,
bx +
bx *
bx )
bx (
x'
b0 &
bx %
bx $
b1000000 #
0"
0!
$end
#2000
b11100000 &
b11100000 `
b11100000 o
0'
b0 5
b0 M
08
03
02
b11 ;
b11 J
b11 N
01
19
1-
0>
b111000 U
b11011 O
b0 4
b0 Q
b0 T
0R
b0 =
b0 E
b0 K
b11100000 :
b11100000 F
b11100000 P
b11100000 ^
b11111111111111111111111111100000 <
b11111111111111111111111111100000 D
b11111111111111111111111111100000 ]
b11111111111111111111111111100000 @
b11111111111111111111111111100000 a
b11111111111111111111111111100000 i
b10011 0
b10011 L
b1111111 6
b1111111 H
b1000 I
b0 7
b0 G
b100000000 $
b100000000 C
b100000000 +
b100000000 l
b10 ,
b10 k
b0 )
b0 S
b0 \
b0 n
b0 *
b0 m
b10 /
b10 j
b11111111111111111111111111100000 (
b11111111111111111111111111100000 Z
b11111111111111111111111111100000 [
b11111111111111111111111111100000 h
b10011 X
b0 Y
b100 A
b100 c
b11111110000000010000000100010011 %
b11111110000000010000000100010011 W
b100 ?
b100 b
b100 f
b0 B
b0 d
b0 g
1!
#4000
b110000 U
b11000000 &
b11000000 `
b11000000 o
b11000000 :
b11000000 F
b11000000 P
b11000000 ^
b11100000 $
b11100000 C
b11100000 +
b11100000 l
0!
#6000
b111111 U
b0 &
b0 `
b0 o
12
b0 ;
b0 J
b0 N
11
0-
b11111100 :
b11111100 F
b11111100 P
b11111100 ^
b100110 O
b10 T
b10 4
b10 Q
b0 =
b0 E
b0 K
b11100 <
b11100 D
b11100 ]
b100011 0
b100011 L
b0 6
b0 H
b10 I
b10 7
b10 G
b1000 *
b1000 m
b11100 /
b11100 j
b11100 (
b11100 Z
b11100 [
b11100 h
b100011 X
b10 Y
b1000 A
b1000 c
b100000010010111000100011 %
b100000010010111000100011 W
b1000 ?
b1000 b
b1000 f
b100000 @
b100000 a
b100000 i
b100 B
b100 d
b100 g
1!
1"
#8000
0!
#10000
b111110 U
b11111000 :
b11111000 F
b11111000 P
b11111000 ^
b11000 <
b11000 D
b11000 ]
b11011000 )
b11011000 S
b11011000 \
b11011000 n
b1 *
b1 m
b11000 /
b11000 j
b11000 (
b11000 Z
b11000 [
b11000 h
b1100 A
b1100 c
b100010010110000100011 %
b100010010110000100011 W
b1100 ?
b1100 b
b1100 f
b100000 @
b100000 a
b100000 i
b1000 B
b1000 d
b1000 g
1!
#12000
0!
#14000
b111100 U
b11110000 &
b11110000 `
b11110000 o
02
b11 ;
b11 J
b11 N
01
1-
b11110000 :
b11110000 F
b11110000 P
b11110000 ^
b11011 O
b0 T
b0 4
b0 Q
b10000 <
b10000 D
b10000 ]
b10011 0
b10011 L
b0 I
b0 7
b0 G
b0 )
b0 S
b0 \
b0 n
b10000 *
b10000 m
b1000 /
b1000 j
b10000 (
b10000 Z
b10000 [
b10000 h
b10011 X
b0 Y
b10000 A
b10000 c
b1000000010000010000010011 %
b1000000010000010000010011 W
b10000 ?
b10000 b
b10000 f
b11100 @
b11100 a
b11100 i
b1100 B
b1100 d
b1100 g
1!
#16000
0!
#18000
12
b0 ;
b0 J
b0 N
11
0-
b111011 U
b0 &
b0 `
b0 o
b100110 O
b10 T
b10 4
b10 Q
b0 =
b0 E
b0 K
b11101100 :
b11101100 F
b11101100 P
b11101100 ^
b11111111111111111111111111111100 <
b11111111111111111111111111111100 D
b11111111111111111111111111111100 ]
b100011 0
b100011 L
b1111111 6
b1111111 H
b1010 I
b10 7
b10 G
b11110000 $
b11110000 C
b11110000 +
b11110000 l
b1000 ,
b1000 k
b10 )
b10 S
b10 \
b10 n
b1010 *
b1010 m
b11100 /
b11100 j
b11111111111111111111111111111100 (
b11111111111111111111111111111100 Z
b11111111111111111111111111111100 [
b11111111111111111111111111111100 h
b100011 X
b10 Y
b10100 A
b10100 c
b11111110101001000010111000100011 %
b11111110101001000010111000100011 W
b10100 ?
b10100 b
b10100 f
b1100 @
b1100 a
b1100 i
b10000 B
b10000 d
b10000 g
1!
#20000
0!
#22000
b111100 U
b11110000 &
b11110000 `
b11110000 o
02
b11 ;
b11 J
b11 N
01
1-
b11110000 :
b11110000 F
b11110000 P
b11110000 ^
b11011 O
b0 T
b0 4
b0 Q
b0 <
b0 D
b0 ]
b10011 0
b10011 L
b0 6
b0 H
b0 I
b0 7
b0 G
b0 )
b0 S
b0 \
b0 n
b0 *
b0 m
b1010 /
b1010 j
b0 (
b0 Z
b0 [
b0 h
b10011 X
b0 Y
b11000 A
b11000 c
b1000000010100010011 %
b1000000010100010011 W
b11000 ?
b11000 b
b11000 f
b10100 @
b10100 a
b10100 i
b10100 B
b10100 d
b10100 g
1!
#24000
0!
#26000
b111011 U
b11101100 &
b11101100 `
b11101100 o
b11101100 :
b11101100 F
b11101100 P
b11101100 ^
b1000 I
b11111111111111111111111111111100 <
b11111111111111111111111111111100 D
b11111111111111111111111111111100 ]
b1111111 6
b1111111 H
b1010 ,
b1010 k
b11100 *
b11100 m
b11111111111111111111111111111100 (
b11111111111111111111111111111100 Z
b11111111111111111111111111111100 [
b11111111111111111111111111111100 h
b11100 A
b11100 c
b11111111110001010000010100010011 %
b11111111110001010000010100010011 W
b11100 ?
b11100 b
b11100 f
b10100 @
b10100 a
b10100 i
b11000 B
b11000 d
b11000 g
1!
#28000
b111010 U
b11101000 &
b11101000 `
b11101000 o
b11101000 :
b11101000 F
b11101000 P
b11101000 ^
b11101100 $
b11101100 C
b11101100 +
b11101100 l
0!
#30000
b10 .
b10 V
b10 _
b111011 U
b10 &
b10 `
b10 o
13
12
b0 ;
b0 J
b0 N
b11101100 :
b11101100 F
b11101100 P
b11101100 ^
b1100011 O
b10 T
b10 4
b10 Q
b0 =
b0 E
b0 K
b0 <
b0 D
b0 ]
b11 0
b11 L
b0 6
b0 H
b10 I
b10 7
b10 G
b0 *
b0 m
b0 (
b0 Z
b0 [
b0 h
b11 X
b10 Y
b100000 A
b100000 c
b1010010010100000011 %
b1010010010100000011 W
b100000 ?
b100000 b
b100000 f
b11100 @
b11100 a
b11100 i
b11100 B
b11100 d
b11100 g
1!
#32000
b0 &
b0 `
b0 o
b0 .
b0 V
b0 _
b0 U
b10 :
b10 F
b10 P
b10 ^
b10 $
b10 C
b10 +
b10 l
0!
#34000
03
02
b11 ;
b11 J
b11 N
b11011 O
b0 T
b0 4
b0 Q
b0 :
b0 F
b0 P
b0 ^
b10011 0
b10011 L
b0 I
b0 7
b0 G
b0 $
b0 C
b0 +
b0 l
b0 ,
b0 k
b1011 /
b1011 j
b10011 X
b0 Y
b100100 A
b100100 c
b10110010011 %
b10110010011 W
b100100 ?
b100100 b
b100100 f
b100000 @
b100000 a
b100000 i
b100000 B
b100000 d
b100000 g
1!
#36000
0!
#38000
b1 =
b1 E
b1 K
18
b1 ;
b1 J
b1 N
0-
b11111101 U
b11111111111111111111111111110110 &
b11111111111111111111111111110110 `
b11111111111111111111111111110110 o
b10001010 O
b11111111111111111111111111110110 :
b11111111111111111111111111110110 F
b11111111111111111111111111110110 P
b11111111111111111111111111110110 ^
b1100 <
b1100 D
b1100 ]
b1100011 0
b1100011 L
b10 $
b10 C
b10 +
b10 l
b1010 ,
b1010 k
b1011 *
b1011 m
b1100 /
b1100 j
b1100 (
b1100 Z
b1100 [
b1100 h
b1100011 X
b101000 A
b101000 c
b101101010000011001100011 %
b101101010000011001100011 W
b101000 ?
b101000 b
b101000 f
b110000 @
b110000 a
b110000 i
b100100 B
b100100 d
b100100 g
1!
#40000
0!
#42000
b0 =
b0 E
b0 K
08
b11 ;
b11 J
b11 N
1-
0>
b0 U
b0 &
b0 `
b0 o
b11011 O
b0 :
b0 F
b0 P
b0 ^
b0 <
b0 D
b0 ]
b10011 0
b10011 L
b0 $
b0 C
b0 +
b0 l
b0 ,
b0 k
b0 *
b0 m
b1010 /
b1010 j
b0 (
b0 Z
b0 [
b0 h
b10011 X
b101100 A
b101100 c
b10100010011 %
b10100010011 W
b101100 ?
b101100 b
b101100 f
b101000 @
b101000 a
b101000 i
b101000 B
b101000 d
b101000 g
1!
#44000
0!
#46000
b111100 U
b11110000 &
b11110000 `
b11110000 o
b11110000 :
b11110000 F
b11110000 P
b11110000 ^
b11110000 <
b11110000 D
b11110000 ]
b0 ;
b0 J
b0 N
09
0-
b0 O
b1101111 0
b1101111 L
b11110000 )
b11110000 S
b11110000 \
b11110000 n
b1000 *
b1000 m
b0 /
b0 j
b1101111 X
b110000 A
b110000 c
b100000000000000001101111 %
b100000000000000001101111 W
b110000 ?
b110000 b
b110000 f
b101100 @
b101100 a
b101100 i
b101100 B
b101100 d
b101100 g
1!
#48000
0!
#50000
b0 U
b1 &
b1 `
b1 o
b11 ;
b11 J
b11 N
19
1-
b1 :
b1 F
b1 P
b1 ^
b11011 O
b1 <
b1 D
b1 ]
b10011 0
b10011 L
b11011000 )
b11011000 S
b11011000 \
b11011000 n
b1 *
b1 m
b1010 /
b1010 j
b1 (
b1 Z
b1 [
b1 h
b10011 X
b110100 A
b110100 c
b100000000010100010011 %
b100000000010100010011 W
b110100 ?
b110100 b
b110100 f
b110001 @
b110001 a
b110001 i
b110000 B
b110000 d
b110000 g
1!
#52000
0!
#54000
b0 &
b0 `
b0 o
b0 :
b0 F
b0 P
b0 ^
b0 <
b0 D
b0 ]
b0 )
b0 S
b0 \
b0 n
b0 *
b0 m
b0 /
b0 j
b0 (
b0 Z
b0 [
b0 h
b111000 A
b111000 c
b10011 %
b10011 W
b111000 ?
b111000 b
b111000 f
b110100 @
b110100 a
b110100 i
b110100 B
b110100 d
b110100 g
1!
#56000
0!
#58000
b1 =
b1 E
b1 K
18
b1 ;
b1 J
b1 N
0-
b11111100 U
b11111111111111111111111111110001 &
b11111111111111111111111111110001 `
b11111111111111111111111111110001 o
b10001010 O
b11111111111111111111111111110001 :
b11111111111111111111111111110001 F
b11111111111111111111111111110001 P
b11111111111111111111111111110001 ^
b10000 <
b10000 D
b10000 ]
b1100011 0
b1100011 L
b1 $
b1 C
b1 +
b1 l
b1010 ,
b1010 k
b10000 /
b10000 j
b10000 (
b10000 Z
b10000 [
b10000 h
b1100011 X
b111100 A
b111100 c
b1010000100001100011 %
b1010000100001100011 W
b111100 ?
b111100 b
b111100 f
b1001000 @
b1001000 a
b1001000 i
b111000 B
b111000 d
b111000 g
1!
#60000
0!
#62000
b0 =
b0 E
b0 K
08
b11 ;
b11 J
b11 N
1-
0>
b0 U
b0 &
b0 `
b0 o
b11011 O
b0 :
b0 F
b0 P
b0 ^
b0 <
b0 D
b0 ]
b10011 0
b10011 L
b0 $
b0 C
b0 +
b0 l
b0 ,
b0 k
b1010 /
b1010 j
b0 (
b0 Z
b0 [
b0 h
b10011 X
b1000000 A
b1000000 c
b10100010011 %
b10100010011 W
b1000000 ?
b1000000 b
b1000000 f
b111100 @
b111100 a
b111100 i
b111100 B
b111100 d
b111100 g
1!
#64000
0!
#66000
b111100 U
b11110000 &
b11110000 `
b11110000 o
b11110000 :
b11110000 F
b11110000 P
b11110000 ^
b11110000 <
b11110000 D
b11110000 ]
b0 ;
b0 J
b0 N
09
0-
b0 O
b1101111 0
b1101111 L
b100 6
b100 H
b11110000 )
b11110000 S
b11110000 \
b11110000 n
b1000 *
b1000 m
b0 /
b0 j
b1101111 X
b1000100 A
b1000100 c
b1000100000000000000001101111 %
b1000100000000000000001101111 W
b1000100 ?
b1000100 b
b1000100 f
b1000000 @
b1000000 a
b1000000 i
b1000000 B
b1000000 d
b1000000 g
1!
#68000
0!
#70000
b0 U
b0 &
b0 `
b0 o
b0 :
b0 F
b0 P
b0 ^
b0 <
b0 D
b0 ]
b0 )
b0 S
b0 \
b0 n
b100 *
b100 m
b1001000 A
b1001000 c
b1000010000000000000001101111 %
b1000010000000000000001101111 W
b1001000 ?
b1001000 b
b1001000 f
b1000100 @
b1000100 a
b1000100 i
b1000100 B
b1000100 d
b1000100 g
1!
#72000
0!
#74000
b11 ;
b11 J
b11 N
19
1-
b111100 U
b11110000 &
b11110000 `
b11110000 o
b11011 O
b11110000 :
b11110000 F
b11110000 P
b11110000 ^
b10011 0
b10011 L
b0 6
b0 H
b11110000 $
b11110000 C
b11110000 +
b11110000 l
b1000 ,
b1000 k
b0 *
b0 m
b1010 /
b1010 j
b10011 X
b1001100 A
b1001100 c
b1000000010100010011 %
b1000000010100010011 W
b1001100 ?
b1001100 b
b1001100 f
b1001000 @
b1001000 a
b1001000 i
b1001000 B
b1001000 d
b1001000 g
1!
#76000
0!
#78000
b111011 U
b11101100 &
b11101100 `
b11101100 o
b11101100 :
b11101100 F
b11101100 P
b11101100 ^
b1000 I
b11111111111111111111111111111100 <
b11111111111111111111111111111100 D
b11111111111111111111111111111100 ]
b1111111 6
b1111111 H
b1010 ,
b1010 k
b11100 *
b11100 m
b11111111111111111111111111111100 (
b11111111111111111111111111111100 Z
b11111111111111111111111111111100 [
b11111111111111111111111111111100 h
b1010000 A
b1010000 c
b11111111110001010000010100010011 %
b11111111110001010000010100010011 W
b1010000 ?
b1010000 b
b1010000 f
b1001000 @
b1001000 a
b1001000 i
b1001100 B
b1001100 d
b1001100 g
1!
#80000
b111010 U
b11101000 &
b11101000 `
b11101000 o
b11101000 :
b11101000 F
b11101000 P
b11101000 ^
b11101100 $
b11101100 C
b11101100 +
b11101100 l
0!
#82000
b10 .
b10 V
b10 _
b111011 U
b10 &
b10 `
b10 o
13
12
b0 ;
b0 J
b0 N
b11101100 :
b11101100 F
b11101100 P
b11101100 ^
b1100011 O
b10 T
b10 4
b10 Q
b0 =
b0 E
b0 K
b0 <
b0 D
b0 ]
b11 0
b11 L
b0 6
b0 H
b10 I
b10 7
b10 G
b0 *
b0 m
b0 (
b0 Z
b0 [
b0 h
b11 X
b10 Y
b1010100 A
b1010100 c
b1010010010100000011 %
b1010010010100000011 W
b1010100 ?
b1010100 b
b1010100 f
b1010000 @
b1010000 a
b1010000 i
b1010000 B
b1010000 d
b1010000 g
1!
#84000
b0 &
b0 `
b0 o
b0 .
b0 V
b0 _
b0 U
b10 :
b10 F
b10 P
b10 ^
b10 $
b10 C
b10 +
b10 l
0!
#86000
b1 &
b1 `
b1 o
03
02
b11 ;
b11 J
b11 N
b11011 O
b0 T
b0 4
b0 Q
b1 :
b1 F
b1 P
b1 ^
b1 <
b1 D
b1 ]
b10011 0
b10011 L
b0 I
b0 7
b0 G
b0 $
b0 C
b0 +
b0 l
b0 ,
b0 k
b11011000 )
b11011000 S
b11011000 \
b11011000 n
b1 *
b1 m
b1011 /
b1011 j
b1 (
b1 Z
b1 [
b1 h
b10011 X
b0 Y
b1011000 A
b1011000 c
b100000000010110010011 %
b100000000010110010011 W
b1011000 ?
b1011000 b
b1011000 f
b1010101 @
b1010101 a
b1010101 i
b1010100 B
b1010100 d
b1010100 g
1!
#88000
0!
#90000
b1 =
b1 E
b1 K
18
b1 ;
b1 J
b1 N
0-
b11111101 U
b11111111111111111111111111110110 &
b11111111111111111111111111110110 `
b11111111111111111111111111110110 o
b10001010 O
b11111111111111111111111111110110 :
b11111111111111111111111111110110 F
b11111111111111111111111111110110 P
b11111111111111111111111111110110 ^
b1100 <
b1100 D
b1100 ]
b1100011 0
b1100011 L
b10 $
b10 C
b10 +
b10 l
b1010 ,
b1010 k
b1 )
b1 S
b1 \
b1 n
b1011 *
b1011 m
b1100 /
b1100 j
b1100 (
b1100 Z
b1100 [
b1100 h
b1100011 X
b1011100 A
b1011100 c
b101101010000011001100011 %
b101101010000011001100011 W
b1011100 ?
b1011100 b
b1011100 f
b1100100 @
b1100100 a
b1100100 i
b1011000 B
b1011000 d
b1011000 g
1!
#92000
0!
#94000
b0 =
b0 E
b0 K
08
b11 ;
b11 J
b11 N
1-
0>
b0 U
b0 &
b0 `
b0 o
b11011 O
b0 :
b0 F
b0 P
b0 ^
b0 <
b0 D
b0 ]
b10011 0
b10011 L
b0 $
b0 C
b0 +
b0 l
b0 ,
b0 k
b0 )
b0 S
b0 \
b0 n
b0 *
b0 m
b1010 /
b1010 j
b0 (
b0 Z
b0 [
b0 h
b10011 X
b1100000 A
b1100000 c
b10100010011 %
b10100010011 W
b1100000 ?
b1100000 b
b1100000 f
b1011100 @
b1011100 a
b1011100 i
b1011100 B
b1011100 d
b1011100 g
1!
#96000
0!
#98000
b111100 U
b11110000 &
b11110000 `
b11110000 o
b11110000 :
b11110000 F
b11110000 P
b11110000 ^
b11110000 <
b11110000 D
b11110000 ]
b0 ;
b0 J
b0 N
09
0-
b0 O
b1101111 0
b1101111 L
b11110000 )
b11110000 S
b11110000 \
b11110000 n
b1000 *
b1000 m
b0 /
b0 j
b1101111 X
b1100100 A
b1100100 c
b100000000000000001101111 %
b100000000000000001101111 W
b1100100 ?
b1100100 b
b1100100 f
b1100000 @
b1100000 a
b1100000 i
b1100000 B
b1100000 d
b1100000 g
1!
#100000
0!
#102000
b0 U
b1 &
b1 `
b1 o
b11 ;
b11 J
b11 N
19
1-
b1 :
b1 F
b1 P
b1 ^
b11011 O
b1 <
b1 D
b1 ]
b10011 0
b10011 L
b11011000 )
b11011000 S
b11011000 \
b11011000 n
b1 *
b1 m
b1010 /
b1010 j
b1 (
b1 Z
b1 [
b1 h
b10011 X
b1101000 A
b1101000 c
b100000000010100010011 %
b100000000010100010011 W
b1101000 ?
b1101000 b
b1101000 f
b1100101 @
b1100101 a
b1100101 i
b1100100 B
b1100100 d
b1100100 g
1!
#104000
0!
#106000
b0 &
b0 `
b0 o
b0 :
b0 F
b0 P
b0 ^
b0 <
b0 D
b0 ]
b0 )
b0 S
b0 \
b0 n
b0 *
b0 m
b0 /
b0 j
b0 (
b0 Z
b0 [
b0 h
b1101100 A
b1101100 c
b10011 %
b10011 W
b1101100 ?
b1101100 b
b1101100 f
b1101000 @
b1101000 a
b1101000 i
b1101000 B
b1101000 d
b1101000 g
1!
#108000
0!
#110000
b1 =
b1 E
b1 K
18
b1 ;
b1 J
b1 N
0-
b11111100 U
b11111111111111111111111111110001 &
b11111111111111111111111111110001 `
b11111111111111111111111111110001 o
b10001010 O
b11111111111111111111111111110001 :
b11111111111111111111111111110001 F
b11111111111111111111111111110001 P
b11111111111111111111111111110001 ^
b10000 <
b10000 D
b10000 ]
b1100011 0
b1100011 L
b1 $
b1 C
b1 +
b1 l
b1010 ,
b1010 k
b10000 /
b10000 j
b10000 (
b10000 Z
b10000 [
b10000 h
b1100011 X
b1110000 A
b1110000 c
b1010000100001100011 %
b1010000100001100011 W
b1110000 ?
b1110000 b
b1110000 f
b1111100 @
b1111100 a
b1111100 i
b1101100 B
b1101100 d
b1101100 g
1!
#112000
0!
#114000
b0 =
b0 E
b0 K
08
b11 ;
b11 J
b11 N
1-
b0 U
b1 &
b1 `
b1 o
b11011 O
b1 :
b1 F
b1 P
b1 ^
b1 <
b1 D
b1 ]
b10011 0
b10011 L
b0 $
b0 C
b0 +
b0 l
b0 ,
b0 k
b11011000 )
b11011000 S
b11011000 \
b11011000 n
b1 *
b1 m
b1010 /
b1010 j
b1 (
b1 Z
b1 [
b1 h
b10011 X
b1110100 A
b1110100 c
b100000000010100010011 %
b100000000010100010011 W
b1110100 ?
b1110100 b
b1110100 f
b1110001 @
b1110001 a
b1110001 i
b1110000 B
b1110000 d
b1110000 g
1!
#116000
0!
#118000
b0 &
b0 `
b0 o
b0 ;
b0 J
b0 N
09
0-
b0 :
b0 F
b0 P
b0 ^
b0 O
b0 <
b0 D
b0 ]
b1101111 0
b1101111 L
b10 6
b10 H
b0 )
b0 S
b0 \
b0 n
b10100 *
b10100 m
b0 /
b0 j
b0 (
b0 Z
b0 [
b0 h
b1101111 X
b1111000 A
b1111000 c
b101010000000000000001101111 %
b101010000000000000001101111 W
b1111000 ?
b1111000 b
b1111000 f
b1110100 @
b1110100 a
b1110100 i
b1110100 B
b1110100 d
b1110100 g
1!
#120000
0!
#122000
b10000 *
b10000 m
b1111100 A
b1111100 c
b101000000000000000001101111 %
b101000000000000000001101111 W
b1111100 ?
b1111100 b
b1111100 f
b1111000 @
b1111000 a
b1111000 i
b1111000 B
b1111000 d
b1111000 g
1!
#124000
0!
#126000
b11 ;
b11 J
b11 N
19
1-
b111100 U
b11110000 &
b11110000 `
b11110000 o
b11011 O
b11110000 :
b11110000 F
b11110000 P
b11110000 ^
b10011 0
b10011 L
b0 6
b0 H
b11110000 $
b11110000 C
b11110000 +
b11110000 l
b1000 ,
b1000 k
b0 *
b0 m
b1010 /
b1010 j
b10011 X
b10000000 A
b10000000 c
b1000000010100010011 %
b1000000010100010011 W
b10000000 ?
b10000000 b
b10000000 f
b1111100 @
b1111100 a
b1111100 i
b1111100 B
b1111100 d
b1111100 g
1!
#128000
0!
#130000
b111011 U
b11101100 &
b11101100 `
b11101100 o
b11101100 :
b11101100 F
b11101100 P
b11101100 ^
b1000 I
b11111111111111111111111111111100 <
b11111111111111111111111111111100 D
b11111111111111111111111111111100 ]
b1111111 6
b1111111 H
b1010 ,
b1010 k
b11100 *
b11100 m
b11111111111111111111111111111100 (
b11111111111111111111111111111100 Z
b11111111111111111111111111111100 [
b11111111111111111111111111111100 h
b10000100 A
b10000100 c
b11111111110001010000010100010011 %
b11111111110001010000010100010011 W
b10000100 ?
b10000100 b
b10000100 f
b1111100 @
b1111100 a
b1111100 i
b10000000 B
b10000000 d
b10000000 g
1!
#132000
b111010 U
b11101000 &
b11101000 `
b11101000 o
b11101000 :
b11101000 F
b11101000 P
b11101000 ^
b11101100 $
b11101100 C
b11101100 +
b11101100 l
0!
#134000
b10 .
b10 V
b10 _
b111011 U
b10 &
b10 `
b10 o
13
12
b0 ;
b0 J
b0 N
b11101100 :
b11101100 F
b11101100 P
b11101100 ^
b1100011 O
b10 T
b10 4
b10 Q
b0 =
b0 E
b0 K
b0 <
b0 D
b0 ]
b11 0
b11 L
b0 6
b0 H
b10 I
b10 7
b10 G
b0 *
b0 m
b0 (
b0 Z
b0 [
b0 h
b11 X
b10 Y
b10001000 A
b10001000 c
b1010010010100000011 %
b1010010010100000011 W
b10001000 ?
b10001000 b
b10001000 f
b10000100 @
b10000100 a
b10000100 i
b10000100 B
b10000100 d
b10000100 g
1!
#136000
b0 &
b0 `
b0 o
b0 .
b0 V
b0 _
b0 U
b10 :
b10 F
b10 P
b10 ^
b10 $
b10 C
b10 +
b10 l
0!
#138000
b1 &
b1 `
b1 o
03
02
b11 ;
b11 J
b11 N
b11011 O
b0 T
b0 4
b0 Q
b1 :
b1 F
b1 P
b1 ^
b1 <
b1 D
b1 ]
b10011 0
b10011 L
b0 I
b0 7
b0 G
b0 $
b0 C
b0 +
b0 l
b0 ,
b0 k
b11011000 )
b11011000 S
b11011000 \
b11011000 n
b1 *
b1 m
b1011 /
b1011 j
b1 (
b1 Z
b1 [
b1 h
b10011 X
b0 Y
b10001100 A
b10001100 c
b100000000010110010011 %
b100000000010110010011 W
b10001100 ?
b10001100 b
b10001100 f
b10001001 @
b10001001 a
b10001001 i
b10001000 B
b10001000 d
b10001000 g
1!
#140000
0!
#142000
b1 =
b1 E
b1 K
b10 ;
b10 J
b10 N
09
b1 &
b1 `
b1 o
b10001 O
b1000 I
b1 :
b1 F
b1 P
b1 ^
b1 <
b1 D
b1 ]
b110011 0
b110011 L
b100000 6
b100000 H
b10 $
b10 C
b10 +
b10 l
b1010 ,
b1010 k
b1 )
b1 S
b1 \
b1 n
b1011 *
b1011 m
b1010 /
b1010 j
b0 (
b0 Z
b0 [
b0 h
b110011 X
b10010000 A
b10010000 c
b1000000101101010000010100110011 %
b1000000101101010000010100110011 W
b10010000 ?
b10010000 b
b10010000 f
b10001100 @
b10001100 a
b10001100 i
b10001100 B
b10001100 d
b10001100 g
1!
#144000
1>
b0 &
b0 `
b0 o
b0 :
b0 F
b0 P
b0 ^
b1 $
b1 C
b1 +
b1 l
0!
#146000
b0 ;
b0 J
b0 N
0-
0>
b0 O
b11 4
b11 Q
b111 T
1R
b0 =
b0 E
b0 K
b0 <
b0 D
b0 ]
b1101111 0
b1101111 L
b1111011 6
b1111011 H
b1111 I
b111 7
b111 G
b0 $
b0 C
b0 +
b0 l
b11111 ,
b11111 k
b0 )
b0 S
b0 \
b0 n
b10001 *
b10001 m
b1 /
b1 j
b1101111 X
b111 Y
b10010100 A
b10010100 c
b11110111000111111111000011101111 %
b11110111000111111111000011101111 W
b10010100 ?
b10010100 b
b10010100 f
b10010000 @
b10010000 a
b10010000 i
b10010000 B
b10010000 d
b10010000 g
1!
#148000
0!
