comporg_lab1-leejunhee3123-main/sim.vcd
$date
	Wed Apr 12 18:23:13 2023
$end
$version
	Icarus Verilog
$end
$timescale
	10ps
$end
$scope module riscv_tb $end
$var reg 1 ! clk $end
$var reg 1 " rstn $end
$var integer 32 # i [31:0] $end
$scope module my_cpu $end
$var wire 32 $ alu_in1 [31:0] $end
$var wire 1 ! clk $end
$var wire 32 % instruction [31:0] $end
$var wire 1 " rstn $end
$var wire 32 & write_data [31:0] $end
$var wire 1 ' taken $end
$var wire 32 ( sextimm [31:0] $end
$var wire 32 ) rs2_out [31:0] $end
$var wire 5 * rs2 [4:0] $end
$var wire 32 + rs1_out [31:0] $end
$var wire 5 , rs1 [4:0] $end
$var wire 1 - reg_write $end
$var wire 32 . read_data [31:0] $end
$var wire 5 / rd [4:0] $end
$var wire 7 0 opcode [6:0] $end
$var wire 1 1 mem_write $end
$var wire 1 2 mem_to_reg $end
$var wire 1 3 mem_read $end
$var wire 2 4 maskmode [1:0] $end
$var wire 2 5 jump [1:0] $end
$var wire 32 6 jalr_out [31:0] $end
$var wire 7 7 funct7 [6:0] $end
$var wire 3 8 funct3 [2:0] $end
$var wire 32 9 branch_out [31:0] $end
$var wire 1 : branch $end
$var wire 1 ; alu_src $end
$var wire 32 < alu_out [31:0] $end
$var wire 2 = alu_op [1:0] $end
$var wire 32 > alu_in2 [31:0] $end
$var wire 4 ? alu_func [3:0] $end
$var wire 1 @ alu_check $end
$var wire 32 A PC_PLUS_4 [31:0] $end
$var wire 32 B PC_BRANCH [31:0] $end
$var wire 32 C NEXT_PC [31:0] $end
$var reg 32 D PC [31:0] $end
$scope module m_ALU $end
$var wire 32 E in_a [31:0] $end
$var wire 32 F in_b [31:0] $end
$var wire 4 G alu_func [3:0] $end
$var reg 1 @ check $end
$var reg 32 H result [31:0] $end
$upscope $end
$scope module m_ALU_control $end
$var wire 3 I funct3 [2:0] $end
$var wire 7 J funct7 [6:0] $end
$var wire 4 K funct [3:0] $end
$var wire 2 L alu_op [1:0] $end
$var reg 4 M alu_func [3:0] $end
$upscope $end
$scope module m_adder_for_jalr $end
$var wire 32 N in_a [31:0] $end
$var wire 32 O in_b [31:0] $end
$var reg 32 P result [31:0] $end
$upscope $end
$scope module m_branch_control $end
$var wire 1 @ check $end
$var wire 1 : branch $end
$var reg 1 ' taken $end
$upscope $end
$scope module m_control $end
$var wire 7 Q opcode [6:0] $end
$var wire 1 - reg_write $end
$var wire 1 1 mem_write $end
$var wire 1 2 mem_to_reg $end
$var wire 1 3 mem_read $end
$var wire 2 R jump [1:0] $end
$var wire 1 : branch $end
$var wire 1 ; alu_src $end
$var wire 2 S alu_op [1:0] $end
$var reg 10 T controls [9:0] $end
$upscope $end
$scope module m_data_memory $end
$var wire 32 U address [31:0] $end
$var wire 1 ! clk $end
$var wire 2 V maskmode [1:0] $end
$var wire 1 3 mem_read $end
$var wire 1 1 mem_write $end
$var wire 1 W sext $end
$var wire 32 X write_data [31:0] $end
$var wire 4 Y funct3 [3:0] $end
$var wire 8 Z address_internal [7:0] $end
$var reg 32 [ read_data [31:0] $end
$upscope $end
$scope module m_imm_generator $end
$var wire 32 \ instruction [31:0] $end
$var wire 7 ] opcode [6:0] $end
$var wire 3 ^ funct3 [2:0] $end
$var reg 32 _ sextimm [31:0] $end
$upscope $end
$scope module m_mux_2x1 $end
$var wire 32 ` in2 [31:0] $end
$var wire 1 ; select $end
$var wire 32 a in1 [31:0] $end
$var reg 32 b out [31:0] $end
$upscope $end
$scope module m_mux_2x1_2 $end
$var wire 32 c in1 [31:0] $end
$var wire 32 d in2 [31:0] $end
$var wire 1 2 select $end
$var reg 32 e out [31:0] $end
$upscope $end
$scope module m_mux_2x1_branch $end
$var wire 1 ' select $end
$var wire 32 f in2 [31:0] $end
$var wire 32 g in1 [31:0] $end
$var reg 32 h out [31:0] $end
$upscope $end
$scope module m_mux_4x1 $end
$var wire 32 i in1 [31:0] $end
$var wire 32 j in2 [31:0] $end
$var wire 32 k in4 [31:0] $end
$var wire 2 l select [1:0] $end
$var wire 32 m in3 [31:0] $end
$var reg 32 n out [31:0] $end
$upscope $end
$scope module m_next_pc_adder $end
$var wire 32 o in_a [31:0] $end
$var wire 32 p in_b [31:0] $end
$var reg 32 q result [31:0] $end
$upscope $end
$scope module m_pc_branch_adder $end
$var wire 32 r in_a [31:0] $end
$var wire 32 s in_b [31:0] $end
$var reg 32 t result [31:0] $end
$upscope $end
$scope module m_register_file $end
$var wire 1 ! clk $end
$var wire 5 u rd [4:0] $end
$var wire 1 - reg_write $end
$var wire 5 v rs1 [4:0] $end
$var wire 32 w rs1_out [31:0] $end
$var wire 5 x rs2 [4:0] $end
$var wire 32 y rs2_out [31:0] $end
$var wire 32 z write_data [31:0] $end
$upscope $end
$upscope $end
$upscope $end
$enddefinitions $end
#0
$dumpvars
b0 z
bx y
bx x
bx w
bx v
bx u
bx t
bx s
bx r
bx q
b100 p
bx o
bx n
bx m
bx l
bx k
bx j
bx i
bx h
bx g
bx f
b0 e
b0 d
bx c
bx b
bx a
bx `
bx _
bx ^
bx ]
bx \
b0 [
bx Z
b0xxx Y
bx X
xW
bx V
bx U
bx T
bx S
bx R
bx Q
bx P
bx O
b100 N
bx M
bx L
bx K
bx J
bx I
bx H
bx G
bx F
bx E
bx D
bx C
bx B
bx A
x@
bx ?
bx >
bx =
bx <
x;
x:
bx 9
bx 8
bx 7
bx 6
bx 5
bx 4
x3
x2
x1
bx 0
bx /
b0 .
x-
bx ,
bx +
bx *
bx )
bx (
x'
b0 &
bx %
bx $
b1000000 #
0"
0!
$end
#2000
b11100000 &
b11100000 e
b11100000 z
0'
b0 5
b0 R
b0 l
0:
03
02
b11 =
b11 L
b11 S
01
1;
1-
0@
b111000 Z
b11011 T
b0 4
b0 V
b0 Y
0W
b0 ?
b0 G
b0 M
b11100000 <
b11100000 H
b11100000 U
b11100000 c
b100000100 6
b100000100 P
b100000100 k
b11111111111111111111111111100000 >
b11111111111111111111111111100000 F
b11111111111111111111111111100000 b
b11111111111111111111111111100000 B
b11111111111111111111111111100000 f
b11111111111111111111111111100000 m
b11111111111111111111111111100000 t
b100 C
b100 n
b10011 0
b10011 Q
b1111111 7
b1111111 J
b1000 K
b0 8
b0 I
b100000000 $
b100000000 E
b100000000 +
b100000000 O
b100000000 w
b10 ,
b10 v
b0 )
b0 X
b0 a
b0 y
b0 *
b0 x
b10 /
b10 u
b11111111111111111111111111100000 (
b11111111111111111111111111100000 _
b11111111111111111111111111100000 `
b11111111111111111111111111100000 s
b10011 ]
b0 ^
b100 9
b100 h
b100 i
b100 j
b11111110000000010000000100010011 %
b11111110000000010000000100010011 \
b100 A
b100 g
b100 q
b0 D
b0 o
b0 r
1!
#4000
b110000 Z
b11000000 &
b11000000 e
b11000000 z
b11000000 <
b11000000 H
b11000000 U
b11000000 c
b11100100 6
b11100100 P
b11100100 k
b11100000 $
b11100000 E
b11100000 +
b11100000 O
b11100000 w
0!
#6000
b111111 Z
b0 &
b0 e
b0 z
12
b0 =
b0 L
b0 S
11
0-
b11111100 <
b11111100 H
b11111100 U
b11111100 c
b100110 T
b10 Y
b10 4
b10 V
b0 ?
b0 G
b0 M
b11100 >
b11100 F
b11100 b
b1000 C
b1000 n
b100011 0
b100011 Q
b0 7
b0 J
b10 K
b10 8
b10 I
b1000 *
b1000 x
b11100 /
b11100 u
b11100 (
b11100 _
b11100 `
b11100 s
b100011 ]
b10 ^
b1000 9
b1000 h
b1000 i
b1000 j
b100000010010111000100011 %
b100000010010111000100011 \
b1000 A
b1000 g
b1000 q
b100000 B
b100000 f
b100000 m
b100000 t
b100 D
b100 o
b100 r
1!
1"
#8000
0!
#10000
b111110 Z
b11111000 <
b11111000 H
b11111000 U
b11111000 c
b11000 >
b11000 F
b11000 b
b1100 C
b1100 n
b11011000 )
b11011000 X
b11011000 a
b11011000 y
b1 *
b1 x
b11000 /
b11000 u
b11000 (
b11000 _
b11000 `
b11000 s
b1100 9
b1100 h
b1100 i
b1100 j
b100010010110000100011 %
b100010010110000100011 \
b1100 A
b1100 g
b1100 q
b100000 B
b100000 f
b100000 m
b100000 t
b1000 D
b1000 o
b1000 r
1!
#12000
0!
#14000
b111100 Z
b11110000 &
b11110000 e
b11110000 z
02
b11 =
b11 L
b11 S
01
1-
b11110000 <
b11110000 H
b11110000 U
b11110000 c
b11011 T
b0 Y
b0 4
b0 V
b10000 >
b10000 F
b10000 b
b10000 C
b10000 n
b10011 0
b10011 Q
b0 K
b0 8
b0 I
b0 )
b0 X
b0 a
b0 y
b10000 *
b10000 x
b1000 /
b1000 u
b10000 (
b10000 _
b10000 `
b10000 s
b10011 ]
b0 ^
b10000 9
b10000 h
b10000 i
b10000 j
b1000000010000010000010011 %
b1000000010000010000010011 \
b10000 A
b10000 g
b10000 q
b11100 B
b11100 f
b11100 m
b11100 t
b1100 D
b1100 o
b1100 r
1!
#16000
0!
#18000
12
b0 =
b0 L
b0 S
11
0-
b111011 Z
b0 &
b0 e
b0 z
b100110 T
b10 Y
b10 4
b10 V
b0 ?
b0 G
b0 M
b11101100 <
b11101100 H
b11101100 U
b11101100 c
b11110100 6
b11110100 P
b11110100 k
b11111111111111111111111111111100 >
b11111111111111111111111111111100 F
b11111111111111111111111111111100 b
b10100 C
b10100 n
b100011 0
b100011 Q
b1111111 7
b1111111 J
b1010 K
b10 8
b10 I
b11110000 $
b11110000 E
b11110000 +
b11110000 O
b11110000 w
b1000 ,
b1000 v
b10 )
b10 X
b10 a
b10 y
b1010 *
b1010 x
b11100 /
b11100 u
b11111111111111111111111111111100 (
b11111111111111111111111111111100 _
b11111111111111111111111111111100 `
b11111111111111111111111111111100 s
b100011 ]
b10 ^
b10100 9
b10100 h
b10100 i
b10100 j
b11111110101001000010111000100011 %
b11111110101001000010111000100011 \
b10100 A
b10100 g
b10100 q
b1100 B
b1100 f
b1100 m
b1100 t
b10000 D
b10000 o
b10000 r
1!
#20000
0!
#22000
b111100 Z
b11110000 &
b11110000 e
b11110000 z
02
b11 =
b11 L
b11 S
01
1-
b11110000 <
b11110000 H
b11110000 U
b11110000 c
b11011 T
b0 Y
b0 4
b0 V
b0 >
b0 F
b0 b
b11000 C
b11000 n
b10011 0
b10011 Q
b0 7
b0 J
b0 K
b0 8
b0 I
b0 )
b0 X
b0 a
b0 y
b0 *
b0 x
b1010 /
b1010 u
b0 (
b0 _
b0 `
b0 s
b10011 ]
b0 ^
b11000 9
b11000 h
b11000 i
b11000 j
b1000000010100010011 %
b1000000010100010011 \
b11000 A
b11000 g
b11000 q
b10100 B
b10100 f
b10100 m
b10100 t
b10100 D
b10100 o
b10100 r
1!
#24000
0!
#26000
b111011 Z
b11101100 &
b11101100 e
b11101100 z
b11101100 <
b11101100 H
b11101100 U
b11101100 c
b1000 K
b11111111111111111111111111111100 >
b11111111111111111111111111111100 F
b11111111111111111111111111111100 b
b11100 C
b11100 n
b1111111 7
b1111111 J
b1010 ,
b1010 v
b11100 *
b11100 x
b11111111111111111111111111111100 (
b11111111111111111111111111111100 _
b11111111111111111111111111111100 `
b11111111111111111111111111111100 s
b11100 9
b11100 h
b11100 i
b11100 j
b11111111110001010000010100010011 %
b11111111110001010000010100010011 \
b11100 A
b11100 g
b11100 q
b10100 B
b10100 f
b10100 m
b10100 t
b11000 D
b11000 o
b11000 r
1!
#28000
b111010 Z
b11101000 &
b11101000 e
b11101000 z
b11101000 <
b11101000 H
b11101000 U
b11101000 c
b11110000 6
b11110000 P
b11110000 k
b11101100 $
b11101100 E
b11101100 +
b11101100 O
b11101100 w
0!
#30000
b10 .
b10 [
b10 d
b111011 Z
b10 &
b10 e
b10 z
13
12
b0 =
b0 L
b0 S
b11101100 <
b11101100 H
b11101100 U
b11101100 c
b1100011 T
b10 Y
b10 4
b10 V
b0 ?
b0 G
b0 M
b0 >
b0 F
b0 b
b100000 C
b100000 n
b11 0
b11 Q
b0 7
b0 J
b10 K
b10 8
b10 I
b0 *
b0 x
b0 (
b0 _
b0 `
b0 s
b11 ]
b10 ^
b100000 9
b100000 h
b100000 i
b100000 j
b1010010010100000011 %
b1010010010100000011 \
b100000 A
b100000 g
b100000 q
b11100 B
b11100 f
b11100 m
b11100 t
b11100 D
b11100 o
b11100 r
1!
#32000
b0 &
b0 e
b0 z
b0 .
b0 [
b0 d
b0 Z
b10 <
b10 H
b10 U
b10 c
b110 6
b110 P
b110 k
b10 $
b10 E
b10 +
b10 O
b10 w
0!
#34000
03
02
b11 =
b11 L
b11 S
b11011 T
b0 Y
b0 4
b0 V
b0 <
b0 H
b0 U
b0 c
b100 6
b100 P
b100 k
b100100 C
b100100 n
b10011 0
b10011 Q
b0 K
b0 8
b0 I
b0 $
b0 E
b0 +
b0 O
b0 w
b0 ,
b0 v
b1011 /
b1011 u
b10011 ]
b0 ^
b100100 9
b100100 h
b100100 i
b100100 j
b10110010011 %
b10110010011 \
b100100 A
b100100 g
b100100 q
b100000 B
b100000 f
b100000 m
b100000 t
b100000 D
b100000 o
b100000 r
1!
#36000
0!
#38000
b1 ?
b1 G
b1 M
1:
b1 =
b1 L
b1 S
0;
0-
b0 Z
b10 &
b10 e
b10 z
b10001000 T
b10 <
b10 H
b10 U
b10 c
b110 6
b110 P
b110 k
b0 >
b0 F
b0 b
b101000 C
b101000 n
b1100011 0
b1100011 Q
b10 $
b10 E
b10 +
b10 O
b10 w
b1010 ,
b1010 v
b1011 *
b1011 x
b1100 /
b1100 u
b1100 (
b1100 _
b1100 `
b1100 s
b1100011 ]
b101000 9
b101000 h
b101000 i
b101000 j
b101101010000011001100011 %
b101101010000011001100011 \
b101000 A
b101000 g
b101000 q
b110000 B
b110000 f
b110000 m
b110000 t
b100100 D
b100100 o
b100100 r
1!
#40000
0!
#42000
b0 ?
b0 G
b0 M
0:
b11 =
b11 L
b11 S
1;
1-
0@
b0 &
b0 e
b0 z
b11011 T
b0 <
b0 H
b0 U
b0 c
b100 6
b100 P
b100 k
b101100 C
b101100 n
b10011 0
b10011 Q
b0 $
b0 E
b0 +
b0 O
b0 w
b0 ,
b0 v
b0 *
b0 x
b1010 /
b1010 u
b0 (
b0 _
b0 `
b0 s
b10011 ]
b101100 9
b101100 h
b101100 i
b101100 j
b10100010011 %
b10100010011 \
b101100 A
b101100 g
b101100 q
b101000 B
b101000 f
b101000 m
b101000 t
b101000 D
b101000 o
b101000 r
1!
#44000
0!
#46000
b111100 Z
b11110000 &
b11110000 e
b11110000 z
b10 5
b10 R
b10 l
b0 =
b0 L
b0 S
0;
b11110000 <
b11110000 H
b11110000 U
b11110000 c
b1000000001 T
b11110000 >
b11110000 F
b11110000 b
b110100 C
b110100 n
b1101111 0
b1101111 Q
b11110000 )
b11110000 X
b11110000 a
b11110000 y
b1000 *
b1000 x
b0 /
b0 u
b1000 (
b1000 _
b1000 `
b1000 s
b1101111 ]
b110000 9
b110000 h
b110000 i
b110000 j
b100000000000000001101111 %
b100000000000000001101111 \
b110000 A
b110000 g
b110000 q
b110100 B
b110100 f
b110100 m
b110100 t
b101100 D
b101100 o
b101100 r
1!
#48000
b0 $
b0 E
b0 +
b0 O
b0 w
0!
#50000
b0 Z
b0 &
b0 e
b0 z
b0 5
b0 R
b0 l
b11 =
b11 L
b11 S
1;
b0 <
b0 H
b0 U
b0 c
b11011 T
b0 >
b0 F
b0 b
b10011 0
b10011 Q
b0 )
b0 X
b0 a
b0 y
b0 *
b0 x
b0 (
b0 _
b0 `
b0 s
b10011 ]
b111000 9
b111000 h
b111000 i
b111000 j
b111000 C
b111000 n
b10011 %
b10011 \
b111000 A
b111000 g
b111000 q
b110100 B
b110100 f
b110100 m
b110100 t
b110100 D
b110100 o
b110100 r
1!
#52000
0!
#54000
1'
1@
b1 ?
b1 G
b1 M
b0 Z
b0 &
b0 e
b0 z
1:
b1 =
b1 L
b1 S
0;
0-
b0 <
b0 H
b0 U
b0 c
b10001000 T
b0 >
b0 F
b0 b
b1001000 C
b1001000 n
b1100011 0
b1100011 Q
b1010 ,
b1010 v
b10000 /
b10000 u
b10000 (
b10000 _
b10000 `
b10000 s
b1100011 ]
b1001000 9
b1001000 h
b1001000 i
b1001000 j
b1010000100001100011 %
b1010000100001100011 \
b111100 A
b111100 g
b111100 q
b1001000 B
b1001000 f
b1001000 m
b1001000 t
b111000 D
b111000 o
b111000 r
1!
#56000
0!
#58000
b0 ?
b0 G
b0 M
0'
0:
b11 =
b11 L
b11 S
1;
1-
0@
b111100 Z
b11110000 &
b11110000 e
b11110000 z
b11011 T
b11110000 <
b11110000 H
b11110000 U
b11110000 c
b11110100 6
b11110100 P
b11110100 k
b1001100 C
b1001100 n
b10011 0
b10011 Q
b11110000 $
b11110000 E
b11110000 +
b11110000 O
b11110000 w
b1000 ,
b1000 v
b1010 /
b1010 u
b0 (
b0 _
b0 `
b0 s
b10011 ]
b1001100 9
b1001100 h
b1001100 i
b1001100 j
b1000000010100010011 %
b1000000010100010011 \
b1001100 A
b1001100 g
b1001100 q
b1001000 B
b1001000 f
b1001000 m
b1001000 t
b1001000 D
b1001000 o
b1001000 r
1!
#60000
0!
#62000
b111011 Z
b11101100 &
b11101100 e
b11101100 z
b11101100 <
b11101100 H
b11101100 U
b11101100 c
b1000 K
b11111111111111111111111111111100 >
b11111111111111111111111111111100 F
b11111111111111111111111111111100 b
b1010000 C
b1010000 n
b1111111 7
b1111111 J
b1010 ,
b1010 v
b11100 *
b11100 x
b11111111111111111111111111111100 (
b11111111111111111111111111111100 _
b11111111111111111111111111111100 `
b11111111111111111111111111111100 s
b1010000 9
b1010000 h
b1010000 i
b1010000 j
b11111111110001010000010100010011 %
b11111111110001010000010100010011 \
b1010000 A
b1010000 g
b1010000 q
b1001000 B
b1001000 f
b1001000 m
b1001000 t
b1001100 D
b1001100 o
b1001100 r
1!
#64000
b111010 Z
b11101000 &
b11101000 e
b11101000 z
b11101000 <
b11101000 H
b11101000 U
b11101000 c
b11110000 6
b11110000 P
b11110000 k
b11101100 $
b11101100 E
b11101100 +
b11101100 O
b11101100 w
0!
#66000
b10 .
b10 [
b10 d
b111011 Z
b10 &
b10 e
b10 z
13
12
b0 =
b0 L
b0 S
b11101100 <
b11101100 H
b11101100 U
b11101100 c
b1100011 T
b10 Y
b10 4
b10 V
b0 ?
b0 G
b0 M
b0 >
b0 F
b0 b
b1010100 C
b1010100 n
b11 0
b11 Q
b0 7
b0 J
b10 K
b10 8
b10 I
b0 *
b0 x
b0 (
b0 _
b0 `
b0 s
b11 ]
b10 ^
b1010100 9
b1010100 h
b1010100 i
b1010100 j
b1010010010100000011 %
b1010010010100000011 \
b1010100 A
b1010100 g
b1010100 q
b1010000 B
b1010000 f
b1010000 m
b1010000 t
b1010000 D
b1010000 o
b1010000 r
1!
#68000
b0 &
b0 e
b0 z
b0 .
b0 [
b0 d
b0 Z
b10 <
b10 H
b10 U
b10 c
b110 6
b110 P
b110 k
b10 $
b10 E
b10 +
b10 O
b10 w
0!
#70000
b1 &
b1 e
b1 z
03
02
b11 =
b11 L
b11 S
b11011 T
b0 Y
b0 4
b0 V
b1 <
b1 H
b1 U
b1 c
b100 6
b100 P
b100 k
b1 >
b1 F
b1 b
b1011000 C
b1011000 n
b10011 0
b10011 Q
b0 K
b0 8
b0 I
b0 $
b0 E
b0 +
b0 O
b0 w
b0 ,
b0 v
b11011000 )
b11011000 X
b11011000 a
b11011000 y
b1 *
b1 x
b1011 /
b1011 u
b1 (
b1 _
b1 `
b1 s
b10011 ]
b0 ^
b1011000 9
b1011000 h
b1011000 i
b1011000 j
b100000000010110010011 %
b100000000010110010011 \
b1011000 A
b1011000 g
b1011000 q
b1010101 B
b1010101 f
b1010101 m
b1010101 t
b1010100 D
b1010100 o
b1010100 r
1!
#72000
0!
#74000
b1 ?
b1 G
b1 M
1:
b1 =
b1 L
b1 S
0;
0-
b0 Z
b1 &
b1 e
b1 z
b10001000 T
b1 <
b1 H
b1 U
b1 c
b110 6
b110 P
b110 k
b1 >
b1 F
b1 b
b1011100 C
b1011100 n
b1100011 0
b1100011 Q
b10 $
b10 E
b10 +
b10 O
b10 w
b1010 ,
b1010 v
b1 )
b1 X
b1 a
b1 y
b1011 *
b1011 x
b1100 /
b1100 u
b1100 (
b1100 _
b1100 `
b1100 s
b1100011 ]
b1011100 9
b1011100 h
b1011100 i
b1011100 j
b101101010000011001100011 %
b101101010000011001100011 \
b1011100 A
b1011100 g
b1011100 q
b1100100 B
b1100100 f
b1100100 m
b1100100 t
b1011000 D
b1011000 o
b1011000 r
1!
#76000
0!
#78000
b0 ?
b0 G
b0 M
0:
b11 =
b11 L
b11 S
1;
1-
0@
b0 &
b0 e
b0 z
b11011 T
b0 <
b0 H
b0 U
b0 c
b100 6
b100 P
b100 k
b0 >
b0 F
b0 b
b1100000 C
b1100000 n
b10011 0
b10011 Q
b0 $
b0 E
b0 +
b0 O
b0 w
b0 ,
b0 v
b0 )
b0 X
b0 a
b0 y
b0 *
b0 x
b1010 /
b1010 u
b0 (
b0 _
b0 `
b0 s
b10011 ]
b1100000 9
b1100000 h
b1100000 i
b1100000 j
b10100010011 %
b10100010011 \
b1100000 A
b1100000 g
b1100000 q
b1011100 B
b1011100 f
b1011100 m
b1011100 t
b1011100 D
b1011100 o
b1011100 r
1!
#80000
0!
#82000
b111100 Z
b11110000 &
b11110000 e
b11110000 z
b10 5
b10 R
b10 l
b0 =
b0 L
b0 S
0;
b11110000 <
b11110000 H
b11110000 U
b11110000 c
b1000000001 T
b11110000 >
b11110000 F
b11110000 b
b1101000 C
b1101000 n
b1101111 0
b1101111 Q
b11110000 )
b11110000 X
b11110000 a
b11110000 y
b1000 *
b1000 x
b0 /
b0 u
b1000 (
b1000 _
b1000 `
b1000 s
b1101111 ]
b1100100 9
b1100100 h
b1100100 i
b1100100 j
b100000000000000001101111 %
b100000000000000001101111 \
b1100100 A
b1100100 g
b1100100 q
b1101000 B
b1101000 f
b1101000 m
b1101000 t
b1100000 D
b1100000 o
b1100000 r
1!
#84000
b0 $
b0 E
b0 +
b0 O
b0 w
0!
#86000
b0 Z
b0 &
b0 e
b0 z
b0 5
b0 R
b0 l
b11 =
b11 L
b11 S
1;
b0 <
b0 H
b0 U
b0 c
b11011 T
b0 >
b0 F
b0 b
b10011 0
b10011 Q
b0 )
b0 X
b0 a
b0 y
b0 *
b0 x
b0 (
b0 _
b0 `
b0 s
b10011 ]
b1101100 9
b1101100 h
b1101100 i
b1101100 j
b1101100 C
b1101100 n
b10011 %
b10011 \
b1101100 A
b1101100 g
b1101100 q
b1101000 B
b1101000 f
b1101000 m
b1101000 t
b1101000 D
b1101000 o
b1101000 r
1!
#88000
0!
#90000
1'
1@
b1 ?
b1 G
b1 M
b0 Z
b0 &
b0 e
b0 z
1:
b1 =
b1 L
b1 S
0;
0-
b0 <
b0 H
b0 U
b0 c
b10001000 T
b0 >
b0 F
b0 b
b1111100 C
b1111100 n
b1100011 0
b1100011 Q
b1010 ,
b1010 v
b10000 /
b10000 u
b10000 (
b10000 _
b10000 `
b10000 s
b1100011 ]
b1111100 9
b1111100 h
b1111100 i
b1111100 j
b1010000100001100011 %
b1010000100001100011 \
b1110000 A
b1110000 g
b1110000 q
b1111100 B
b1111100 f
b1111100 m
b1111100 t
b1101100 D
b1101100 o
b1101100 r
1!
#92000
0!
#94000
b0 ?
b0 G
b0 M
0'
0:
b11 =
b11 L
b11 S
1;
1-
0@
b111100 Z
b11110000 &
b11110000 e
b11110000 z
b11011 T
b11110000 <
b11110000 H
b11110000 U
b11110000 c
b11110100 6
b11110100 P
b11110100 k
b10000000 C
b10000000 n
b10011 0
b10011 Q
b11110000 $
b11110000 E
b11110000 +
b11110000 O
b11110000 w
b1000 ,
b1000 v
b1010 /
b1010 u
b0 (
b0 _
b0 `
b0 s
b10011 ]
b10000000 9
b10000000 h
b10000000 i
b10000000 j
b1000000010100010011 %
b1000000010100010011 \
b10000000 A
b10000000 g
b10000000 q
b1111100 B
b1111100 f
b1111100 m
b1111100 t
b1111100 D
b1111100 o
b1111100 r
1!
#96000
0!
#98000
b111011 Z
b11101100 &
b11101100 e
b11101100 z
b11101100 <
b11101100 H
b11101100 U
b11101100 c
b1000 K
b11111111111111111111111111111100 >
b11111111111111111111111111111100 F
b11111111111111111111111111111100 b
b10000100 C
b10000100 n
b1111111 7
b1111111 J
b1010 ,
b1010 v
b11100 *
b11100 x
b11111111111111111111111111111100 (
b11111111111111111111111111111100 _
b11111111111111111111111111111100 `
b11111111111111111111111111111100 s
b10000100 9
b10000100 h
b10000100 i
b10000100 j
b11111111110001010000010100010011 %
b11111111110001010000010100010011 \
b10000100 A
b10000100 g
b10000100 q
b1111100 B
b1111100 f
b1111100 m
b1111100 t
b10000000 D
b10000000 o
b10000000 r
1!
#100000
b111010 Z
b11101000 &
b11101000 e
b11101000 z
b11101000 <
b11101000 H
b11101000 U
b11101000 c
b11110000 6
b11110000 P
b11110000 k
b11101100 $
b11101100 E
b11101100 +
b11101100 O
b11101100 w
0!
#102000
b10 .
b10 [
b10 d
b111011 Z
b10 &
b10 e
b10 z
13
12
b0 =
b0 L
b0 S
b11101100 <
b11101100 H
b11101100 U
b11101100 c
b1100011 T
b10 Y
b10 4
b10 V
b0 ?
b0 G
b0 M
b0 >
b0 F
b0 b
b10001000 C
b10001000 n
b11 0
b11 Q
b0 7
b0 J
b10 K
b10 8
b10 I
b0 *
b0 x
b0 (
b0 _
b0 `
b0 s
b11 ]
b10 ^
b10001000 9
b10001000 h
b10001000 i
b10001000 j
b1010010010100000011 %
b1010010010100000011 \
b10001000 A
b10001000 g
b10001000 q
b10000100 B
b10000100 f
b10000100 m
b10000100 t
b10000100 D
b10000100 o
b10000100 r
1!
#104000
b0 &
b0 e
b0 z
b0 .
b0 [
b0 d
b0 Z
b10 <
b10 H
b10 U
b10 c
b110 6
b110 P
b110 k
b10 $
b10 E
b10 +
b10 O
b10 w
0!
#106000
b1 &
b1 e
b1 z
03
02
b11 =
b11 L
b11 S
b11011 T
b0 Y
b0 4
b0 V
b1 <
b1 H
b1 U
b1 c
b100 6
b100 P
b100 k
b1 >
b1 F
b1 b
b10001100 C
b10001100 n
b10011 0
b10011 Q
b0 K
b0 8
b0 I
b0 $
b0 E
b0 +
b0 O
b0 w
b0 ,
b0 v
b11011000 )
b11011000 X
b11011000 a
b11011000 y
b1 *
b1 x
b1011 /
b1011 u
b1 (
b1 _
b1 `
b1 s
b10011 ]
b0 ^
b10001100 9
b10001100 h
b10001100 i
b10001100 j
b100000000010110010011 %
b100000000010110010011 \
b10001100 A
b10001100 g
b10001100 q
b10001001 B
b10001001 f
b10001001 m
b10001001 t
b10001000 D
b10001000 o
b10001000 r
1!
#108000
0!
#110000
b1 ?
b1 G
b1 M
b10 =
b10 L
b10 S
0;
b1 &
b1 e
b1 z
b10001 T
b1000 K
b1 <
b1 H
b1 U
b1 c
b110 6
b110 P
b110 k
b1 >
b1 F
b1 b
b10010000 C
b10010000 n
b110011 0
b110011 Q
b100000 7
b100000 J
b10 $
b10 E
b10 +
b10 O
b10 w
b1010 ,
b1010 v
b1 )
b1 X
b1 a
b1 y
b1011 *
b1011 x
b1010 /
b1010 u
b0 (
b0 _
b0 `
b0 s
b110011 ]
b10010000 9
b10010000 h
b10010000 i
b10010000 j
b1000000101101010000010100110011 %
b1000000101101010000010100110011 \
b10010000 A
b10010000 g
b10010000 q
b10001100 B
b10001100 f
b10001100 m
b10001100 t
b10001100 D
b10001100 o
b10001100 r
1!
#112000
1@
b0 &
b0 e
b0 z
b0 <
b0 H
b0 U
b0 c
b101 6
b101 P
b101 k
b1 $
b1 E
b1 +
b1 O
b1 w
0!
#114000
b10 5
b10 R
b10 l
b0 =
b0 L
b0 S
0@
b1000000001 T
b11 4
b11 V
b111 Y
1W
b0 ?
b0 G
b0 M
b100 6
b100 P
b100 k
b0 >
b0 F
b0 b
b0 C
b0 n
b1101111 0
b1101111 Q
b1111011 7
b1111011 J
b1111 K
b111 8
b111 I
b0 $
b0 E
b0 +
b0 O
b0 w
b11111 ,
b11111 v
b0 )
b0 X
b0 a
b0 y
b10001 *
b10001 x
b1 /
b1 u
b11111111111111111111111101110000 (
b11111111111111111111111101110000 _
b11111111111111111111111101110000 `
b11111111111111111111111101110000 s
b1101111 ]
b111 ^
b10010100 9
b10010100 h
b10010100 i
b10010100 j
b11110111000111111111000011101111 %
b11110111000111111111000011101111 \
b10010100 A
b10010100 g
b10010100 q
b0 B
b0 f
b0 m
b0 t
b10010000 D
b10010000 o
b10010000 r
1!
#116000
0!
#118000
b11111111111111111111111111100000 >
b11111111111111111111111111100000 F
b11111111111111111111111111100000 b
b0 5
b0 R
b0 l
b11 =
b11 L
b11 S
1;
b110000 Z
b11000000 &
b11000000 e
b11000000 z
b11011 T
b0 4
b0 V
b0 Y
0W
b11000000 <
b11000000 H
b11000000 U
b11000000 c
b11100100 6
b11100100 P
b11100100 k
b10011 0
b10011 Q
b1111111 7
b1111111 J
b1000 K
b0 8
b0 I
b11100000 $
b11100000 E
b11100000 +
b11100000 O
b11100000 w
b10 ,
b10 v
b0 *
b0 x
b10 /
b10 u
b11111111111111111111111111100000 (
b11111111111111111111111111100000 _
b11111111111111111111111111100000 `
b11111111111111111111111111100000 s
b10011 ]
b0 ^
b100 9
b100 h
b100 i
b100 j
b100 C
b100 n
b11111110000000010000000100010011 %
b11111110000000010000000100010011 \
b100 A
b100 g
b100 q
b11111111111111111111111111100000 B
b11111111111111111111111111100000 f
b11111111111111111111111111100000 m
b11111111111111111111111111100000 t
b0 D
b0 o
b0 r
1!
