comporg_lab1-leejunhee3123-main/sim.vcd
$date
	Sun Apr  9 10:44:12 2023
$end
$version
	Icarus Verilog
$end
$timescale
	10ps
$end
$scope module riscv_tb $end
$var reg 1 ! clk $end
$var reg 1 " rstn $end
$var integer 32 # i [31:0] $end
$scope module my_cpu $end
$var wire 32 $ NEXT_PC [31:0] $end
$var wire 32 % alu_in1 [31:0] $end
$var wire 32 & alu_in2 [31:0] $end
$var wire 1 ! clk $end
$var wire 32 ' instruction [31:0] $end
$var wire 1 " rstn $end
$var wire 32 ( write_data [31:0] $end
$var wire 1 ) taken $end
$var wire 32 * rs2_out [31:0] $end
$var wire 5 + rs2 [4:0] $end
$var wire 32 , rs1_out [31:0] $end
$var wire 5 - rs1 [4:0] $end
$var wire 1 . reg_write $end
$var wire 32 / read_data [31:0] $end
$var wire 5 0 rd [4:0] $end
$var wire 7 1 opcode [6:0] $end
$var wire 1 2 mem_write $end
$var wire 1 3 mem_to_reg $end
$var wire 1 4 mem_read $end
$var wire 2 5 jump [1:0] $end
$var wire 7 6 funct7 [6:0] $end
$var wire 3 7 funct3 [2:0] $end
$var wire 1 8 branch $end
$var wire 1 9 alu_src $end
$var wire 32 : alu_out [31:0] $end
$var wire 2 ; alu_op [1:0] $end
$var wire 4 < alu_func [3:0] $end
$var wire 1 = alu_check $end
$var wire 32 > PC_PLUS_4 [31:0] $end
$var reg 32 ? PC [31:0] $end
$scope module m_ALU $end
$var wire 32 @ in_a [31:0] $end
$var wire 32 A in_b [31:0] $end
$var wire 4 B alu_func [3:0] $end
$var reg 1 = check $end
$var reg 32 C result [31:0] $end
$upscope $end
$scope module m_ALU_control $end
$var wire 3 D funct3 [2:0] $end
$var wire 7 E funct7 [6:0] $end
$var wire 4 F funct [3:0] $end
$var wire 2 G alu_op [1:0] $end
$var reg 4 H alu_func [3:0] $end
$upscope $end
$scope module m_branch_control $end
$var wire 1 = check $end
$var wire 1 8 branch $end
$var reg 1 ) taken $end
$upscope $end
$scope module m_control $end
$var wire 7 I opcode [6:0] $end
$var wire 1 . reg_write $end
$var wire 1 2 mem_write $end
$var wire 1 3 mem_to_reg $end
$var wire 1 4 mem_read $end
$var wire 2 J jump [1:0] $end
$var wire 1 8 branch $end
$var wire 1 9 alu_src $end
$var wire 2 K alu_op [1:0] $end
$var reg 10 L controls [9:0] $end
$upscope $end
$scope module m_data_memory $end
$var wire 32 M address [31:0] $end
$var wire 1 ! clk $end
$var wire 2 N maskmode [1:0] $end
$var wire 1 4 mem_read $end
$var wire 1 2 mem_write $end
$var wire 1 O sext $end
$var wire 32 P write_data [31:0] $end
$var wire 8 Q address_internal [7:0] $end
$var reg 32 R read_data [31:0] $end
$upscope $end
$scope module m_next_pc_adder $end
$var wire 32 S in_a [31:0] $end
$var wire 32 T in_b [31:0] $end
$var reg 32 U result [31:0] $end
$upscope $end
$scope module m_register_file $end
$var wire 1 ! clk $end
$var wire 5 V rd [4:0] $end
$var wire 1 . reg_write $end
$var wire 5 W rs1 [4:0] $end
$var wire 32 X rs1_out [31:0] $end
$var wire 5 Y rs2 [4:0] $end
$var wire 32 Z rs2_out [31:0] $end
$var wire 32 [ write_data [31:0] $end
$upscope $end
$upscope $end
$upscope $end
$enddefinitions $end
#0
$dumpvars
bx [
bx Z
bx Y
bx X
bx W
bx V
bx U
b100 T
bx S
bx R
b0 Q
b0 P
0O
b0 N
b0 M
bx L
bx K
bx J
bx I
bx H
bx G
bx F
bx E
bx D
bx C
bx B
bx A
bx @
bx ?
bx >
x=
bx <
bx ;
bx :
x9
x8
bx 7
bx 6
bx 5
x4
x3
x2
bx 1
bx 0
bx /
x.
bx -
bx ,
bx +
bx *
x)
bx (
bx '
bx &
bx %
bx $
b1000000 #
0"
0!
$end
#2000
b0 /
b0 R
b0 5
b0 J
08
04
03
b0 ;
b0 G
b0 K
02
09
0.
0=
b0 L
b0 <
b0 B
b0 H
b100000000 (
b100000000 [
b100000000 :
b100000000 C
b10011 1
b10011 I
b1111111 6
b1111111 E
b1000 F
b0 7
b0 D
b100000000 %
b100000000 @
b100000000 ,
b100000000 X
b10 -
b10 W
b0 &
b0 A
b0 *
b0 Z
b0 +
b0 Y
b10 0
b10 V
b11111110000000010000000100010011 '
b100 $
b100 >
b100 U
b0 ?
b0 S
1!
#4000
0!
#6000
b100011 1
b100011 I
b0 6
b0 E
b10 F
b10 7
b10 D
b1000 +
b1000 Y
b11100 0
b11100 V
b100000010010111000100011 '
b1000 $
b1000 >
b1000 U
b100 ?
b100 S
1!
1"
#8000
0!
#10000
b111011000 (
b111011000 [
b111011000 :
b111011000 C
b11011000 &
b11011000 A
b11011000 *
b11011000 Z
b1 +
b1 Y
b11000 0
b11000 V
b100010010110000100011 '
b1100 $
b1100 >
b1100 U
b1000 ?
b1000 S
1!
#12000
0!
#14000
b100000000 (
b100000000 [
b100000000 :
b100000000 C
b10011 1
b10011 I
b0 F
b0 7
b0 D
b0 &
b0 A
b0 *
b0 Z
b10000 +
b10000 Y
b1000 0
b1000 V
b1000000010000010000010011 '
b10000 $
b10000 >
b10000 U
b1100 ?
b1100 S
1!
#16000
0!
#18000
b10 (
b10 [
b10 :
b10 C
b100011 1
b100011 I
b1111111 6
b1111111 E
b1010 F
b10 7
b10 D
b0 %
b0 @
b0 ,
b0 X
b1000 -
b1000 W
b10 &
b10 A
b10 *
b10 Z
b1010 +
b1010 Y
b11100 0
b11100 V
b11111110101001000010111000100011 '
b10100 $
b10100 >
b10100 U
b10000 ?
b10000 S
1!
#20000
0!
#22000
b0 (
b0 [
b0 :
b0 C
b10011 1
b10011 I
b0 6
b0 E
b0 F
b0 7
b0 D
b0 &
b0 A
b0 *
b0 Z
b0 +
b0 Y
b1010 0
b1010 V
b1000000010100010011 '
b11000 $
b11000 >
b11000 U
b10100 ?
b10100 S
1!
#24000
0!
#26000
b1000 F
b10 (
b10 [
b10 :
b10 C
b1111111 6
b1111111 E
b10 %
b10 @
b10 ,
b10 X
b1010 -
b1010 W
b11100 +
b11100 Y
b11111111110001010000010100010011 '
b11100 $
b11100 >
b11100 U
b11000 ?
b11000 S
1!
#28000
0!
#30000
b11 1
b11 I
b0 6
b0 E
b10 F
b10 7
b10 D
b0 +
b0 Y
b1010010010100000011 '
b100000 $
b100000 >
b100000 U
b11100 ?
b11100 S
1!
#32000
0!
#34000
b0 (
b0 [
b0 :
b0 C
b10011 1
b10011 I
b0 F
b0 7
b0 D
b0 %
b0 @
b0 ,
b0 X
b0 -
b0 W
b1011 0
b1011 V
b10110010011 '
b100100 $
b100100 >
b100100 U
b100000 ?
b100000 S
1!
#36000
0!
#38000
b1100 (
b1100 [
b1100 :
b1100 C
b1100011 1
b1100011 I
b10 %
b10 @
b10 ,
b10 X
b1010 -
b1010 W
b1010 &
b1010 A
b1010 *
b1010 Z
b1011 +
b1011 Y
b1100 0
b1100 V
b101101010000011001100011 '
b101000 $
b101000 >
b101000 U
b100100 ?
b100100 S
1!
#40000
0!
#42000
b0 (
b0 [
b0 :
b0 C
b10011 1
b10011 I
b0 %
b0 @
b0 ,
b0 X
b0 -
b0 W
b0 &
b0 A
b0 *
b0 Z
b0 +
b0 Y
b1010 0
b1010 V
b10100010011 '
b101100 $
b101100 >
b101100 U
b101000 ?
b101000 S
1!
#44000
0!
#46000
b1101111 1
b1101111 I
b1000 +
b1000 Y
b0 0
b0 V
b100000000000000001101111 '
b110000 $
b110000 >
b110000 U
b101100 ?
b101100 S
1!
#48000
0!
#50000
b11011000 (
b11011000 [
b11011000 :
b11011000 C
b10011 1
b10011 I
b11011000 &
b11011000 A
b11011000 *
b11011000 Z
b1 +
b1 Y
b1010 0
b1010 V
b100000000010100010011 '
b110100 $
b110100 >
b110100 U
b110000 ?
b110000 S
1!
#52000
0!
#54000
b0 (
b0 [
b0 :
b0 C
b0 &
b0 A
b0 *
b0 Z
b0 +
b0 Y
b0 0
b0 V
b10011 '
b111000 $
b111000 >
b111000 U
b110100 ?
b110100 S
1!
#56000
0!
#58000
b10 (
b10 [
b10 :
b10 C
b1100011 1
b1100011 I
b10 %
b10 @
b10 ,
b10 X
b1010 -
b1010 W
b10000 0
b10000 V
b1010000100001100011 '
b111100 $
b111100 >
b111100 U
b111000 ?
b111000 S
1!
#60000
0!
#62000
b0 (
b0 [
b0 :
b0 C
b10011 1
b10011 I
b0 %
b0 @
b0 ,
b0 X
b0 -
b0 W
b1010 0
b1010 V
b10100010011 '
b1000000 $
b1000000 >
b1000000 U
b111100 ?
b111100 S
1!
#64000
0!
#66000
b1101111 1
b1101111 I
b100 6
b100 E
b1000 +
b1000 Y
b0 0
b0 V
b1000100000000000000001101111 '
b1000100 $
b1000100 >
b1000100 U
b1000000 ?
b1000000 S
1!
#68000
0!
#70000
b100 +
b100 Y
b1000010000000000000001101111 '
b1001000 $
b1001000 >
b1001000 U
b1000100 ?
b1000100 S
1!
#72000
0!
#74000
b10011 1
b10011 I
b0 6
b0 E
b1000 -
b1000 W
b0 +
b0 Y
b1010 0
b1010 V
b1000000010100010011 '
b1001100 $
b1001100 >
b1001100 U
b1001000 ?
b1001000 S
1!
#76000
0!
#78000
b1000 F
b10 (
b10 [
b10 :
b10 C
b1111111 6
b1111111 E
b10 %
b10 @
b10 ,
b10 X
b1010 -
b1010 W
b11100 +
b11100 Y
b11111111110001010000010100010011 '
b1010000 $
b1010000 >
b1010000 U
b1001100 ?
b1001100 S
1!
#80000
0!
#82000
b11 1
b11 I
b0 6
b0 E
b10 F
b10 7
b10 D
b0 +
b0 Y
b1010010010100000011 '
b1010100 $
b1010100 >
b1010100 U
b1010000 ?
b1010000 S
1!
#84000
0!
#86000
b11011000 (
b11011000 [
b11011000 :
b11011000 C
b10011 1
b10011 I
b0 F
b0 7
b0 D
b0 %
b0 @
b0 ,
b0 X
b0 -
b0 W
b11011000 &
b11011000 A
b11011000 *
b11011000 Z
b1 +
b1 Y
b1011 0
b1011 V
b100000000010110010011 '
b1011000 $
b1011000 >
b1011000 U
b1010100 ?
b1010100 S
1!
#88000
0!
#90000
b1100 (
b1100 [
b1100 :
b1100 C
b1100011 1
b1100011 I
b10 %
b10 @
b10 ,
b10 X
b1010 -
b1010 W
b1010 &
b1010 A
b1010 *
b1010 Z
b1011 +
b1011 Y
b1100 0
b1100 V
b101101010000011001100011 '
b1011100 $
b1011100 >
b1011100 U
b1011000 ?
b1011000 S
1!
#92000
0!
#94000
b0 (
b0 [
b0 :
b0 C
b10011 1
b10011 I
b0 %
b0 @
b0 ,
b0 X
b0 -
b0 W
b0 &
b0 A
b0 *
b0 Z
b0 +
b0 Y
b1010 0
b1010 V
b10100010011 '
b1100000 $
b1100000 >
b1100000 U
b1011100 ?
b1011100 S
1!
#96000
0!
#98000
b1101111 1
b1101111 I
b1000 +
b1000 Y
b0 0
b0 V
b100000000000000001101111 '
b1100100 $
b1100100 >
b1100100 U
b1100000 ?
b1100000 S
1!
#100000
0!
#102000
b11011000 (
b11011000 [
b11011000 :
b11011000 C
b10011 1
b10011 I
b11011000 &
b11011000 A
b11011000 *
b11011000 Z
b1 +
b1 Y
b1010 0
b1010 V
b100000000010100010011 '
b1101000 $
b1101000 >
b1101000 U
b1100100 ?
b1100100 S
1!
#104000
0!
#106000
b0 (
b0 [
b0 :
b0 C
b0 &
b0 A
b0 *
b0 Z
b0 +
b0 Y
b0 0
b0 V
b10011 '
b1101100 $
b1101100 >
b1101100 U
b1101000 ?
b1101000 S
1!
#108000
0!
#110000
b10 (
b10 [
b10 :
b10 C
b1100011 1
b1100011 I
b10 %
b10 @
b10 ,
b10 X
b1010 -
b1010 W
b10000 0
b10000 V
b1010000100001100011 '
b1110000 $
b1110000 >
b1110000 U
b1101100 ?
b1101100 S
1!
#112000
0!
#114000
b11011000 (
b11011000 [
b11011000 :
b11011000 C
b10011 1
b10011 I
b0 %
b0 @
b0 ,
b0 X
b0 -
b0 W
b11011000 &
b11011000 A
b11011000 *
b11011000 Z
b1 +
b1 Y
b1010 0
b1010 V
b100000000010100010011 '
b1110100 $
b1110100 >
b1110100 U
b1110000 ?
b1110000 S
1!
#116000
0!
#118000
b0 (
b0 [
b0 :
b0 C
b1101111 1
b1101111 I
b10 6
b10 E
b0 &
b0 A
b0 *
b0 Z
b10100 +
b10100 Y
b0 0
b0 V
b101010000000000000001101111 '
b1111000 $
b1111000 >
b1111000 U
b1110100 ?
b1110100 S
1!
#120000
0!
#122000
b10000 +
b10000 Y
b101000000000000000001101111 '
b1111100 $
b1111100 >
b1111100 U
b1111000 ?
b1111000 S
1!
#124000
0!
#126000
b10011 1
b10011 I
b0 6
b0 E
b1000 -
b1000 W
b0 +
b0 Y
b1010 0
b1010 V
b1000000010100010011 '
b10000000 $
b10000000 >
b10000000 U
b1111100 ?
b1111100 S
1!
#128000
0!
#130000
b1000 F
b10 (
b10 [
b10 :
b10 C
b1111111 6
b1111111 E
b10 %
b10 @
b10 ,
b10 X
b1010 -
b1010 W
b11100 +
b11100 Y
b11111111110001010000010100010011 '
b10000100 $
b10000100 >
b10000100 U
b10000000 ?
b10000000 S
1!
#132000
0!
#134000
b11 1
b11 I
b0 6
b0 E
b10 F
b10 7
b10 D
b0 +
b0 Y
b1010010010100000011 '
b10001000 $
b10001000 >
b10001000 U
b10000100 ?
b10000100 S
1!
#136000
0!
#138000
b11011000 (
b11011000 [
b11011000 :
b11011000 C
b10011 1
b10011 I
b0 F
b0 7
b0 D
b0 %
b0 @
b0 ,
b0 X
b0 -
b0 W
b11011000 &
b11011000 A
b11011000 *
b11011000 Z
b1 +
b1 Y
b1011 0
b1011 V
b100000000010110010011 '
b10001100 $
b10001100 >
b10001100 U
b10001000 ?
b10001000 S
1!
#140000
0!
#142000
b1 <
b1 B
b1 H
b10 ;
b10 G
b10 K
1.
b10001 L
b1000 F
b11111111111111111111111111111000 (
b11111111111111111111111111111000 [
b11111111111111111111111111111000 :
b11111111111111111111111111111000 C
b110011 1
b110011 I
b100000 6
b100000 E
b10 %
b10 @
b10 ,
b10 X
b1010 -
b1010 W
b1010 &
b1010 A
b1010 *
b1010 Z
b1011 +
b1011 Y
b1010 0
b1010 V
b1000000101101010000010100110011 '
b10010000 $
b10010000 >
b10010000 U
b10001100 ?
b10001100 S
1!
#144000
b11111111111111111111111111101110 (
b11111111111111111111111111101110 [
b11111111111111111111111111101110 :
b11111111111111111111111111101110 C
b11111111111111111111111111111000 %
b11111111111111111111111111111000 @
b11111111111111111111111111111000 ,
b11111111111111111111111111111000 X
0!
#146000
b0 ;
b0 G
b0 K
0.
b0 L
b0 <
b0 B
b0 H
b0 (
b0 [
b0 :
b0 C
b1101111 1
b1101111 I
b1111011 6
b1111011 E
b1111 F
b111 7
b111 D
b0 %
b0 @
b0 ,
b0 X
b11111 -
b11111 W
b0 &
b0 A
b0 *
b0 Z
b10001 +
b10001 Y
b1 0
b1 V
b11110111000111111111000011101111 '
b10010100 $
b10010100 >
b10010100 U
b10010000 ?
b10010000 S
1!
#148000
0!
#150000
b100000000 (
b100000000 [
b100000000 :
b100000000 C
b10011 1
b10011 I
b1111111 6
b1111111 E
b1000 F
b0 7
b0 D
b100000000 %
b100000000 @
b100000000 ,
b100000000 X
b10 -
b10 W
b10000 +
b10000 Y
b10 0
b10 V
b11111111000000010000000100010011 '
b10011000 $
b10011000 >
b10011000 U
b10010100 ?
b10010100 S
1!
#152000
0!
#154000
b11111000 (
b11111000 [
b11111000 :
b11111000 C
b100011 1
b100011 I
b0 6
b0 E
b10 F
b10 7
b10 D
b11111111111111111111111111111000 &
b11111111111111111111111111111000 A
b11111111111111111111111111111000 *
b11111111111111111111111111111000 Z
b1010 +
b1010 Y
b0 0
b0 V
b101000010010000000100011 '
b10011100 $
b10011100 >
b10011100 U
b10011000 ?
b10011000 S
1!
#156000
0!
#158000
b0 (
b0 [
b0 :
b0 C
b10011 1
b10011 I
b0 F
b0 7
b0 D
b0 %
b0 @
b0 ,
b0 X
b1000 -
b1000 W
b0 &
b0 A
b0 *
b0 Z
b0 +
b0 Y
b1010 0
b1010 V
b1000000010100010011 '
b10100000 $
b10100000 >
b10100000 U
b10011100 ?
b10011100 S
1!
#160000
0!
#162000
b1000 F
b11111111111111111111111111111000 (
b11111111111111111111111111111000 [
b11111111111111111111111111111000 :
b11111111111111111111111111111000 C
b1111111 6
b1111111 E
b11111111111111111111111111111000 %
b11111111111111111111111111111000 @
b11111111111111111111111111111000 ,
b11111111111111111111111111111000 X
b1010 -
b1010 W
b11100 +
b11100 Y
b11111111110001010000010100010011 '
b10100100 $
b10100100 >
b10100100 U
b10100000 ?
b10100000 S
1!
#164000
0!
#166000
b11 1
b11 I
b0 6
b0 E
b10 F
b10 7
b10 D
b0 +
b0 Y
b1010010010100000011 '
b10101000 $
b10101000 >
b10101000 U
b10100100 ?
b10100100 S
1!
#168000
0!
#170000
b100000000 (
b100000000 [
b100000000 :
b100000000 C
b10011 1
b10011 I
b0 F
b0 7
b0 D
b0 %
b0 @
b0 ,
b0 X
b0 -
b0 W
b100000000 &
b100000000 A
b100000000 *
b100000000 Z
b10 +
b10 Y
b1011 0
b1011 V
b1000000000010110010011 '
b10101100 $
b10101100 >
b10101100 U
b10101000 ?
b10101000 S
1!
#172000
0!
#174000
b1 <
b1 B
b1 H
b10 ;
b10 G
b10 K
1.
b10001 L
b1000 F
b11111111111111111111111111101110 (
b11111111111111111111111111101110 [
b11111111111111111111111111101110 :
b11111111111111111111111111101110 C
b110011 1
b110011 I
b100000 6
b100000 E
b11111111111111111111111111111000 %
b11111111111111111111111111111000 @
b11111111111111111111111111111000 ,
b11111111111111111111111111111000 X
b1010 -
b1010 W
b1010 &
b1010 A
b1010 *
b1010 Z
b1011 +
b1011 Y
b1010 0
b1010 V
b1000000101101010000010100110011 '
b10110000 $
b10110000 >
b10110000 U
b10101100 ?
b10101100 S
1!
#176000
b11111111111111111111111111100100 (
b11111111111111111111111111100100 [
b11111111111111111111111111100100 :
b11111111111111111111111111100100 C
b11111111111111111111111111101110 %
b11111111111111111111111111101110 @
b11111111111111111111111111101110 ,
b11111111111111111111111111101110 X
0!
#178000
b0 ;
b0 G
b0 K
0.
b0 L
b0 <
b0 B
b0 H
b0 (
b0 [
b0 :
b0 C
b1101111 1
b1101111 I
b1111010 6
b1111010 E
b1111 F
b111 7
b111 D
b0 %
b0 @
b0 ,
b0 X
b11111 -
b11111 W
b0 &
b0 A
b0 *
b0 Z
b10001 +
b10001 Y
b1 0
b1 V
b11110101000111111111000011101111 '
b10110100 $
b10110100 >
b10110100 U
b10110000 ?
b10110000 S
1!
#180000
0!
#182000
b11111111111111111111111111101110 (
b11111111111111111111111111101110 [
b11111111111111111111111111101110 :
b11111111111111111111111111101110 C
b10011 1
b10011 I
b0 6
b0 E
b0 F
b0 7
b0 D
b11111111111111111111111111101110 %
b11111111111111111111111111101110 @
b11111111111111111111111111101110 ,
b11111111111111111111111111101110 X
b1010 -
b1010 W
b0 +
b0 Y
b1011 0
b1011 V
b1010000010110010011 '
b10111000 $
b10111000 >
b10111000 U
b10110100 ?
b10110100 S
1!
#184000
0!
#186000
b100000000 (
b100000000 [
b100000000 :
b100000000 C
b11 1
b11 I
b10 F
b10 7
b10 D
b100000000 %
b100000000 @
b100000000 ,
b100000000 X
b10 -
b10 W
b1010 0
b1010 V
b10010010100000011 '
b10111100 $
b10111100 >
b10111100 U
b10111000 ?
b10111000 S
1!
#188000
0!
#190000
b10011 1
b10011 I
b0 F
b0 7
b0 D
b10000 +
b10000 Y
b10 0
b10 V
b1000000010000000100010011 '
b11000000 $
b11000000 >
b11000000 U
b10111100 ?
b10111100 S
1!
#192000
0!
#194000
b10 ;
b10 G
b10 K
1.
b10001 L
b11111111111111111111111111111000 (
b11111111111111111111111111111000 [
b11111111111111111111111111111000 :
b11111111111111111111111111111000 C
b110011 1
b110011 I
b11111111111111111111111111101110 %
b11111111111111111111111111101110 @
b11111111111111111111111111101110 ,
b11111111111111111111111111101110 X
b1010 -
b1010 W
b1010 &
b1010 A
b1010 *
b1010 Z
b1011 +
b1011 Y
b1010 0
b1010 V
b101101010000010100110011 '
b11000100 $
b11000100 >
b11000100 U
b11000000 ?
b11000000 S
1!
#196000
b10 (
b10 [
b10 :
b10 C
b11111111111111111111111111111000 %
b11111111111111111111111111111000 @
b11111111111111111111111111111000 ,
b11111111111111111111111111111000 X
0!
#198000
b0 ;
b0 G
b0 K
0.
b0 L
b0 (
b0 [
b0 :
b0 C
b1101111 1
b1101111 I
b0 %
b0 @
b0 ,
b0 X
b0 -
b0 W
b0 &
b0 A
b0 *
b0 Z
b100 +
b100 Y
b0 0
b0 V
b10000000000000001101111 '
b11001000 $
b11001000 >
b11001000 U
b11000100 ?
b11000100 S
1!
#200000
0!
#202000
b10011 1
b10011 I
b1000 -
b1000 W
b10000 +
b10000 Y
b10 0
b10 V
b1000001000000000100010011 '
b11001100 $
b11001100 >
b11001100 U
b11001000 ?
b11001000 S
1!
#204000
0!
#206000
b100000000 (
b100000000 [
b100000000 :
b100000000 C
b11 1
b11 I
b1111111 6
b1111111 E
b1010 F
b10 7
b10 D
b100000000 %
b100000000 @
b100000000 ,
b100000000 X
b10 -
b10 W
b11000 +
b11000 Y
b1 0
b1 V
b11111111100000010010000010000011 '
b11010000 $
b11010000 >
b11010000 U
b11001100 ?
b11001100 S
1!
#208000
0!
#210000
b11100 +
b11100 Y
b1000 0
b1000 V
b11111111110000010010010000000011 '
b11010100 $
b11010100 >
b11010100 U
b11010000 ?
b11010000 S
1!
#212000
0!
#214000
b11011000 (
b11011000 [
b11011000 :
b11011000 C
b1100111 1
b1100111 I
b0 6
b0 E
b0 F
b0 7
b0 D
b11011000 %
b11011000 @
b11011000 ,
b11011000 X
b1 -
b1 W
b0 +
b0 Y
b0 0
b0 V
b1000000001100111 '
b11011000 $
b11011000 >
b11011000 U
b11010100 ?
b11010100 S
1!
#216000
0!
#218000
b0 (
b0 [
b0 :
b0 C
b10011 1
b10011 I
b11 6
b11 E
b0 %
b0 @
b0 ,
b0 X
b110 -
b110 W
b11011 +
b11011 Y
b110 0
b110 V
b111101100110000001100010011 '
b11011100 $
b11011100 >
b11011100 U
b11011000 ?
b11011000 S
1!
#220000
0!
#222000
bx (
bx [
bx :
bx C
bx 1
bx I
bx 6
bx E
bx F
bx 7
bx D
bx %
bx @
bx ,
bx X
bx -
bx W
bx &
bx A
bx *
bx Z
bx +
bx Y
bx 0
bx V
bx '
b11100000 $
b11100000 >
b11100000 U
b11011100 ?
b11011100 S
1!
#224000
0!
#226000
b11100100 $
b11100100 >
b11100100 U
b11100000 ?
b11100000 S
1!
#228000
0!
#230000
b11101000 $
b11101000 >
b11101000 U
b11100100 ?
b11100100 S
1!
#232000
0!
#234000
b11101100 $
b11101100 >
b11101100 U
b11101000 ?
b11101000 S
1!
#236000
0!
#238000
b11110000 $
b11110000 >
b11110000 U
b11101100 ?
b11101100 S
1!
#240000
0!
#242000
b11110100 $
b11110100 >
b11110100 U
b11110000 ?
b11110000 S
1!
#244000
0!
#246000
b11111000 $
b11111000 >
b11111000 U
b11110100 ?
b11110100 S
1!
#248000
0!
#250000
b11111100 $
b11111100 >
b11111100 U
b11111000 ?
b11111000 S
1!
#252000
0!
#254000
b100000000 $
b100000000 >
b100000000 U
b11111100 ?
b11111100 S
1!
#256000
0!
#258000
b100000000 (
b100000000 [
b100000000 :
b100000000 C
b10011 1
b10011 I
b1111111 6
b1111111 E
b1000 F
b0 7
b0 D
b100000000 %
b100000000 @
b100000000 ,
b100000000 X
b10 -
b10 W
b0 &
b0 A
b0 *
b0 Z
b0 +
b0 Y
b10 0
b10 V
b11111110000000010000000100010011 '
b100000100 $
b100000100 >
b100000100 U
b100000000 ?
b100000000 S
1!
#260000
0!
#262000
b100011 1
b100011 I
b0 6
b0 E
b10 F
b10 7
b10 D
b1000 +
b1000 Y
b11100 0
b11100 V
b100000010010111000100011 '
b100001000 $
b100001000 >
b100001000 U
b100000100 ?
b100000100 S
1!
#264000
0!
#266000
b111011000 (
b111011000 [
b111011000 :
b111011000 C
b11011000 &
b11011000 A
b11011000 *
b11011000 Z
b1 +
b1 Y
b11000 0
b11000 V
b100010010110000100011 '
b100001100 $
b100001100 >
b100001100 U
b100001000 ?
b100001000 S
1!
#268000
0!
#270000
b100000000 (
b100000000 [
b100000000 :
b100000000 C
b10011 1
b10011 I
b0 F
b0 7
b0 D
b0 &
b0 A
b0 *
b0 Z
b10000 +
b10000 Y
b1000 0
b1000 V
b1000000010000010000010011 '
b100010000 $
b100010000 >
b100010000 U
b100001100 ?
b100001100 S
1!
#272000
0!
#274000
b11111111111111111111111111111000 (
b11111111111111111111111111111000 [
b11111111111111111111111111111000 :
b11111111111111111111111111111000 C
b100011 1
b100011 I
b1111111 6
b1111111 E
b1010 F
b10 7
b10 D
b0 %
b0 @
b0 ,
b0 X
b1000 -
b1000 W
b11111111111111111111111111111000 &
b11111111111111111111111111111000 A
b11111111111111111111111111111000 *
b11111111111111111111111111111000 Z
b1010 +
b1010 Y
b11100 0
b11100 V
b11111110101001000010111000100011 '
b100010100 $
b100010100 >
b100010100 U
b100010000 ?
b100010000 S
1!
#276000
0!
#278000
b0 (
b0 [
b0 :
b0 C
b10011 1
b10011 I
b0 6
b0 E
b0 F
b0 7
b0 D
b0 &
b0 A
b0 *
b0 Z
b0 +
b0 Y
b1010 0
b1010 V
b1000000010100010011 '
b100011000 $
b100011000 >
b100011000 U
b100010100 ?
b100010100 S
1!
#280000
0!
#282000
b1000 F
b11111111111111111111111111111000 (
b11111111111111111111111111111000 [
b11111111111111111111111111111000 :
b11111111111111111111111111111000 C
b1111111 6
b1111111 E
b11111111111111111111111111111000 %
b11111111111111111111111111111000 @
b11111111111111111111111111111000 ,
b11111111111111111111111111111000 X
b1010 -
b1010 W
b11100 +
b11100 Y
b11111111110001010000010100010011 '
b100011100 $
b100011100 >
b100011100 U
b100011000 ?
b100011000 S
1!
#284000
0!
#286000
b11 1
b11 I
b0 6
b0 E
b10 F
b10 7
b10 D
b0 +
b0 Y
b1010010010100000011 '
b100100000 $
b100100000 >
b100100000 U
b100011100 ?
b100011100 S
1!
#288000
0!
#290000
b0 (
b0 [
b0 :
b0 C
b10011 1
b10011 I
b0 F
b0 7
b0 D
b0 %
b0 @
b0 ,
b0 X
b0 -
b0 W
b1011 0
b1011 V
b10110010011 '
b100100100 $
b100100100 >
b100100100 U
b100100000 ?
b100100000 S
1!
#292000
0!
#294000
b10 (
b10 [
b10 :
b10 C
b1100011 1
b1100011 I
b11111111111111111111111111111000 %
b11111111111111111111111111111000 @
b11111111111111111111111111111000 ,
b11111111111111111111111111111000 X
b1010 -
b1010 W
b1010 &
b1010 A
b1010 *
b1010 Z
b1011 +
b1011 Y
b1100 0
b1100 V
b101101010000011001100011 '
b100101000 $
b100101000 >
b100101000 U
b100100100 ?
b100100100 S
1!
#296000
0!
#298000
b0 (
b0 [
b0 :
b0 C
b10011 1
b10011 I
b0 %
b0 @
b0 ,
b0 X
b0 -
b0 W
b0 &
b0 A
b0 *
b0 Z
b0 +
b0 Y
b1010 0
b1010 V
b10100010011 '
b100101100 $
b100101100 >
b100101100 U
b100101000 ?
b100101000 S
1!
#300000
0!
#302000
b1101111 1
b1101111 I
b1000 +
b1000 Y
b0 0
b0 V
b100000000000000001101111 '
b100110000 $
b100110000 >
b100110000 U
b100101100 ?
b100101100 S
1!
#304000
0!
#306000
b11011000 (
b11011000 [
b11011000 :
b11011000 C
b10011 1
b10011 I
b11011000 &
b11011000 A
b11011000 *
b11011000 Z
b1 +
b1 Y
b1010 0
b1010 V
b100000000010100010011 '
b100110100 $
b100110100 >
b100110100 U
b100110000 ?
b100110000 S
1!
#308000
0!
#310000
b0 (
b0 [
b0 :
b0 C
b0 &
b0 A
b0 *
b0 Z
b0 +
b0 Y
b0 0
b0 V
b10011 '
b100111000 $
b100111000 >
b100111000 U
b100110100 ?
b100110100 S
1!
#312000
0!
#314000
b11111111111111111111111111111000 (
b11111111111111111111111111111000 [
b11111111111111111111111111111000 :
b11111111111111111111111111111000 C
b1100011 1
b1100011 I
b11111111111111111111111111111000 %
b11111111111111111111111111111000 @
b11111111111111111111111111111000 ,
b11111111111111111111111111111000 X
b1010 -
b1010 W
b10000 0
b10000 V
b1010000100001100011 '
b100111100 $
b100111100 >
b100111100 U
b100111000 ?
b100111000 S
1!
#316000
0!
#318000
b0 (
b0 [
b0 :
b0 C
b10011 1
b10011 I
b0 %
b0 @
b0 ,
b0 X
b0 -
b0 W
b1010 0
b1010 V
b10100010011 '
b101000000 $
b101000000 >
b101000000 U
b100111100 ?
b100111100 S
1!
#320000
0!
#322000
b1101111 1
b1101111 I
b100 6
b100 E
b1000 +
b1000 Y
b0 0
b0 V
b1000100000000000000001101111 '
b101000100 $
b101000100 >
b101000100 U
b101000000 ?
b101000000 S
1!
#324000
0!
#326000
b100 +
b100 Y
b1000010000000000000001101111 '
b101001000 $
b101001000 >
b101001000 U
b101000100 ?
b101000100 S
1!
#328000
0!
#330000
b10011 1
b10011 I
b0 6
b0 E
b1000 -
b1000 W
b0 +
b0 Y
b1010 0
b1010 V
b1000000010100010011 '
b101001100 $
b101001100 >
b101001100 U
b101001000 ?
b101001000 S
1!
#332000
0!
#334000
b1000 F
b11111111111111111111111111111000 (
b11111111111111111111111111111000 [
b11111111111111111111111111111000 :
b11111111111111111111111111111000 C
b1111111 6
b1111111 E
b11111111111111111111111111111000 %
b11111111111111111111111111111000 @
b11111111111111111111111111111000 ,
b11111111111111111111111111111000 X
b1010 -
b1010 W
b11100 +
b11100 Y
b11111111110001010000010100010011 '
b101010000 $
b101010000 >
b101010000 U
b101001100 ?
b101001100 S
1!
#336000
0!
