comporg_lab1-leejunhee3123-main/sim.vcd
$date
	Sun Apr  9 14:03:33 2023
$end
$version
	Icarus Verilog
$end
$timescale
	10ps
$end
$scope module riscv_tb $end
$var reg 1 ! clk $end
$var reg 1 " rstn $end
$var integer 32 # i [31:0] $end
$scope module my_cpu $end
$var wire 32 $ NEXT_PC [31:0] $end
$var wire 32 % alu_in1 [31:0] $end
$var wire 1 ! clk $end
$var wire 32 & instruction [31:0] $end
$var wire 1 " rstn $end
$var wire 32 ' write_data [31:0] $end
$var wire 1 ( taken $end
$var wire 32 ) sextimm [31:0] $end
$var wire 32 * rs2_out [31:0] $end
$var wire 5 + rs2 [4:0] $end
$var wire 32 , rs1_out [31:0] $end
$var wire 5 - rs1 [4:0] $end
$var wire 1 . reg_write $end
$var wire 32 / read_data [31:0] $end
$var wire 5 0 rd [4:0] $end
$var wire 7 1 opcode [6:0] $end
$var wire 1 2 mem_write $end
$var wire 1 3 mem_to_reg $end
$var wire 1 4 mem_read $end
$var wire 2 5 jump [1:0] $end
$var wire 7 6 funct7 [6:0] $end
$var wire 3 7 funct3 [2:0] $end
$var wire 1 8 branch $end
$var wire 1 9 alu_src $end
$var wire 32 : alu_out [31:0] $end
$var wire 2 ; alu_op [1:0] $end
$var wire 32 < alu_in2 [31:0] $end
$var wire 4 = alu_func [3:0] $end
$var wire 1 > alu_check $end
$var wire 32 ? PC_PLUS_4 [31:0] $end
$var reg 32 @ PC [31:0] $end
$scope module m_ALU $end
$var wire 32 A in_a [31:0] $end
$var wire 32 B in_b [31:0] $end
$var wire 4 C alu_func [3:0] $end
$var reg 1 > check $end
$var reg 32 D result [31:0] $end
$upscope $end
$scope module m_ALU_control $end
$var wire 3 E funct3 [2:0] $end
$var wire 7 F funct7 [6:0] $end
$var wire 4 G funct [3:0] $end
$var wire 2 H alu_op [1:0] $end
$var reg 4 I alu_func [3:0] $end
$upscope $end
$scope module m_branch_control $end
$var wire 1 > check $end
$var wire 1 8 branch $end
$var reg 1 ( taken $end
$upscope $end
$scope module m_control $end
$var wire 7 J opcode [6:0] $end
$var wire 1 . reg_write $end
$var wire 1 2 mem_write $end
$var wire 1 3 mem_to_reg $end
$var wire 1 4 mem_read $end
$var wire 2 K jump [1:0] $end
$var wire 1 8 branch $end
$var wire 1 9 alu_src $end
$var wire 2 L alu_op [1:0] $end
$var reg 10 M controls [9:0] $end
$upscope $end
$scope module m_data_memory $end
$var wire 32 N address [31:0] $end
$var wire 1 ! clk $end
$var wire 2 O maskmode [1:0] $end
$var wire 1 4 mem_read $end
$var wire 1 2 mem_write $end
$var wire 1 P sext $end
$var wire 32 Q write_data [31:0] $end
$var wire 8 R address_internal [7:0] $end
$var reg 32 S read_data [31:0] $end
$upscope $end
$scope module m_imm_generator $end
$var wire 32 T instruction [31:0] $end
$var wire 7 U opcode [6:0] $end
$var reg 32 V sextimm [31:0] $end
$upscope $end
$scope module m_mux_2x1 $end
$var wire 32 W in2 [31:0] $end
$var wire 1 9 select $end
$var wire 32 X in1 [31:0] $end
$var reg 32 Y out [31:0] $end
$upscope $end
$scope module m_next_pc_adder $end
$var wire 32 Z in_a [31:0] $end
$var wire 32 [ in_b [31:0] $end
$var reg 32 \ result [31:0] $end
$upscope $end
$scope module m_register_file $end
$var wire 1 ! clk $end
$var wire 5 ] rd [4:0] $end
$var wire 1 . reg_write $end
$var wire 5 ^ rs1 [4:0] $end
$var wire 32 _ rs1_out [31:0] $end
$var wire 5 ` rs2 [4:0] $end
$var wire 32 a rs2_out [31:0] $end
$var wire 32 b write_data [31:0] $end
$upscope $end
$upscope $end
$upscope $end
$enddefinitions $end
#0
$dumpvars
bx b
bx a
bx `
bx _
bx ^
bx ]
bx \
b100 [
bx Z
bx Y
bx X
bx W
bx V
bx U
bx T
bx S
b0 R
b0 Q
0P
b0 O
b0 N
bx M
bx L
bx K
bx J
bx I
bx H
bx G
bx F
bx E
bx D
bx C
bx B
bx A
bx @
bx ?
x>
bx =
bx <
bx ;
bx :
x9
x8
bx 7
bx 6
bx 5
x4
x3
x2
bx 1
bx 0
bx /
x.
bx -
bx ,
bx +
bx *
bx )
x(
bx '
bx &
bx %
bx $
b1000000 #
0"
0!
$end
#2000
b0 /
b0 S
b0 5
b0 K
08
04
03
b11 ;
b11 H
b11 L
02
19
1.
0>
b11011 M
b0 =
b0 C
b0 I
b11100000 '
b11100000 b
b11100000 :
b11100000 D
b11111111111111111111111111100000 <
b11111111111111111111111111100000 B
b11111111111111111111111111100000 Y
b10011 1
b10011 J
b1111111 6
b1111111 F
b1000 G
b0 7
b0 E
b100000000 %
b100000000 A
b100000000 ,
b100000000 _
b10 -
b10 ^
b0 *
b0 X
b0 a
b0 +
b0 `
b10 0
b10 ]
b11111111111111111111111111100000 )
b11111111111111111111111111100000 V
b11111111111111111111111111100000 W
b10011 U
b11111110000000010000000100010011 &
b11111110000000010000000100010011 T
b100 $
b100 ?
b100 \
b0 @
b0 Z
1!
#4000
b11000000 '
b11000000 b
b11000000 :
b11000000 D
b11100000 %
b11100000 A
b11100000 ,
b11100000 _
0!
#6000
b0 ;
b0 H
b0 L
09
0.
b11100000 '
b11100000 b
b11100000 :
b11100000 D
b0 M
b0 =
b0 C
b0 I
b0 <
b0 B
b0 Y
b100011 1
b100011 J
b0 6
b0 F
b10 G
b10 7
b10 E
b1000 +
b1000 `
b11100 0
b11100 ]
b0 )
b0 V
b0 W
b100011 U
b100000010010111000100011 &
b100000010010111000100011 T
b1000 $
b1000 ?
b1000 \
b100 @
b100 Z
1!
1"
#8000
0!
#10000
b110111000 '
b110111000 b
b110111000 :
b110111000 D
b11011000 <
b11011000 B
b11011000 Y
b11011000 *
b11011000 X
b11011000 a
b1 +
b1 `
b11000 0
b11000 ]
b100010010110000100011 &
b100010010110000100011 T
b1100 $
b1100 ?
b1100 \
b1000 @
b1000 Z
1!
#12000
0!
#14000
b11 ;
b11 H
b11 L
19
1.
b11110000 '
b11110000 b
b11110000 :
b11110000 D
b11011 M
b10000 <
b10000 B
b10000 Y
b10011 1
b10011 J
b0 G
b0 7
b0 E
b0 *
b0 X
b0 a
b10000 +
b10000 `
b1000 0
b1000 ]
b10000 )
b10000 V
b10000 W
b10011 U
b1000000010000010000010011 &
b1000000010000010000010011 T
b10000 $
b10000 ?
b10000 \
b1100 @
b1100 Z
1!
#16000
0!
#18000
b0 ;
b0 H
b0 L
09
0.
b11110010 '
b11110010 b
b11110010 :
b11110010 D
b0 M
b0 =
b0 C
b0 I
b10 <
b10 B
b10 Y
b100011 1
b100011 J
b1111111 6
b1111111 F
b1010 G
b10 7
b10 E
b11110000 %
b11110000 A
b11110000 ,
b11110000 _
b1000 -
b1000 ^
b10 *
b10 X
b10 a
b1010 +
b1010 `
b11100 0
b11100 ]
b0 )
b0 V
b0 W
b100011 U
b11111110101001000010111000100011 &
b11111110101001000010111000100011 T
b10100 $
b10100 ?
b10100 \
b10000 @
b10000 Z
1!
#20000
0!
#22000
b11 ;
b11 H
b11 L
19
1.
b11110000 '
b11110000 b
b11110000 :
b11110000 D
b11011 M
b0 <
b0 B
b0 Y
b10011 1
b10011 J
b0 6
b0 F
b0 G
b0 7
b0 E
b0 *
b0 X
b0 a
b0 +
b0 `
b1010 0
b1010 ]
b10011 U
b1000000010100010011 &
b1000000010100010011 T
b11000 $
b11000 ?
b11000 \
b10100 @
b10100 Z
1!
#24000
0!
#26000
b11101100 '
b11101100 b
b11101100 :
b11101100 D
b1000 G
b11111111111111111111111111111100 <
b11111111111111111111111111111100 B
b11111111111111111111111111111100 Y
b1111111 6
b1111111 F
b1010 -
b1010 ^
b11100 +
b11100 `
b11111111111111111111111111111100 )
b11111111111111111111111111111100 V
b11111111111111111111111111111100 W
b11111111110001010000010100010011 &
b11111111110001010000010100010011 T
b11100 $
b11100 ?
b11100 \
b11000 @
b11000 Z
1!
#28000
b11101000 '
b11101000 b
b11101000 :
b11101000 D
b11101100 %
b11101100 A
b11101100 ,
b11101100 _
0!
#30000
b0 ;
b0 H
b0 L
09
0.
b11101100 '
b11101100 b
b11101100 :
b11101100 D
b0 M
b0 =
b0 C
b0 I
b0 <
b0 B
b0 Y
b11 1
b11 J
b0 6
b0 F
b10 G
b10 7
b10 E
b0 +
b0 `
b0 )
b0 V
b0 W
b11 U
b1010010010100000011 &
b1010010010100000011 T
b100000 $
b100000 ?
b100000 \
b11100 @
b11100 Z
1!
#32000
0!
#34000
b11 ;
b11 H
b11 L
19
1.
b11011 M
b0 '
b0 b
b0 :
b0 D
b10011 1
b10011 J
b0 G
b0 7
b0 E
b0 %
b0 A
b0 ,
b0 _
b0 -
b0 ^
b1011 0
b1011 ]
b10011 U
b10110010011 &
b10110010011 T
b100100 $
b100100 ?
b100100 \
b100000 @
b100000 Z
1!
#36000
0!
#38000
b0 ;
b0 H
b0 L
09
0.
b0 M
b11101100 '
b11101100 b
b11101100 :
b11101100 D
b1100011 1
b1100011 J
b11101100 %
b11101100 A
b11101100 ,
b11101100 _
b1010 -
b1010 ^
b1011 +
b1011 `
b1100 0
b1100 ]
b1100011 U
b101101010000011001100011 &
b101101010000011001100011 T
b101000 $
b101000 ?
b101000 \
b100100 @
b100100 Z
1!
#40000
0!
#42000
b11 ;
b11 H
b11 L
19
1.
b11011 M
b0 '
b0 b
b0 :
b0 D
b10011 1
b10011 J
b0 %
b0 A
b0 ,
b0 _
b0 -
b0 ^
b0 +
b0 `
b1010 0
b1010 ]
b10011 U
b10100010011 &
b10100010011 T
b101100 $
b101100 ?
b101100 \
b101000 @
b101000 Z
1!
#44000
0!
#46000
b11110000 '
b11110000 b
b11110000 :
b11110000 D
b11110000 <
b11110000 B
b11110000 Y
b0 ;
b0 H
b0 L
09
0.
b0 M
b1101111 1
b1101111 J
b11110000 *
b11110000 X
b11110000 a
b1000 +
b1000 `
b0 0
b0 ]
b1101111 U
b100000000000000001101111 &
b100000000000000001101111 T
b110000 $
b110000 ?
b110000 \
b101100 @
b101100 Z
1!
#48000
0!
#50000
b11 ;
b11 H
b11 L
19
1.
b1 '
b1 b
b1 :
b1 D
b11011 M
b1 <
b1 B
b1 Y
b10011 1
b10011 J
b11011000 *
b11011000 X
b11011000 a
b1 +
b1 `
b1010 0
b1010 ]
b1 )
b1 V
b1 W
b10011 U
b100000000010100010011 &
b100000000010100010011 T
b110100 $
b110100 ?
b110100 \
b110000 @
b110000 Z
1!
#52000
0!
#54000
b0 '
b0 b
b0 :
b0 D
b0 <
b0 B
b0 Y
b0 *
b0 X
b0 a
b0 +
b0 `
b0 0
b0 ]
b0 )
b0 V
b0 W
b10011 &
b10011 T
b111000 $
b111000 ?
b111000 \
b110100 @
b110100 Z
1!
#56000
0!
#58000
b0 ;
b0 H
b0 L
09
0.
b0 M
b1 '
b1 b
b1 :
b1 D
b1100011 1
b1100011 J
b1 %
b1 A
b1 ,
b1 _
b1010 -
b1010 ^
b10000 0
b10000 ]
b1100011 U
b1010000100001100011 &
b1010000100001100011 T
b111100 $
b111100 ?
b111100 \
b111000 @
b111000 Z
1!
#60000
0!
#62000
b11 ;
b11 H
b11 L
19
1.
b11011 M
b0 '
b0 b
b0 :
b0 D
b10011 1
b10011 J
b0 %
b0 A
b0 ,
b0 _
b0 -
b0 ^
b1010 0
b1010 ]
b10011 U
b10100010011 &
b10100010011 T
b1000000 $
b1000000 ?
b1000000 \
b111100 @
b111100 Z
1!
#64000
0!
#66000
b11110000 '
b11110000 b
b11110000 :
b11110000 D
b11110000 <
b11110000 B
b11110000 Y
b0 ;
b0 H
b0 L
09
0.
b0 M
b1101111 1
b1101111 J
b100 6
b100 F
b11110000 *
b11110000 X
b11110000 a
b1000 +
b1000 `
b0 0
b0 ]
b1101111 U
b1000100000000000000001101111 &
b1000100000000000000001101111 T
b1000100 $
b1000100 ?
b1000100 \
b1000000 @
b1000000 Z
1!
#68000
0!
#70000
b0 '
b0 b
b0 :
b0 D
b0 <
b0 B
b0 Y
b0 *
b0 X
b0 a
b100 +
b100 `
b1000010000000000000001101111 &
b1000010000000000000001101111 T
b1001000 $
b1001000 ?
b1001000 \
b1000100 @
b1000100 Z
1!
#72000
0!
#74000
b11 ;
b11 H
b11 L
19
1.
b11011 M
b11110000 '
b11110000 b
b11110000 :
b11110000 D
b10011 1
b10011 J
b0 6
b0 F
b11110000 %
b11110000 A
b11110000 ,
b11110000 _
b1000 -
b1000 ^
b0 +
b0 `
b1010 0
b1010 ]
b10011 U
b1000000010100010011 &
b1000000010100010011 T
b1001100 $
b1001100 ?
b1001100 \
b1001000 @
b1001000 Z
1!
#76000
0!
#78000
b11101100 '
b11101100 b
b11101100 :
b11101100 D
b1000 G
b11111111111111111111111111111100 <
b11111111111111111111111111111100 B
b11111111111111111111111111111100 Y
b1111111 6
b1111111 F
b1010 -
b1010 ^
b11100 +
b11100 `
b11111111111111111111111111111100 )
b11111111111111111111111111111100 V
b11111111111111111111111111111100 W
b11111111110001010000010100010011 &
b11111111110001010000010100010011 T
b1010000 $
b1010000 ?
b1010000 \
b1001100 @
b1001100 Z
1!
#80000
b11101000 '
b11101000 b
b11101000 :
b11101000 D
b11101100 %
b11101100 A
b11101100 ,
b11101100 _
0!
#82000
b0 ;
b0 H
b0 L
09
0.
b11101100 '
b11101100 b
b11101100 :
b11101100 D
b0 M
b0 =
b0 C
b0 I
b0 <
b0 B
b0 Y
b11 1
b11 J
b0 6
b0 F
b10 G
b10 7
b10 E
b0 +
b0 `
b0 )
b0 V
b0 W
b11 U
b1010010010100000011 &
b1010010010100000011 T
b1010100 $
b1010100 ?
b1010100 \
b1010000 @
b1010000 Z
1!
#84000
0!
#86000
b11 ;
b11 H
b11 L
19
1.
b11011 M
b1 '
b1 b
b1 :
b1 D
b1 <
b1 B
b1 Y
b10011 1
b10011 J
b0 G
b0 7
b0 E
b0 %
b0 A
b0 ,
b0 _
b0 -
b0 ^
b11011000 *
b11011000 X
b11011000 a
b1 +
b1 `
b1011 0
b1011 ]
b1 )
b1 V
b1 W
b10011 U
b100000000010110010011 &
b100000000010110010011 T
b1011000 $
b1011000 ?
b1011000 \
b1010100 @
b1010100 Z
1!
#88000
0!
#90000
b0 ;
b0 H
b0 L
09
0.
b0 M
b11101101 '
b11101101 b
b11101101 :
b11101101 D
b1 <
b1 B
b1 Y
b1100011 1
b1100011 J
b11101100 %
b11101100 A
b11101100 ,
b11101100 _
b1010 -
b1010 ^
b1 *
b1 X
b1 a
b1011 +
b1011 `
b1100 0
b1100 ]
b0 )
b0 V
b0 W
b1100011 U
b101101010000011001100011 &
b101101010000011001100011 T
b1011100 $
b1011100 ?
b1011100 \
b1011000 @
b1011000 Z
1!
#92000
0!
#94000
b11 ;
b11 H
b11 L
19
1.
b11011 M
b0 '
b0 b
b0 :
b0 D
b0 <
b0 B
b0 Y
b10011 1
b10011 J
b0 %
b0 A
b0 ,
b0 _
b0 -
b0 ^
b0 *
b0 X
b0 a
b0 +
b0 `
b1010 0
b1010 ]
b10011 U
b10100010011 &
b10100010011 T
b1100000 $
b1100000 ?
b1100000 \
b1011100 @
b1011100 Z
1!
#96000
0!
#98000
b11110000 '
b11110000 b
b11110000 :
b11110000 D
b11110000 <
b11110000 B
b11110000 Y
b0 ;
b0 H
b0 L
09
0.
b0 M
b1101111 1
b1101111 J
b11110000 *
b11110000 X
b11110000 a
b1000 +
b1000 `
b0 0
b0 ]
b1101111 U
b100000000000000001101111 &
b100000000000000001101111 T
b1100100 $
b1100100 ?
b1100100 \
b1100000 @
b1100000 Z
1!
#100000
0!
#102000
b11 ;
b11 H
b11 L
19
1.
b1 '
b1 b
b1 :
b1 D
b11011 M
b1 <
b1 B
b1 Y
b10011 1
b10011 J
b11011000 *
b11011000 X
b11011000 a
b1 +
b1 `
b1010 0
b1010 ]
b1 )
b1 V
b1 W
b10011 U
b100000000010100010011 &
b100000000010100010011 T
b1101000 $
b1101000 ?
b1101000 \
b1100100 @
b1100100 Z
1!
#104000
0!
#106000
b0 '
b0 b
b0 :
b0 D
b0 <
b0 B
b0 Y
b0 *
b0 X
b0 a
b0 +
b0 `
b0 0
b0 ]
b0 )
b0 V
b0 W
b10011 &
b10011 T
b1101100 $
b1101100 ?
b1101100 \
b1101000 @
b1101000 Z
1!
#108000
0!
#110000
b0 ;
b0 H
b0 L
09
0.
b0 M
b1 '
b1 b
b1 :
b1 D
b1100011 1
b1100011 J
b1 %
b1 A
b1 ,
b1 _
b1010 -
b1010 ^
b10000 0
b10000 ]
b1100011 U
b1010000100001100011 &
b1010000100001100011 T
b1110000 $
b1110000 ?
b1110000 \
b1101100 @
b1101100 Z
1!
#112000
0!
#114000
b11 ;
b11 H
b11 L
19
1.
b11011 M
b1 '
b1 b
b1 :
b1 D
b1 <
b1 B
b1 Y
b10011 1
b10011 J
b0 %
b0 A
b0 ,
b0 _
b0 -
b0 ^
b11011000 *
b11011000 X
b11011000 a
b1 +
b1 `
b1010 0
b1010 ]
b1 )
b1 V
b1 W
b10011 U
b100000000010100010011 &
b100000000010100010011 T
b1110100 $
b1110100 ?
b1110100 \
b1110000 @
b1110000 Z
1!
#116000
0!
#118000
b0 ;
b0 H
b0 L
09
0.
b0 '
b0 b
b0 :
b0 D
b0 M
b0 <
b0 B
b0 Y
b1101111 1
b1101111 J
b10 6
b10 F
b0 *
b0 X
b0 a
b10100 +
b10100 `
b0 0
b0 ]
b0 )
b0 V
b0 W
b1101111 U
b101010000000000000001101111 &
b101010000000000000001101111 T
b1111000 $
b1111000 ?
b1111000 \
b1110100 @
b1110100 Z
1!
#120000
0!
#122000
b10000 +
b10000 `
b101000000000000000001101111 &
b101000000000000000001101111 T
b1111100 $
b1111100 ?
b1111100 \
b1111000 @
b1111000 Z
1!
#124000
0!
#126000
b11 ;
b11 H
b11 L
19
1.
b11011 M
b11110000 '
b11110000 b
b11110000 :
b11110000 D
b10011 1
b10011 J
b0 6
b0 F
b11110000 %
b11110000 A
b11110000 ,
b11110000 _
b1000 -
b1000 ^
b0 +
b0 `
b1010 0
b1010 ]
b10011 U
b1000000010100010011 &
b1000000010100010011 T
b10000000 $
b10000000 ?
b10000000 \
b1111100 @
b1111100 Z
1!
#128000
0!
#130000
b11101100 '
b11101100 b
b11101100 :
b11101100 D
b1000 G
b11111111111111111111111111111100 <
b11111111111111111111111111111100 B
b11111111111111111111111111111100 Y
b1111111 6
b1111111 F
b1010 -
b1010 ^
b11100 +
b11100 `
b11111111111111111111111111111100 )
b11111111111111111111111111111100 V
b11111111111111111111111111111100 W
b11111111110001010000010100010011 &
b11111111110001010000010100010011 T
b10000100 $
b10000100 ?
b10000100 \
b10000000 @
b10000000 Z
1!
#132000
b11101000 '
b11101000 b
b11101000 :
b11101000 D
b11101100 %
b11101100 A
b11101100 ,
b11101100 _
0!
#134000
b0 ;
b0 H
b0 L
09
0.
b11101100 '
b11101100 b
b11101100 :
b11101100 D
b0 M
b0 =
b0 C
b0 I
b0 <
b0 B
b0 Y
b11 1
b11 J
b0 6
b0 F
b10 G
b10 7
b10 E
b0 +
b0 `
b0 )
b0 V
b0 W
b11 U
b1010010010100000011 &
b1010010010100000011 T
b10001000 $
b10001000 ?
b10001000 \
b10000100 @
b10000100 Z
1!
#136000
0!
#138000
b11 ;
b11 H
b11 L
19
1.
b11011 M
b1 '
b1 b
b1 :
b1 D
b1 <
b1 B
b1 Y
b10011 1
b10011 J
b0 G
b0 7
b0 E
b0 %
b0 A
b0 ,
b0 _
b0 -
b0 ^
b11011000 *
b11011000 X
b11011000 a
b1 +
b1 `
b1011 0
b1011 ]
b1 )
b1 V
b1 W
b10011 U
b100000000010110010011 &
b100000000010110010011 T
b10001100 $
b10001100 ?
b10001100 \
b10001000 @
b10001000 Z
1!
#140000
0!
#142000
b1 =
b1 C
b1 I
b10 ;
b10 H
b10 L
09
b10001 M
b1000 G
b11101011 '
b11101011 b
b11101011 :
b11101011 D
b1 <
b1 B
b1 Y
b110011 1
b110011 J
b100000 6
b100000 F
b11101100 %
b11101100 A
b11101100 ,
b11101100 _
b1010 -
b1010 ^
b1 *
b1 X
b1 a
b1011 +
b1011 `
b1010 0
b1010 ]
b0 )
b0 V
b0 W
b110011 U
b1000000101101010000010100110011 &
b1000000101101010000010100110011 T
b10010000 $
b10010000 ?
b10010000 \
b10001100 @
b10001100 Z
1!
#144000
b11101010 '
b11101010 b
b11101010 :
b11101010 D
b11101011 %
b11101011 A
b11101011 ,
b11101011 _
0!
#146000
b0 ;
b0 H
b0 L
0.
b0 M
b0 =
b0 C
b0 I
b0 '
b0 b
b0 :
b0 D
b0 <
b0 B
b0 Y
b1101111 1
b1101111 J
b1111011 6
b1111011 F
b1111 G
b111 7
b111 E
b0 %
b0 A
b0 ,
b0 _
b11111 -
b11111 ^
b0 *
b0 X
b0 a
b10001 +
b10001 `
b1 0
b1 ]
b1101111 U
b11110111000111111111000011101111 &
b11110111000111111111000011101111 T
b10010100 $
b10010100 ?
b10010100 \
b10010000 @
b10010000 Z
1!
#148000
0!
#150000
b11111111111111111111111111110000 <
b11111111111111111111111111110000 B
b11111111111111111111111111110000 Y
b11 ;
b11 H
b11 L
19
1.
b11011 M
b11010000 '
b11010000 b
b11010000 :
b11010000 D
b10011 1
b10011 J
b1111111 6
b1111111 F
b1000 G
b0 7
b0 E
b11100000 %
b11100000 A
b11100000 ,
b11100000 _
b10 -
b10 ^
b10000 +
b10000 `
b10 0
b10 ]
b11111111111111111111111111110000 )
b11111111111111111111111111110000 V
b11111111111111111111111111110000 W
b10011 U
b11111111000000010000000100010011 &
b11111111000000010000000100010011 T
b10011000 $
b10011000 ?
b10011000 \
b10010100 @
b10010100 Z
1!
#152000
b11000000 '
b11000000 b
b11000000 :
b11000000 D
b11010000 %
b11010000 A
b11010000 ,
b11010000 _
0!
#154000
b0 ;
b0 H
b0 L
09
0.
b110111011 '
b110111011 b
b110111011 :
b110111011 D
b0 M
b0 =
b0 C
b0 I
b11101011 <
b11101011 B
b11101011 Y
b100011 1
b100011 J
b0 6
b0 F
b10 G
b10 7
b10 E
b11101011 *
b11101011 X
b11101011 a
b1010 +
b1010 `
b0 0
b0 ]
b0 )
b0 V
b0 W
b100011 U
b101000010010000000100011 &
b101000010010000000100011 T
b10011100 $
b10011100 ?
b10011100 \
b10011000 @
b10011000 Z
1!
#156000
0!
#158000
b11 ;
b11 H
b11 L
19
1.
b11011 M
b11110000 '
b11110000 b
b11110000 :
b11110000 D
b0 <
b0 B
b0 Y
b10011 1
b10011 J
b0 G
b0 7
b0 E
b11110000 %
b11110000 A
b11110000 ,
b11110000 _
b1000 -
b1000 ^
b0 *
b0 X
b0 a
b0 +
b0 `
b1010 0
b1010 ]
b10011 U
b1000000010100010011 &
b1000000010100010011 T
b10100000 $
b10100000 ?
b10100000 \
b10011100 @
b10011100 Z
1!
#160000
0!
#162000
b11101100 '
b11101100 b
b11101100 :
b11101100 D
b1000 G
b11111111111111111111111111111100 <
b11111111111111111111111111111100 B
b11111111111111111111111111111100 Y
b1111111 6
b1111111 F
b1010 -
b1010 ^
b11100 +
b11100 `
b11111111111111111111111111111100 )
b11111111111111111111111111111100 V
b11111111111111111111111111111100 W
b11111111110001010000010100010011 &
b11111111110001010000010100010011 T
b10100100 $
b10100100 ?
b10100100 \
b10100000 @
b10100000 Z
1!
#164000
b11101000 '
b11101000 b
b11101000 :
b11101000 D
b11101100 %
b11101100 A
b11101100 ,
b11101100 _
0!
#166000
b0 ;
b0 H
b0 L
09
0.
b11101100 '
b11101100 b
b11101100 :
b11101100 D
b0 M
b0 =
b0 C
b0 I
b0 <
b0 B
b0 Y
b11 1
b11 J
b0 6
b0 F
b10 G
b10 7
b10 E
b0 +
b0 `
b0 )
b0 V
b0 W
b11 U
b1010010010100000011 &
b1010010010100000011 T
b10101000 $
b10101000 ?
b10101000 \
b10100100 @
b10100100 Z
1!
#168000
0!
#170000
b11 ;
b11 H
b11 L
19
1.
b11011 M
b10 '
b10 b
b10 :
b10 D
b10 <
b10 B
b10 Y
b10011 1
b10011 J
b0 G
b0 7
b0 E
b0 %
b0 A
b0 ,
b0 _
b0 -
b0 ^
b11010000 *
b11010000 X
b11010000 a
b10 +
b10 `
b1011 0
b1011 ]
b10 )
b10 V
b10 W
b10011 U
b1000000000010110010011 &
b1000000000010110010011 T
b10101100 $
b10101100 ?
b10101100 \
b10101000 @
b10101000 Z
1!
#172000
0!
#174000
b1 =
b1 C
b1 I
b10 ;
b10 H
b10 L
09
b10001 M
b1000 G
b11101010 '
b11101010 b
b11101010 :
b11101010 D
b10 <
b10 B
b10 Y
b110011 1
b110011 J
b100000 6
b100000 F
b11101100 %
b11101100 A
b11101100 ,
b11101100 _
b1010 -
b1010 ^
b10 *
b10 X
b10 a
b1011 +
b1011 `
b1010 0
b1010 ]
b0 )
b0 V
b0 W
b110011 U
b1000000101101010000010100110011 &
b1000000101101010000010100110011 T
b10110000 $
b10110000 ?
b10110000 \
b10101100 @
b10101100 Z
1!
#176000
b11101000 '
b11101000 b
b11101000 :
b11101000 D
b11101010 %
b11101010 A
b11101010 ,
b11101010 _
0!
#178000
b0 ;
b0 H
b0 L
0.
b0 M
b0 =
b0 C
b0 I
b0 '
b0 b
b0 :
b0 D
b0 <
b0 B
b0 Y
b1101111 1
b1101111 J
b1111010 6
b1111010 F
b1111 G
b111 7
b111 E
b0 %
b0 A
b0 ,
b0 _
b11111 -
b11111 ^
b0 *
b0 X
b0 a
b10001 +
b10001 `
b1 0
b1 ]
b1101111 U
b11110101000111111111000011101111 &
b11110101000111111111000011101111 T
b10110100 $
b10110100 ?
b10110100 \
b10110000 @
b10110000 Z
1!
#180000
0!
#182000
b11 ;
b11 H
b11 L
19
1.
b11011 M
b11101010 '
b11101010 b
b11101010 :
b11101010 D
b10011 1
b10011 J
b0 6
b0 F
b0 G
b0 7
b0 E
b11101010 %
b11101010 A
b11101010 ,
b11101010 _
b1010 -
b1010 ^
b0 +
b0 `
b1011 0
b1011 ]
b10011 U
b1010000010110010011 &
b1010000010110010011 T
b10111000 $
b10111000 ?
b10111000 \
b10110100 @
b10110100 Z
1!
#184000
0!
#186000
b0 ;
b0 H
b0 L
09
0.
b0 M
b0 =
b0 C
b0 I
b11010000 '
b11010000 b
b11010000 :
b11010000 D
b11 1
b11 J
b10 G
b10 7
b10 E
b11010000 %
b11010000 A
b11010000 ,
b11010000 _
b10 -
b10 ^
b1010 0
b1010 ]
b11 U
b10010010100000011 &
b10010010100000011 T
b10111100 $
b10111100 ?
b10111100 \
b10111000 @
b10111000 Z
1!
#188000
0!
#190000
b11100000 '
b11100000 b
b11100000 :
b11100000 D
b10000 <
b10000 B
b10000 Y
b11 ;
b11 H
b11 L
19
1.
b11011 M
b10011 1
b10011 J
b0 G
b0 7
b0 E
b10000 +
b10000 `
b10 0
b10 ]
b10000 )
b10000 V
b10000 W
b10011 U
b1000000010000000100010011 &
b1000000010000000100010011 T
b11000000 $
b11000000 ?
b11000000 \
b10111100 @
b10111100 Z
1!
#192000
b11110000 '
b11110000 b
b11110000 :
b11110000 D
b11100000 %
b11100000 A
b11100000 ,
b11100000 _
0!
#194000
b10 ;
b10 H
b10 L
09
b10001 M
b111010100 '
b111010100 b
b111010100 :
b111010100 D
b11101010 <
b11101010 B
b11101010 Y
b110011 1
b110011 J
b11101010 %
b11101010 A
b11101010 ,
b11101010 _
b1010 -
b1010 ^
b11101010 *
b11101010 X
b11101010 a
b1011 +
b1011 `
b1010 0
b1010 ]
b0 )
b0 V
b0 W
b110011 U
b101101010000010100110011 &
b101101010000010100110011 T
b11000100 $
b11000100 ?
b11000100 \
b11000000 @
b11000000 Z
1!
#196000
b1010111110 '
b1010111110 b
b1010111110 :
b1010111110 D
b111010100 %
b111010100 A
b111010100 ,
b111010100 _
0!
#198000
b0 ;
b0 H
b0 L
0.
b0 M
b0 '
b0 b
b0 :
b0 D
b0 <
b0 B
b0 Y
b1101111 1
b1101111 J
b0 %
b0 A
b0 ,
b0 _
b0 -
b0 ^
b0 *
b0 X
b0 a
b100 +
b100 `
b0 0
b0 ]
b1101111 U
b10000000000000001101111 &
b10000000000000001101111 T
b11001000 $
b11001000 ?
b11001000 \
b11000100 @
b11000100 Z
1!
#200000
0!
#202000
b10000 <
b10000 B
b10000 Y
b11 ;
b11 H
b11 L
19
1.
b11011 M
b100000000 '
b100000000 b
b100000000 :
b100000000 D
b10011 1
b10011 J
b11110000 %
b11110000 A
b11110000 ,
b11110000 _
b1000 -
b1000 ^
b10000 +
b10000 `
b10 0
b10 ]
b10000 )
b10000 V
b10000 W
b10011 U
b1000001000000000100010011 &
b1000001000000000100010011 T
b11001100 $
b11001100 ?
b11001100 \
b11001000 @
b11001000 Z
1!
#204000
0!
#206000
b0 ;
b0 H
b0 L
09
0.
b100000000 '
b100000000 b
b100000000 :
b100000000 D
b0 M
b0 =
b0 C
b0 I
b0 <
b0 B
b0 Y
b11 1
b11 J
b1111111 6
b1111111 F
b1010 G
b10 7
b10 E
b100000000 %
b100000000 A
b100000000 ,
b100000000 _
b10 -
b10 ^
b11000 +
b11000 `
b1 0
b1 ]
b0 )
b0 V
b0 W
b11 U
b11111111100000010010000010000011 &
b11111111100000010010000010000011 T
b11010000 $
b11010000 ?
b11010000 \
b11001100 @
b11001100 Z
1!
#208000
0!
#210000
b11100 +
b11100 `
b1000 0
b1000 ]
b11111111110000010010010000000011 &
b11111111110000010010010000000011 T
b11010100 $
b11010100 ?
b11010100 \
b11010000 @
b11010000 Z
1!
#212000
0!
